10,MN,00000588,43102,2,09,6,43103,020073756,09643103020073756,,1390028,,なすの訪問看護ステーション,1
20,SU,1,2,6,,,63271779,１０００,１２５５５,,54096011,2940757,,,,,,,,,,2,3590517,,,,,,,,なすの訪問看護ステーション,,3,3,,,,,
30,GH,59510,59510,,,,,59510,59510,,,,,,,10000,,,,,,,,,,,41657,
40,RC,2ded8f3392af4cf8593e371278ff8e
10,MN,00001583,43102,2,26,6,43103,010085322,26643103010085322,,3590079,,訪問看護ステーションこころ,1
20,SU,1,2,8,,,63271779,１０００,９７７７,,21296017,0971945,,,,,,,,,,1,3230927,,29,,,,,,訪問看護ステーションこころ,,12,12,,,,,
30,GH,113180,113180,,,,,113180,113180,,,,,,18000,0,,,,,,,,,,,95180,4636
40,RC,eecd5da190f63d524f85ffdbbb58cd
10,MN,00001584,43010,2,26,6,43103,010085462,26643103010085462,,3590079,,訪問看護ステーションこころ,1
20,SU,1,2,8,,,63271779,１０００,９７７７,,21296017,0971945,,,,,,,,,,1,3230927,,29,,,,,,訪問看護ステーションこころ,,14,14,,,,,
30,GH,130240,130240,,,,,130240,130240,,,,,,18000,0,,,,,,1,,,,,112240,8048
40,RC,b033010cc4df144b5cd127217f64ca
10,MN,00001585,43011,2,26,6,43103,010085470,26643103010085470,,3590079,,訪問看護ステーションこころ,1
20,SU,1,2,8,,,63271779,１０００,９７７７,,21296017,0971945,,,,,,,,,,1,3230927,,29,,,,,,訪問看護ステーションこころ,,12,12,,,,,
30,GH,113180,113180,,,,,113180,113180,,,,,,18000,0,,,,,,1,,,,,95180,4636
40,RC,f951646a18cafd71e9d80021ad21f4
10,MN,00003029,43102,2,27,6,43103,030237269,27643103030237269,,3890304,,青山訪問看護ステーション羽曳野,1
20,SU,1,1,2,,,63271779,１０００,４７８２４,,,,,,,,,,,,,1,3271216,,28,,,,,,青山訪問看護ステーション羽曳野,,4,,,,,,
30,GH,49940,,,,,,49940,,,,,,,,,,,,,,,,,,,34958,
40,RC,e54a38030e7e28e8aec914bd68878f
10,MN,00003219,43102,2,28,6,43103,020191813,28643103020191813,,0990452,,ポップケア訪問看護ステーション,1
20,SU,1,1,2,,,63271779,１０００,２３４１８,,,,,,,,,,,,,1,3261225,,,,,,,,ポップケア訪問看護ステーション,,11,,,,,,
30,GH,122750,,,,,,122750,,,,,,,,,,,,,,,,,,,85925,
40,RC,f1f9a02b6464eaf63e3741d65555a4
10,MN,00005042,43102,2,29,6,43103,010149495,29643103010149495,,1390032,,御所訪問看護ステーション,1
20,SU,1,2,8,,,63271779,１０００,９６９１,,54296017,0098251,,,,,,,,,,1,3230522,,29,,,,,,御所訪問看護ステーション,,4,4,,,,,
30,GH,38540,38540,,,,,38540,38540,,,,,,,0,,,,,,,,,,,30832,
40,RC,80e8b4123d0dfbd358f01313c246c5
10,MN,00005043,43102,2,29,6,43103,010155649,29643103010155649,,0990105,,訪問看護ステーションデューン生駒,1
20,SU,1,2,6,,,63271779,１０００,２６９６７,,21296017,0956037,,,,,,,,,,2,4041216,,,,,,,,訪問看護ステーションデューン生駒,,4,4,,,,,
30,GH,38540,38540,,,,,38540,38540,,,,,,,3854,,,,,,,,,,,26978,
40,RC,04e19047f43bcf5fe3f95acfa2652c
10,MN,00005044,43102,2,29,6,43103,010155657,29643103010155657,,0990105,,訪問看護ステーションデューン生駒,1
20,SU,1,2,6,,,63271779,１０００,２６９６７,,21296017,1017896,,,,,,,,,,2,3340426,,,,,,,,訪問看護ステーションデューン生駒,,3,3,,,,,
30,GH,30010,30010,,,,,30010,30010,,,,,,,3001,,,,,,,,,,,21007,
40,RC,7263bc9ba78673d705134af3a66b31
