"HHS_BNG","SFSK_SHMKJ","SFSK_SHMKN","SFSK_ZIP_CD","SFSK_TDFK_NMKJ","SFSK_STS_NMKJ","SFSK_ADDR_KJ"
"00002352","吉岡喜美子保佐人　氏家　淳志　　　　　　　　　　　　　　　　　　　　　　　　　　","ヨシオカキミコホサニン　ウジイエ　アツシ　　　　　　　　　　　　　　　　　　　　","6500022","兵庫県　","神戸市　中央区　　　　　","元町通７丁目１番２号　ネオ・アージュ神戸元町６０８号　氏家司法書士総合法務事務所　　　　　　　　　　　　　　　　　　　　　　　　　　　　　　　　　　　　　　　　　　　　　　　　　　　　　　　　　　　　"
"00010926","冨永　喜三子　　　　　　　　　　　　　　　　　　　　　　　　　　　　　　　　　　","トミナガ　キミコ　　　　　　　　　　　　　　　　　　　　　　　　　　　　　　　　","6510087","兵庫県　","神戸市　中央区　　　　　","御幸通５丁目１番２１号　富永貿易株式会社　　　　　　　　　　　　　　　　　　　　　　　　　　　　　　　　　　　　　　　　　　　　　　　　　　　　　　　　　　　　　　　　　　　　　　　　　　　　　　　　"
"00011379","横山義雄保佐人　守屋　裕介　　　　　　　　　　　　　　　　　　　　　　　　　　　","ヨコヤマヨシオホサニン　モリヤ　ユウスケ　　　　　　　　　　　　　　　　　　　　","6580084","兵庫県　","神戸市　東灘区　　　　　","甲南町３丁目７番２６号　フィオーレ西尾２０１号室　守屋司法書士事務所　　　　　　　　　　　　　　　　　　　　　　　　　　　　　　　　　　　　　　　　　　　　　　　　　　　　　　　　　　　　　　　　　　"
"00017996","矢島　喜代子　　　　　　　　　　　　　　　　　　　　　　　　　　　　　　　　　　","ヤジマ　キヨコ　　　　　　　　　　　　　　　　　　　　　　　　　　　　　　　　　","6530842","兵庫県　","神戸市　長田区　　　　　","水笠通４丁目１－１－１１０２　朝田佳代子様方　　　　　　　　　　　　　　　　　　　　　　　　　　　　　　　　　　　　　　　　　　　　　　　　　　　　　　　　　　　　　　　　　　　　　　　　　　　　　　"
"00045773","鷲見　喜美子　　　　　　　　　　　　　　　　　　　　　　　　　　　　　　　　　　","スミ　キミコ　　　　　　　　　　　　　　　　　　　　　　　　　　　　　　　　　　","6511111","兵庫県　","神戸市　北区　　　　　　","鈴蘭台北町９丁目５－１－６１４　鷲見　雅美　様方　　　　　　　　　　　　　　　　　　　　　　　　　　　　　　　　　　　　　　　　　　　　　　　　　　　　　　　　　　　　　　　　　　　　　　　　　　　　"
"00046987","堀口　禮子　　　　　　　　　　　　　　　　　　　　　　　　　　　　　　　　　　　","ホリグチ　レイコ　　　　　　　　　　　　　　　　　　　　　　　　　　　　　　　　","6048133","京都府　","京都市　中京区　　　　　","滕屋町１８６六角高倉パークホームズ９０８　堀口　豊太　様方　　　　　　　　　　　　　　　　　　　　　　　　　　　　　　　　　　　　　　　　　　　　　　　　　　　　　　　　　　　　　　　　　　　　　　　"
"00047563","篠原　閑　　　　　　　　　　　　　　　　　　　　　　　　　　　　　　　　　　　　","シノハラ　シズカ　　　　　　　　　　　　　　　　　　　　　　　　　　　　　　　　","6580014","兵庫県　","神戸市　東灘区　　　　　","北青木４丁目１７－１５－３０１　佐良木　万喜　様方　　　　　　　　　　　　　　　　　　　　　　　　　　　　　　　　　　　　　　　　　　　　　　　　　　　　　　　　　　　　　　　　　　　　　　　　　　　"
"00047647","髙嶋　英　　　　　　　　　　　　　　　　　　　　　　　　　　　　　　　　　　　　","タカシマ　エイ　　　　　　　　　　　　　　　　　　　　　　　　　　　　　　　　　","6730892","兵庫県　","明石市　　　　　　　　　","本町１丁目１－２４　大日明石本町ビル２０２号　橋本司法書士事務所　　　　　　　　　　　　　　　　　　　　　　　　　　　　　　　　　　　　　　　　　　　　　　　　　　　　　　　　　　　　　　　　　　　　"
"00049080","田　千代子　　　　　　　　　　　　　　　　　　　　　　　　　　　　　　　　　　","タナベ　チヨコ　　　　　　　　　　　　　　　　　　　　　　　　　　　　　　　　　","5928345","大阪府　","堺市　西区　　　　　　　","浜寺　昭和町５丁６０５　藤井　和子　様方　　　　　　　　　　　　　　　　　　　　　　　　　　　　　　　　　　　　　　　　　　　　　　　　　　　　　　　　　　　　　　　　　　　　　　　　　　　　　　　　"
"00055277","吉꺄　慶子　　　　　　　　　　　　　　　　　　　　　　　　　　　　　　　　　　　","ヨシハラ　ケイコ　　　　　　　　　　　　　　　　　　　　　　　　　　　　　　　　","6580063","兵庫県　","神戸市　東灘区　　　　　","住吉山手９丁目１１－３　吉原秀一様方　　　　　　　　　　　　　　　　　　　　　　　　　　　　　　　　　　　　　　　　　　　　　　　　　　　　　　　　　　　　　　　　　　　　　　　　　　　　　　　　　　"
"00068189","宮田　有샡　　　　　　　　　　　　　　　　　　　　　　　　　　　　　　　　　　　","ミヤタ　アリヒサ　　　　　　　　　　　　　　　　　　　　　　　　　　　　　　　　","5340014","大阪府　","大阪市　都島区　　　　　","都島北通２丁目２０－２０－１５０２　高木　有紀子　様方　　　　　　　　　　　　　　　　　　　　　　　　　　　　　　　　　　　　　　　　　　　　　　　　　　　　　　　　　　　　　　　　　　　　　　　　　"
"00070094","中野八重子保佐人　井上　佐知子　　　　　　　　　　　　　　　　　　　　　　　　　","ナカノヤエコホサニン　イノウエ　サチコ　　　　　　　　　　　　　　　　　　　　　","6510084","兵庫県　","神戸市　中央区　　　　　","磯辺通３丁目１番２号　ＮＬＣ三宮７０１　　　　　　　　　　　　　　　　　　　　　　　　　　　　　　　　　　　　　　　　　　　　　　　　　　　　　　　　　　　　　　　　　　　　　　　　　　　　　　　　　"
"00070599","桝井　샡子　　　　　　　　　　　　　　　　　　　　　　　　　　　　　　　　　　　","マスイ　ヒサコ　　　　　　　　　　　　　　　　　　　　　　　　　　　　　　　　　","6660014","兵庫県　","川西市　　　　　　　　　","小戸２丁目１８－５　そんぽの家　川西鶴之荘３１９号　　　　　　　　　　　　　　　　　　　　　　　　　　　　　　　　　　　　　　　　　　　　　　　　　　　　　　　　　　　　　　　　　　　　　　　　　　　"
"00072058","松本　昭子　　　　　　　　　　　　　　　　　　　　　　　　　　　　　　　　　　　","マツモト　アキコ　　　　　　　　　　　　　　　　　　　　　　　　　　　　　　　　","1580093","東京都　","世田谷区　　　　　　　　","上野毛４丁目４－１７－１０８　林　美佐緒　様方　　　　　　　　　　　　　　　　　　　　　　　　　　　　　　　　　　　　　　　　　　　　　　　　　　　　　　　　　　　　　　　　　　　　　　　　　　　　　"
"00074575","大熊　爲子　　　　　　　　　　　　　　　　　　　　　　　　　　　　　　　　　　　","オオクマ　タメコ　　　　　　　　　　　　　　　　　　　　　　　　　　　　　　　　","6512242","兵庫県　","神戸市　西区　　　　　　","井吹台東町５丁目７４－２２　大熊　與志子　様方　　　　　　　　　　　　　　　　　　　　　　　　　　　　　　　　　　　　　　　　　　　　　　　　　　　　　　　　　　　　　　　　　　　　　　　　　　　　　"
"00075275","佐古　博子　　　　　　　　　　　　　　　　　　　　　　　　　　　　　　　　　　　","サコ　ヒロコ　　　　　　　　　　　　　　　　　　　　　　　　　　　　　　　　　　","6500015","兵庫県　","神戸市　中央区　　　　　","多聞通３丁目３番１６号　甲南第一ビル　８０７号　保佐人　村뭄　充彦　様方　　　　　　　　　　　　　　　　　　　　　　　　　　　　　　　　　　　　　　　　　　　　　　　　　　　　　　　　　　　　　　　　"
"00076133","中岡　敦子　　　　　　　　　　　　　　　　　　　　　　　　　　　　　　　　　　　","ナカオカ　アツコ　　　　　　　　　　　　　　　　　　　　　　　　　　　　　　　　","6580062","兵庫県　","神戸市　東灘区　　　　　","住吉台１１－１１　栗原　様方　　　　　　　　　　　　　　　　　　　　　　　　　　　　　　　　　　　　　　　　　　　　　　　　　　　　　　　　　　　　　　　　　　　　　　　　　　　　　　　　　　　　　　"
"00088344","山本　好子　　　　　　　　　　　　　　　　　　　　　　　　　　　　　　　　　　　","ヤマモト　ヨシコ　　　　　　　　　　　　　　　　　　　　　　　　　　　　　　　　","6590074","兵庫県　","芦屋市　　　　　　　　　","平田町５－８－４０５　植田　登美子　様方　　　　　　　　　　　　　　　　　　　　　　　　　　　　　　　　　　　　　　　　　　　　　　　　　　　　　　　　　　　　　　　　　　　　　　　　　　　　　　　　"
"00092007","宮﨑　宏一　　　　　　　　　　　　　　　　　　　　　　　　　　　　　　　　　　　","ミヤザキ　コウイチ　　　　　　　　　　　　　　　　　　　　　　　　　　　　　　　","6620074","兵庫県　","西宮市　　　　　　　　　","石刎町７番５－２０２号　　　　　　　　　　　　　　　　　　　　　　　　　　　　　　　　　　　　　　　　　　　　　　　　　　　　　　　　　　　　　　　　　　　　　　　　　　　　　　　　　　　　　　　　　"
"00094516","土居　昭男　　　　　　　　　　　　　　　　　　　　　　　　　　　　　　　　　　　","ドイ　アキオ　　　　　　　　　　　　　　　　　　　　　　　　　　　　　　　　　　","6580065","兵庫県　","神戸市東灘区　　　　　　","御影山手３丁目５－６　大野秀人様方　　　　　　　　　　　　　　　　　　　　　　　　　　　　　　　　　　　　　　　　　　　　　　　　　　　　　　　　　　　　　　　　　　　　　　　　　　　　　　　　　　　"
"00098103","圓尾　강걀　成年後見人　弁護士　表　昌子　　　　　　　　　　　　　　　　　　　　","マルオ　カヅ　セイネンコウケンニン　ベンゴシ　オモテ　マサコ　　　　　　　　　　","5300047","大阪府　","大阪市　北区　　　　　　","西天満４丁目１番２号　中之島日光ビル８階　　　　　　　　　　　　　　　　　　　　　　　　　　　　　　　　　　　　　　　　　　　　　　　　　　　　　　　　　　　　　　　　　　　　　　　　　　　　　　　　"
"00107284","近澤　利榮子　　　　　　　　　　　　　　　　　　　　　　　　　　　　　　　　　　","チカザワ　リエコ　　　　　　　　　　　　　　　　　　　　　　　　　　　　　　　　","6730403","兵庫県　","三木市　　　　　　　　　","末広３丁目３－３３　ＪＡサンビレッジ末広Ａ１０１　有岡　喜子　様方　　　　　　　　　　　　　　　　　　　　　　　　　　　　　　　　　　　　　　　　　　　　　　　　　　　　　　　　　　　　　　　　　　　"
"00111518","西田　三佐子　　　　　　　　　　　　　　　　　　　　　　　　　　　　　　　　　　","ニシダ　ミサコ　　　　　　　　　　　　　　　　　　　　　　　　　　　　　　　　　","6650836","兵庫県　","宝塚市　　　　　　　　　","清荒神２丁目１８－２５　平田　文　様方　　　　　　　　　　　　　　　　　　　　　　　　　　　　　　　　　　　　　　　　　　　　　　　　　　　　　　　　　　　　　　　　　　　　　　　　　　　　　　　　　"
"00116442","源田　博江　　　　　　　　　　　　　　　　　　　　　　　　　　　　　　　　　　　","ゲンダ　ヒロエ　　　　　　　　　　　　　　　　　　　　　　　　　　　　　　　　　","6620934","兵庫県　","西宮市　　　　　　　　　","西宮浜３丁目７－７　ケアハウス西宮恵泉　６０３　　　　　　　　　　　　　　　　　　　　　　　　　　　　　　　　　　　　　　　　　　　　　　　　　　　　　　　　　　　　　　　　　　　　　　　　　　　　　"
"00117242","森田　哲子　　　　　　　　　　　　　　　　　　　　　　　　　　　　　　　　　　　","モリタ　テツコ　　　　　　　　　　　　　　　　　　　　　　　　　　　　　　　　　","6590024","兵庫県　","芦屋市　　　　　　　　　","南宮町７－１６－３０６　橋本　喜美子　様方　　　　　　　　　　　　　　　　　　　　　　　　　　　　　　　　　　　　　　　　　　　　　　　　　　　　　　　　　　　　　　　　　　　　　　　　　　　　　　　"
"00123265","滝本　マスミ　　　　　　　　　　　　　　　　　　　　　　　　　　　　　　　　　　","タキモト　マスミ　　　　　　　　　　　　　　　　　　　　　　　　　　　　　　　　","6550013","兵庫県　","神戸市　垂水区　　　　　","福田２丁目４－２６　　滝本　一夫　様方　　　　　　　　　　　　　　　　　　　　　　　　　　　　　　　　　　　　　　　　　　　　　　　　　　　　　　　　　　　　　　　　　　　　　　　　　　　　　　　　　"
"00134395","濱﨑　英子　　　　　　　　　　　　　　　　　　　　　　　　　　　　　　　　　　　","ハマザキ　エイコ　　　　　　　　　　　　　　　　　　　　　　　　　　　　　　　　","1800002","東京都　","武蔵野市　　　　　　　　","吉祥寺東町３丁目２９－４　鶴岡　幸子　様方　　　　　　　　　　　　　　　　　　　　　　　　　　　　　　　　　　　　　　　　　　　　　　　　　　　　　　　　　　　　　　　　　　　　　　　　　　　　　　　"
"00137208","内橋　俊夫　　　　　　　　　　　　　　　　　　　　　　　　　　　　　　　　　　　","ウチハシ　トシオ　　　　　　　　　　　　　　　　　　　　　　　　　　　　　　　　","6600055","兵庫県　","尼崎市　　　　　　　　　","稲葉元町１丁目１－２３　ハートピア尼崎　　　　　　　　　　　　　　　　　　　　　　　　　　　　　　　　　　　　　　　　　　　　　　　　　　　　　　　　　　　　　　　　　　　　　　　　　　　　　　　　　"
"00139840","池田　千春　　　　　　　　　　　　　　　　　　　　　　　　　　　　　　　　　　　","イケダ　チハル　　　　　　　　　　　　　　　　　　　　　　　　　　　　　　　　　","6580045","兵庫県　","神戸市　東灘区　　　　　","御影石町４丁目１０－１　　　　　　　　　　　　　　　　　　　　　　　　　　　　　　　　　　　　　　　　　　　　　　　　　　　　　　　　　　　　　　　　　　　　　　　　　　　　　　　　　　　　　　　　　"
"00149740","青田　富江　　　　　　　　　　　　　　　　　　　　　　　　　　　　　　　　　　　","アオタ　トミエ　　　　　　　　　　　　　　　　　　　　　　　　　　　　　　　　　","6638153","兵庫県　","西宮市　　　　　　　　　","南甲子園１丁目９番３－１４２７号　青田　宙丈　様方　　　　　　　　　　　　　　　　　　　　　　　　　　　　　　　　　　　　　　　　　　　　　　　　　　　　　　　　　　　　　　　　　　　　　　　　　　　"
"00154567","上村　郁惠　　　　　　　　　　　　　　　　　　　　　　　　　　　　　　　　　　　","カミムラ　イクエ　　　　　　　　　　　　　　　　　　　　　　　　　　　　　　　　","6540131","兵庫県　","神戸市　須磨区　　　　　","横尾９丁目３－３２　上村　美和子様方　　　　　　　　　　　　　　　　　　　　　　　　　　　　　　　　　　　　　　　　　　　　　　　　　　　　　　　　　　　　　　　　　　　　　　　　　　　　　　　　　　"
"00168377","岩場　芙二子　　　　　　　　　　　　　　　　　　　　　　　　　　　　　　　　　　","イワバ　フジコ　　　　　　　　　　　　　　　　　　　　　　　　　　　　　　　　　","6580047","兵庫県　","神戸市　東灘区　　　　　","御影１丁目７番２７号　久保　美樹子様方　　　　　　　　　　　　　　　　　　　　　　　　　　　　　　　　　　　　　　　　　　　　　　　　　　　　　　　　　　　　　　　　　　　　　　　　　　　　　　　　　"
"00170795","吉原　咲代　　　　　　　　　　　　　　　　　　　　　　　　　　　　　　　　　　　","ヨシハラ　サクヨ　　　　　　　　　　　　　　　　　　　　　　　　　　　　　　　　","6510075","兵庫県　","神戸市　中央区　　　　　","北本町通３丁目２－１－８０２　竹中　睦美様方　　　　　　　　　　　　　　　　　　　　　　　　　　　　　　　　　　　　　　　　　　　　　　　　　　　　　　　　　　　　　　　　　　　　　　　　　　　　　　"
"00174573","米澤　美智子　　　　　　　　　　　　　　　　　　　　　　　　　　　　　　　　　　","ヨネザワ　ミチコ　　　　　　　　　　　　　　　　　　　　　　　　　　　　　　　　","6570066","兵庫県　","神戸市　灘区　　　　　　","篠原中町５丁目４－４－５０４　　　　　　　　　　　　　　　　　　　　　　　　　　　　　　　　　　　　　　　　　　　　　　　　　　　　　　　　　　　　　　　　　　　　　　　　　　　　　　　　　　　　　　"
