﻿"HHS_BNG","HHS_SHMKN","HHS_TS_NMKN","HHS_KEY_SHMKN","HHS_SHMKJ","HHS_TS_NMKJ","HHS_BRTH_YMD","HHS_TDFK_NMKJ","HHS_STS_NMKJ","HHS_ADDR_KJ","HHS_ZIPCD","HHS_KKKRSY_IDO_JYU_CD"
"00001370","サトウ　ヒサノブ　　　　　　　　　　　　　　　　　　　　　　　　　　　　　　　　","　　　　　　　　　　　　　　　　　　　　　　　　　　　　　　　　　　　　　　　　","サトウ　ヒサノブ　　　　　　　　　　　　　　　　　　　　　　","佐藤　尚信　　　　　　　　　　　　　　　　　　　　　　　　　　　　　　　　　　　","　　　　　　　　　　　　　　　　　　　　　　　　　　　　　　　　　　　　　　　　","19320213","大阪府　","大阪市北区　　　　　　　","浮田２丁目６番２１号　　　　　　　　　　　　　　　　　　　　　　　　　　　　　　　　　　　　　　　　　　　　　　　　　　　　　　　　　　　　　　　　　　　　　　　　　　　　　　　　　　　　　　　　　　","5300021","002"
"00001842","イダ　ミナコ　　　　　　　　　　　　　　　　　　　　　　　　　　　　　　　　　　","　　　　　　　　　　　　　　　　　　　　　　　　　　　　　　　　　　　　　　　　","イダ　ミナコ　　　　　　　　　　　　　　　　　　　　　　　　","井田　美奈子　　　　　　　　　　　　　　　　　　　　　　　　　　　　　　　　　　","　　　　　　　　　　　　　　　　　　　　　　　　　　　　　　　　　　　　　　　　","19320424","大阪府　","大阪市北区　　　　　　　","天神橋７丁目１１番６－３０１号　　　　　　　　　　　　　　　　　　　　　　　　　　　　　　　　　　　　　　　　　　　　　　　　　　　　　　　　　　　　　　　　　　　　　　　　　　　　　　　　　　　　　","5310041","002"
"00001859","イシダ　ヨシコ　　　　　　　　　　　　　　　　　　　　　　　　　　　　　　　　　","　　　　　　　　　　　　　　　　　　　　　　　　　　　　　　　　　　　　　　　　","イシダ　ヨシコ　　　　　　　　　　　　　　　　　　　　　　　","石田　良子　　　　　　　　　　　　　　　　　　　　　　　　　　　　　　　　　　　","　　　　　　　　　　　　　　　　　　　　　　　　　　　　　　　　　　　　　　　　","19181117","大阪府　","大阪市北区　　　　　　　","黒崎町１３番１４号　　　　　　　　　　　　　　　　　　　　　　　　　　　　　　　　　　　　　　　　　　　　　　　　　　　　　　　　　　　　　　　　　　　　　　　　　　　　　　　　　　　　　　　　　　　","5300023","002"
"00001867","イシカワ　アヤコ　　　　　　　　　　　　　　　　　　　　　　　　　　　　　　　　","　　　　　　　　　　　　　　　　　　　　　　　　　　　　　　　　　　　　　　　　","イシカワ　アヤコ　　　　　　　　　　　　　　　　　　　　　　","石川　綾子　　　　　　　　　　　　　　　　　　　　　　　　　　　　　　　　　　　","　　　　　　　　　　　　　　　　　　　　　　　　　　　　　　　　　　　　　　　　","19290203","大阪府　","大阪市北区　　　　　　　","黒崎町３番８号　　　　　　　　　　　　　　　　　　　　　　　　　　　　　　　　　　　　　　　　　　　　　　　　　　　　　　　　　　　　　　　　　　　　　　　　　　　　　　　　　　　　　　　　　　　　　","5300023","107"
"00003764","ハナダテ　ヨシエ　　　　　　　　　　　　　　　　　　　　　　　　　　　　　　　　","　　　　　　　　　　　　　　　　　　　　　　　　　　　　　　　　　　　　　　　　","ハナダテ　ヨシエ　　　　　　　　　　　　　　　　　　　　　　","花立　由江　　　　　　　　　　　　　　　　　　　　　　　　　　　　　　　　　　　","　　　　　　　　　　　　　　　　　　　　　　　　　　　　　　　　　　　　　　　　","19310324","大阪府　","大阪市北区　　　　　　　","中崎１丁目６番１４－７１０号　　　　　　　　　　　　　　　　　　　　　　　　　　　　　　　　　　　　　　　　　　　　　　　　　　　　　　　　　　　　　　　　　　　　　　　　　　　　　　　　　　　　　　","5300016","002"
"00005223","ハシモト　サダコ　　　　　　　　　　　　　　　　　　　　　　　　　　　　　　　　","　　　　　　　　　　　　　　　　　　　　　　　　　　　　　　　　　　　　　　　　","ハシモト　サダコ　　　　　　　　　　　　　　　　　　　　　　","橋本　貞子　　　　　　　　　　　　　　　　　　　　　　　　　　　　　　　　　　　","　　　　　　　　　　　　　　　　　　　　　　　　　　　　　　　　　　　　　　　　","19190426","大阪府　","大阪市北区　　　　　　　","菅原町１０番４号　　　　　　　　　　　　　　　　　　　　　　　　　　　　　　　　　　　　　　　　　　　　　　　　　　　　　　　　　　　　　　　　　　　　　　　　　　　　　　　　　　　　　　　　　　　　","5300046","002"
"00005694","ムラモト　シズコ　　　　　　　　　　　　　　　　　　　　　　　　　　　　　　　　","　　　　　　　　　　　　　　　　　　　　　　　　　　　　　　　　　　　　　　　　","ムラモト　シズコ　　　　　　　　　　　　　　　　　　　　　　","村本　静子　　　　　　　　　　　　　　　　　　　　　　　　　　　　　　　　　　　","　　　　　　　　　　　　　　　　　　　　　　　　　　　　　　　　　　　　　　　　","19320222","大阪府　","大阪市鶴見区　　　　　　","浜２丁目３番２５－５１４号　　　　　　　　　　　　　　　　　　　　　　　　　　　　　　　　　　　　　　　　　　　　　　　　　　　　　　　　　　　　　　　　　　　　　　　　　　　　　　　　　　　　　　　","5380035","104"
"00005702","モリタ　ヒロコ　　　　　　　　　　　　　　　　　　　　　　　　　　　　　　　　　","　　　　　　　　　　　　　　　　　　　　　　　　　　　　　　　　　　　　　　　　","モリタ　ヒロコ　　　　　　　　　　　　　　　　　　　　　　　","森田　弘子　　　　　　　　　　　　　　　　　　　　　　　　　　　　　　　　　　　","　　　　　　　　　　　　　　　　　　　　　　　　　　　　　　　　　　　　　　　　","19311030","大阪府　","大阪市東淀川区　　　　　","下新庄３丁目５番１－５０５号　　　　　　　　　　　　　　　　　　　　　　　　　　　　　　　　　　　　　　　　　　　　　　　　　　　　　　　　　　　　　　　　　　　　　　　　　　　　　　　　　　　　　　","5330021","002"
"00006189","イワイ　ヤヨイ　　　　　　　　　　　　　　　　　　　　　　　　　　　　　　　　　","　　　　　　　　　　　　　　　　　　　　　　　　　　　　　　　　　　　　　　　　","イワイ　ヤヨイ　　　　　　　　　　　　　　　　　　　　　　　","岩井　彌生　　　　　　　　　　　　　　　　　　　　　　　　　　　　　　　　　　　","　　　　　　　　　　　　　　　　　　　　　　　　　　　　　　　　　　　　　　　　","19210501","大阪府　","大阪市北区　　　　　　　","天神橋７丁目１番１６－３１０３号　　　　　　　　　　　　　　　　　　　　　　　　　　　　　　　　　　　　　　　　　　　　　　　　　　　　　　　　　　　　　　　　　　　　　　　　　　　　　　　　　　　　","5310041","101"
"00000463","クマガイ　エミコ　　　　　　　　　　　　　　　　　　　　　　　　　　　　　　　　","　　　　　　　　　　　　　　　　　　　　　　　　　　　　　　　　　　　　　　　　","クマガイ　エミコ　　　　　　　　　　　　　　　　　　　　　　","熊谷　惠美子　　　　　　　　　　　　　　　　　　　　　　　　　　　　　　　　　　","　　　　　　　　　　　　　　　　　　　　　　　　　　　　　　　　　　　　　　　　","19300515","大阪府　","大阪市北区　　　　　　　","黒崎町３番２０号　　　　　　　　　　　　　　　　　　　　　　　　　　　　　　　　　　　　　　　　　　　　　　　　　　　　　　　　　　　　　　　　　　　　　　　　　　　　　　　　　　　　　　　　　　　　","5300023","002"
"00000489","オグリ　ヤスカズ　　　　　　　　　　　　　　　　　　　　　　　　　　　　　　　　","　　　　　　　　　　　　　　　　　　　　　　　　　　　　　　　　　　　　　　　　","オグリ　ヤスカズ　　　　　　　　　　　　　　　　　　　　　　","小栗　安和　　　　　　　　　　　　　　　　　　　　　　　　　　　　　　　　　　　","　　　　　　　　　　　　　　　　　　　　　　　　　　　　　　　　　　　　　　　　","19280909","大阪府　","大阪市北区　　　　　　　","黒崎町８番１４号　　　　　　　　　　　　　　　　　　　　　　　　　　　　　　　　　　　　　　　　　　　　　　　　　　　　　　　　　　　　　　　　　　　　　　　　　　　　　　　　　　　　　　　　　　　　","5300023","002"
"00001404","シミズ　キヨコ　　　　　　　　　　　　　　　　　　　　　　　　　　　　　　　　　","　　　　　　　　　　　　　　　　　　　　　　　　　　　　　　　　　　　　　　　　","シミズ　キヨコ　　　　　　　　　　　　　　　　　　　　　　　","清水　清子　　　　　　　　　　　　　　　　　　　　　　　　　　　　　　　　　　　","　　　　　　　　　　　　　　　　　　　　　　　　　　　　　　　　　　　　　　　　","19260611","大阪府　","大阪市北区　　　　　　　","本庄東１丁目１２番１１号　　　　　　　　　　　　　　　　　　　　　　　　　　　　　　　　　　　　　　　　　　　　　　　　　　　　　　　　　　　　　　　　　　　　　　　　　　　　　　　　　　　　　　　　","5310074","002"
"00002352","ハタ　シゲコ　　　　　　　　　　　　　　　　　　　　　　　　　　　　　　　　　　","　　　　　　　　　　　　　　　　　　　　　　　　　　　　　　　　　　　　　　　　","ハタ　シゲコ　　　　　　　　　　　　　　　　　　　　　　　　","畑　繁子　　　　　　　　　　　　　　　　　　　　　　　　　　　　　　　　　　　　","　　　　　　　　　　　　　　　　　　　　　　　　　　　　　　　　　　　　　　　　","19260119","大阪府　","大阪市北区　　　　　　　","池田町１番２－５０１号　　　　　　　　　　　　　　　　　　　　　　　　　　　　　　　　　　　　　　　　　　　　　　　　　　　　　　　　　　　　　　　　　　　　　　　　　　　　　　　　　　　　　　　　　","5300033","002"
"00002360","ヒライ　ミヨ　　　　　　　　　　　　　　　　　　　　　　　　　　　　　　　　　　","　　　　　　　　　　　　　　　　　　　　　　　　　　　　　　　　　　　　　　　　","ヒライ　ミヨ　　　　　　　　　　　　　　　　　　　　　　　　","平井　美代　　　　　　　　　　　　　　　　　　　　　　　　　　　　　　　　　　　","　　　　　　　　　　　　　　　　　　　　　　　　　　　　　　　　　　　　　　　　","19301128","大阪府　","大阪市北区　　　　　　　","中津２丁目７番５－１０６号　　　　　　　　　　　　　　　　　　　　　　　　　　　　　　　　　　　　　　　　　　　　　　　　　　　　　　　　　　　　　　　　　　　　　　　　　　　　　　　　　　　　　　　","5310071","002"
"00002378","ヒガシハタ　ヒロシ　　　　　　　　　　　　　　　　　　　　　　　　　　　　　　　","　　　　　　　　　　　　　　　　　　　　　　　　　　　　　　　　　　　　　　　　","ヒガシハタ　ヒロシ　　　　　　　　　　　　　　　　　　　　　","東畑　宏　　　　　　　　　　　　　　　　　　　　　　　　　　　　　　　　　　　　","　　　　　　　　　　　　　　　　　　　　　　　　　　　　　　　　　　　　　　　　","19271027","大阪府　","大阪市北区　　　　　　　","池田町１２番８号　　　　　　　　　　　　　　　　　　　　　　　　　　　　　　　　　　　　　　　　　　　　　　　　　　　　　　　　　　　　　　　　　　　　　　　　　　　　　　　　　　　　　　　　　　　　","5300033","002"
"00002840","イシイ　ヒデノブ　　　　　　　　　　　　　　　　　　　　　　　　　　　　　　　　","　　　　　　　　　　　　　　　　　　　　　　　　　　　　　　　　　　　　　　　　","イシイ　ヒデノブ　　　　　　　　　　　　　　　　　　　　　　","石井　英信　　　　　　　　　　　　　　　　　　　　　　　　　　　　　　　　　　　","　　　　　　　　　　　　　　　　　　　　　　　　　　　　　　　　　　　　　　　　","19301023","大阪府　","大阪市北区　　　　　　　","菅栄町１番２０号　　　　　　　　　　　　　　　　　　　　　　　　　　　　　　　　　　　　　　　　　　　　　　　　　　　　　　　　　　　　　　　　　　　　　　　　　　　　　　　　　　　　　　　　　　　　","5300031","002"
"00003798","カワカツ　シヨウスケ　　　　　　　　　　　　　　　　　　　　　　　　　　　　　　","　　　　　　　　　　　　　　　　　　　　　　　　　　　　　　　　　　　　　　　　","カワカツ　シヨウスケ　　　　　　　　　　　　　　　　　　　　","川勝　彰輔　　　　　　　　　　　　　　　　　　　　　　　　　　　　　　　　　　　","　　　　　　　　　　　　　　　　　　　　　　　　　　　　　　　　　　　　　　　　","19310911","大阪府　","大阪市北区　　　　　　　","黒崎町９番１４号　　　　　　　　　　　　　　　　　　　　　　　　　　　　　　　　　　　　　　　　　　　　　　　　　　　　　　　　　　　　　　　　　　　　　　　　　　　　　　　　　　　　　　　　　　　　","5300023","002"
"00003814","カワベ　マス　　　　　　　　　　　　　　　　　　　　　　　　　　　　　　　　　　","　　　　　　　　　　　　　　　　　　　　　　　　　　　　　　　　　　　　　　　　","カワベ　マス　　　　　　　　　　　　　　　　　　　　　　　　","河部　マス　　　　　　　　　　　　　　　　　　　　　　　　　　　　　　　　　　　","　　　　　　　　　　　　　　　　　　　　　　　　　　　　　　　　　　　　　　　　","19310208","大阪府　","大阪市北区　　　　　　　","黒崎町５番５号　　　　　　　　　　　　　　　　　　　　　　　　　　　　　　　　　　　　　　　　　　　　　　　　　　　　　　　　　　　　　　　　　　　　　　　　　　　　　　　　　　　　　　　　　　　　　","5300023","002"
"00004283","カワムラ　ヒサコ　　　　　　　　　　　　　　　　　　　　　　　　　　　　　　　　","　　　　　　　　　　　　　　　　　　　　　　　　　　　　　　　　　　　　　　　　","カワムラ　ヒサコ　　　　　　　　　　　　　　　　　　　　　　","河村　ひさ子　　　　　　　　　　　　　　　　　　　　　　　　　　　　　　　　　　","　　　　　　　　　　　　　　　　　　　　　　　　　　　　　　　　　　　　　　　　","19290827","大阪府　","大阪市北区　　　　　　　","紅梅町２番２１－５０２号　　　　　　　　　　　　　　　　　　　　　　　　　　　　　　　　　　　　　　　　　　　　　　　　　　　　　　　　　　　　　　　　　　　　　　　　　　　　　　　　　　　　　　　　","5300038","101"
"00004770","ヒサノ　サダコ　　　　　　　　　　　　　　　　　　　　　　　　　　　　　　　　　","　　　　　　　　　　　　　　　　　　　　　　　　　　　　　　　　　　　　　　　　","ヒサノ　サダコ　　　　　　　　　　　　　　　　　　　　　　　","샡野　貞子　　　　　　　　　　　　　　　　　　　　　　　　　　　　　　　　　　　","　　　　　　　　　　　　　　　　　　　　　　　　　　　　　　　　　　　　　　　　","19260807","大阪府　","大阪市北区　　　　　　　","紅梅町５番１３号　　　　　　　　　　　　　　　　　　　　　　　　　　　　　　　　　　　　　　　　　　　　　　　　　　　　　　　　　　　　　　　　　　　　　　　　　　　　　　　　　　　　　　　　　　　　","5300038","002"
"00005231","ハトノ　マサコ　　　　　　　　　　　　　　　　　　　　　　　　　　　　　　　　　","　　　　　　　　　　　　　　　　　　　　　　　　　　　　　　　　　　　　　　　　","ハトノ　マサコ　　　　　　　　　　　　　　　　　　　　　　　","鳩野　昌子　　　　　　　　　　　　　　　　　　　　　　　　　　　　　　　　　　　","　　　　　　　　　　　　　　　　　　　　　　　　　　　　　　　　　　　　　　　　","19271014","大阪府　","大阪市北区　　　　　　　","菅原町３番４号　　　　　　　　　　　　　　　　　　　　　　　　　　　　　　　　　　　　　　　　　　　　　　　　　　　　　　　　　　　　　　　　　　　　　　　　　　　　　　　　　　　　　　　　　　　　　","5300046","002"
"00005256","ミズモト　アサミ　　　　　　　　　　　　　　　　　　　　　　　　　　　　　　　　","　　　　　　　　　　　　　　　　　　　　　　　　　　　　　　　　　　　　　　　　","ミズモト　アサミ　　　　　　　　　　　　　　　　　　　　　　","水本　あさみ　　　　　　　　　　　　　　　　　　　　　　　　　　　　　　　　　　","　　　　　　　　　　　　　　　　　　　　　　　　　　　　　　　　　　　　　　　　","19321018","大阪府　","大阪市北区　　　　　　　","菅原町７番４号　　　　　　　　　　　　　　　　　　　　　　　　　　　　　　　　　　　　　　　　　　　　　　　　　　　　　　　　　　　　　　　　　　　　　　　　　　　　　　　　　　　　　　　　　　　　　","5300046","002"
"00005728","モリサキ　ユキコ　　　　　　　　　　　　　　　　　　　　　　　　　　　　　　　　","　　　　　　　　　　　　　　　　　　　　　　　　　　　　　　　　　　　　　　　　","モリサキ　ユキコ　　　　　　　　　　　　　　　　　　　　　　","森崎　幸子　　　　　　　　　　　　　　　　　　　　　　　　　　　　　　　　　　　","　　　　　　　　　　　　　　　　　　　　　　　　　　　　　　　　　　　　　　　　","19291002","大阪府　","大阪市城東区　　　　　　","成育２丁目１１番７－３０１号　　　　　　　　　　　　　　　　　　　　　　　　　　　　　　　　　　　　　　　　　　　　　　　　　　　　　　　　　　　　　　　　　　　　　　　　　　　　　　　　　　　　　　","5360007","104"
"00006205","オクダ　ミチコ　　　　　　　　　　　　　　　　　　　　　　　　　　　　　　　　　","　　　　　　　　　　　　　　　　　　　　　　　　　　　　　　　　　　　　　　　　","オクダ　ミチコ　　　　　　　　　　　　　　　　　　　　　　　","奥田　美知子　　　　　　　　　　　　　　　　　　　　　　　　　　　　　　　　　　","　　　　　　　　　　　　　　　　　　　　　　　　　　　　　　　　　　　　　　　　","19250514","大阪府　","大阪市西区　　　　　　　","川口３丁目６番１４号　すみれ苑　　　　　　　　　　　　　　　　　　　　　　　　　　　　　　　　　　　　　　　　　　　　　　　　　　　　　　　　　　　　　　　　　　　　　　　　　　　　　　　　　　　　　","5500021","109"
"00000018","キタムラ　コウイチ　　　　　　　　　　　　　　　　　　　　　　　　　　　　　　　","　　　　　　　　　　　　　　　　　　　　　　　　　　　　　　　　　　　　　　　　","キタムラ　コウイチ　　　　　　　　　　　　　　　　　　　　　","北村　興一　　　　　　　　　　　　　　　　　　　　　　　　　　　　　　　　　　　","　　　　　　　　　　　　　　　　　　　　　　　　　　　　　　　　　　　　　　　　","19300325","大阪府　","大阪市北区　　　　　　　","池田町１３番８号　　　　　　　　　　　　　　　　　　　　　　　　　　　　　　　　　　　　　　　　　　　　　　　　　　　　　　　　　　　　　　　　　　　　　　　　　　　　　　　　　　　　　　　　　　　　","5300033","002"
"00000505","コバヤシ　キミコ　　　　　　　　　　　　　　　　　　　　　　　　　　　　　　　　","　　　　　　　　　　　　　　　　　　　　　　　　　　　　　　　　　　　　　　　　","コバヤシ　キミコ　　　　　　　　　　　　　　　　　　　　　　","小林　キミ子　　　　　　　　　　　　　　　　　　　　　　　　　　　　　　　　　　","　　　　　　　　　　　　　　　　　　　　　　　　　　　　　　　　　　　　　　　　","19290102","大阪府　","大阪市北区　　　　　　　","黒崎町２番２号　　　　　　　　　　　　　　　　　　　　　　　　　　　　　　　　　　　　　　　　　　　　　　　　　　　　　　　　　　　　　　　　　　　　　　　　　　　　　　　　　　　　　　　　　　　　　","5300023","002"
