id,保険者名,メホール使用中,保険者番号,保険者正式名称,保険者タイプ,ベリファイ入力,メディベリー,被保険者名,受療者名,被保険者郵便番号,被保険者住所,医療機関名_施術所,往療回数,支払先コード,受療者生年月日,被保険者番号,診療年月,施術日数,合計金額,請求金額,一部負担金,施術師名,診療日
65,カゴメ,使用中,,,健保,あり,あり,True,True,True,True,True,False,False,False,False,False,False,False,False,False,False,False
70,ヤマザキマザック,使用中,,,健保,なし,あり,True,True,True,True,True,False,True,False,False,False,False,False,False,False,False,False
15,三菱製紙,無効,,,健保,あり,あり,True,True,True,True,True,False,False,False,False,False,False,False,False,False,False,False
66,中央ラジオテレビ,使用中,,,健保,あり,あり,True,True,True,True,True,False,False,False,False,False,False,False,False,False,False,False
74,京都広域,使用中,,,後期高齢,あり,あり,False,False,True,True,False,False,False,False,False,False,False,False,False,False,False,False
20,京都府農協,無効,,,健保,あり,あり,True,True,True,True,True,False,False,False,False,False,False,False,False,False,False,False
96,佐倉市国保,使用中,,,国保,あり,なし,False,False,True,True,False,False,False,False,False,False,False,False,False,False,False,False
86,シャープ健保,使用中,,シャープ健康保険組合,健保,あり,あり,False,False,False,False,True,False,False,False,False,False,False,False,False,False,False,False
67,入間市国保,無効,,,国保,あり,あり,True,True,True,True,True,False,False,False,False,False,True,False,False,False,False,False
73,八千代国保,無効,,,国保,あり,あり,True,True,True,True,True,False,False,False,False,False,True,False,False,False,False,False
21,公立学校共済_01北海道,使用中,34010017,公立学校共済組合　北海道支部,学校共済,あり,あり,True,True,True,True,True,False,False,False,False,False,False,False,False,False,False,False
10,公立学校共済_02青森,使用中,34020016,公立学校共済組合　青森支部,学校共済,あり,あり,True,True,True,True,True,False,False,False,False,False,False,False,False,False,False,False
22,公立学校共済_03岩手,使用中,34030015,公立学校共済組合　岩手支部,学校共済,あり,あり,True,True,True,True,True,False,False,False,False,False,False,False,False,False,False,False
23,公立学校共済_04宮城,使用中,34040014,公立学校共済組合　宮城支部,学校共済,あり,あり,True,True,True,True,True,False,False,False,False,False,False,False,False,False,False,False
24,公立学校共済_05秋田,使用中,34050013,公立学校共済組合　秋田支部,学校共済,あり,あり,True,True,True,True,True,False,False,False,False,False,False,False,False,False,False,False
25,公立学校共済_06山形,使用中,34060012,公立学校共済組合　山形支部,学校共済,あり,あり,True,True,True,True,True,False,False,False,False,False,False,False,False,False,False,False
26,公立学校共済_07福島,使用中,34070011,公立学校共済組合　福島支部,学校共済,あり,あり,True,True,True,True,True,False,False,False,False,False,False,False,False,False,False,False
9,公立学校共済_08茨城,使用中,34080010,公立学校共済組合　茨城支部,学校共済,あり,あり,True,True,True,True,True,False,False,False,False,False,False,False,False,False,False,False
27,公立学校共済_09栃木,使用中,34090019,公立学校共済組合　栃木支部,学校共済,あり,あり,True,True,True,True,True,False,False,False,False,False,False,False,False,False,False,False
28,公立学校共済_10群馬,使用中,34100016,公立学校共済組合　群馬支部,学校共済,あり,あり,True,True,True,True,True,False,False,False,False,False,False,False,False,False,False,False
29,公立学校共済_11埼玉,使用中,34110015,公立学校共済組合　埼玉支部,学校共済,あり,あり,True,True,True,True,True,False,False,False,False,False,False,False,False,False,False,False
30,公立学校共済_12千葉,使用中,34120014,公立学校共済組合　千葉支部,学校共済,あり,あり,True,True,True,True,True,False,False,False,False,False,False,False,False,False,False,False
31,公立学校共済_13東京,使用中,34130013,公立学校共済組合　東京支部,学校共済,あり,あり,True,True,True,True,True,False,False,False,False,False,False,False,False,False,False,False
32,公立学校共済_14神奈川,使用中,34140012,公立学校共済組合　神奈川支部,学校共済,あり,あり,True,True,True,True,True,False,False,False,False,False,False,False,False,False,False,False
33,公立学校共済_15新潟,使用中,34150011,公立学校共済組合　新潟支部,学校共済,あり,あり,True,True,True,True,True,False,False,False,False,False,False,False,False,False,False,False
34,公立学校共済_16富山,使用中,34160010,公立学校共済組合　富山支部,学校共済,あり,あり,True,True,True,True,True,False,False,False,False,False,False,False,False,False,False,False
35,公立学校共済_17石川,使用中,34170019,公立学校共済組合　石川支部,学校共済,あり,あり,True,True,True,True,True,False,False,False,False,False,False,False,False,False,False,False
36,公立学校共済_18福井,使用中,34180018,公立学校共済組合　福井支部,学校共済,あり,あり,True,True,True,True,True,False,False,False,False,False,False,False,False,False,False,False
37,公立学校共済_19山梨,使用中,34190017,公立学校共済組合　山梨支部,学校共済,あり,あり,True,True,True,True,True,False,False,False,False,False,False,False,False,False,False,False
38,公立学校共済_20長野,使用中,34200014,公立学校共済組合　長野支部,学校共済,あり,あり,True,True,True,True,True,False,False,False,False,False,False,False,False,False,False,False
39,公立学校共済_21岐阜,使用中,34210013,公立学校共済組合　岐阜支部,学校共済,あり,あり,True,True,True,True,True,False,False,False,False,False,False,False,False,False,False,False
40,公立学校共済_22静岡,使用中,34220012,公立学校共済組合　静岡支部,学校共済,あり,あり,True,True,True,True,True,False,False,False,False,False,False,False,False,False,False,False
41,公立学校共済_23愛知,使用中,34230011,公立学校共済組合　愛知支部,学校共済,あり,あり,True,True,True,True,True,False,False,False,False,False,False,False,False,False,False,False
42,公立学校共済_24三重,使用中,34240010,公立学校共済組合　三重支部,学校共済,あり,あり,True,True,True,True,True,False,False,False,False,False,False,False,False,False,False,False
43,公立学校共済_25滋賀,使用中,34250019,公立学校共済組合　滋賀支部,学校共済,あり,あり,True,True,True,True,True,False,False,False,False,False,False,False,False,False,False,False
44,公立学校共済_26京都,使用中,34260018,公立学校共済組合　京都支部,学校共済,あり,あり,True,True,True,True,True,False,False,False,False,False,False,False,False,False,False,False
3,公立学校共済_27大阪,使用中,34270017,公立学校共済組合　大阪支部,学校共済,あり,あり,True,True,True,True,True,False,False,False,False,False,False,False,False,False,False,False
45,公立学校共済_28兵庫,使用中,34280016,公立学校共済組合　兵庫支部,学校共済,あり,あり,True,True,True,True,True,False,False,False,False,False,False,False,False,False,False,False
46,公立学校共済_29奈良,使用中,34290015,公立学校共済組合　奈良支部,学校共済,あり,あり,True,True,True,True,True,False,False,False,False,False,False,False,False,False,False,False
47,公立学校共済_30和歌山,使用中,34300012,公立学校共済組合　和歌山支部,学校共済,あり,あり,True,True,True,True,True,False,False,False,False,False,False,False,False,False,False,False
48,公立学校共済_31鳥取,使用中,34310011,公立学校共済組合　鳥取支部,学校共済,あり,あり,True,True,True,True,True,False,False,False,False,False,False,False,False,False,False,False
49,公立学校共済_32島根,使用中,34320010,公立学校共済組合　島根支部,学校共済,あり,あり,True,True,True,True,True,False,False,False,False,False,False,False,False,False,False,False
50,公立学校共済_33岡山,使用中,34330019,公立学校共済組合　岡山支部,学校共済,あり,あり,True,True,True,True,True,False,False,False,False,False,False,False,False,False,False,False
51,公立学校共済_34広島,使用中,34340018,公立学校共済組合　広島支部,学校共済,あり,あり,True,True,True,True,True,False,False,False,False,False,False,False,False,False,False,False
52,公立学校共済_35山口,使用中,34350017,公立学校共済組合　山口支部,学校共済,あり,あり,True,True,True,True,True,False,False,False,False,False,False,False,False,False,False,False
53,公立学校共済_36徳島,使用中,34360016,公立学校共済組合　徳島支部,学校共済,あり,あり,True,True,True,True,True,False,False,False,False,False,False,False,False,False,False,False
54,公立学校共済_37香川,使用中,34370015,公立学校共済組合　香川支部,学校共済,あり,あり,True,True,True,True,True,False,False,False,False,False,False,False,False,False,False,False
55,公立学校共済_38愛媛,使用中,34380014,公立学校共済組合　愛媛支部,学校共済,あり,あり,True,True,True,True,True,False,False,False,False,False,False,False,False,False,False,False
56,公立学校共済_39高知,使用中,34390013,公立学校共済組合　高知支部,学校共済,あり,あり,True,True,True,True,True,False,False,False,False,False,False,False,False,False,False,False
57,公立学校共済_40福岡,使用中,34400010,公立学校共済組合　福岡支部,学校共済,あり,あり,True,True,True,True,True,False,False,False,False,False,False,False,False,False,False,False
58,公立学校共済_41佐賀,使用中,34410019,公立学校共済組合　佐賀支部,学校共済,あり,あり,True,True,True,True,True,False,False,False,False,False,False,False,False,False,False,False
11,公立学校共済_42長崎,使用中,34420018,公立学校共済組合　長崎支部,学校共済,あり,あり,True,True,True,True,True,False,False,False,False,False,False,False,False,False,False,False
59,公立学校共済_43熊本,使用中,34430017,公立学校共済組合　熊本支部,学校共済,あり,あり,True,True,True,True,True,False,False,False,False,False,False,False,False,False,False,False
60,公立学校共済_44大分,使用中,34440016,公立学校共済組合　大分支部,学校共済,あり,あり,True,True,True,True,True,False,False,False,False,False,False,False,False,False,False,False
61,公立学校共済_45宮崎,使用中,34450015,公立学校共済組合　宮崎支部,学校共済,あり,あり,True,True,True,True,True,False,False,False,False,False,False,False,False,False,False,False
62,公立学校共済_46鹿児島,使用中,34460014,公立学校共済組合　鹿児島支部,学校共済,あり,あり,True,True,True,True,True,False,False,False,False,False,False,False,False,False,False,False
63,公立学校共済_47沖縄,使用中,34470013,公立学校共済組合　沖縄支部,学校共済,あり,あり,True,True,True,True,True,False,False,False,False,False,False,False,False,False,False,False
64,公立学校共済_99テスト,使用中,99999999,公立学校共済組合　テスト,学校共済,あり,あり,True,True,True,True,True,False,False,False,False,False,False,False,False,False,False,False
87,兵庫広域,使用中,,兵庫県後期高齢者広域連合,後期高齢,なし,なし,False,False,True,True,False,False,False,False,False,False,False,False,False,False,False,False
99,別府市国保,使用中,,,国保,あり,あり,False,False,True,True,False,False,False,False,False,False,False,False,False,False,False,False
95,千葉市国保,使用中,,,国保,あり,なし,False,False,True,True,False,False,False,False,False,False,False,False,False,False,False,False
101,協会けんぽ,使用中,,,健保,あり,なし,False,False,True,True,False,False,False,False,False,False,False,False,False,False,False,False
98,協会けんぽ埼玉支部,使用中,,,健保,あり,なし,False,False,True,True,False,False,False,False,False,False,False,False,False,False,False,False
90,協会けんぽ広島支部,使用中,,,健保,あり,なし,False,False,True,True,False,False,False,False,False,False,False,False,False,False,False,False
97,名古屋市国保,使用中,,,国保,あり,なし,False,False,True,True,False,False,False,False,False,False,False,False,False,False,False,False
69,名古屋木材,無効,,,健保,あり,あり,True,True,True,True,True,False,False,False,False,False,False,False,False,False,False,False
85,名古屋港湾健保,使用中,06230544,名古屋港湾健康保険組合,健保,あり,なし,False,False,False,False,False,False,False,False,False,False,False,False,False,False,False,False
13,地域医療,無効,06139869,地域医療振興協会健康保険組合,健保,あり,あり,True,True,True,True,True,False,False,False,False,False,False,False,False,False,False,False
93,外務省療養費,使用中,,,その他,あり,なし,False,False,True,True,False,False,False,False,False,False,False,False,False,False,False,False
78,大津国保,無効,,,国保,なし,あり,True,True,True,True,True,False,False,False,False,False,False,False,False,False,False,False
4,大阪広域,使用中,,,後期高齢,なし,あり,True,False,False,False,False,False,False,False,False,False,False,False,False,False,False,False
14,奈良広域,無効,,,後期高齢,なし,あり,True,False,True,True,True,True,False,False,True,False,False,False,False,False,False,False
83,宇治国保,無効,,,国保,なし,あり,True,True,True,True,True,False,False,False,True,True,True,False,False,False,False,False
82,宮城広域,無効,,宮城県後期高齢者広域連合,後期高齢,あり,なし,False,False,False,False,False,False,False,False,False,False,False,False,False,False,False,False
91,宮城県国保,使用中,,,国保,なし,なし,False,False,True,True,False,False,False,False,False,False,False,False,False,False,False,False
12,宮崎広域,使用中,,,後期高齢,なし,あり,True,False,False,False,False,False,False,False,False,False,False,False,False,False,False,False
19,小樽市国保,無効,010033,小樽市国保,国保,あり,あり,True,False,True,True,False,False,False,False,False,False,False,False,False,False,False,False
1,尼崎市国保,使用中,,,国保,なし,あり,False,False,True,True,False,False,False,False,False,False,False,False,False,False,False,False
18,岸和田市国保,無効,,,国保,なし,あり,True,True,True,True,True,False,False,False,False,False,False,False,False,False,False,False
8,島根広域,使用中,,,後期高齢,あり,あり,True,False,True,True,True,False,False,False,False,False,False,False,False,False,False,False
88,テスト広域,無効,,広域試験用,後期高齢,あり,なし,False,False,True,True,False,False,False,False,False,False,False,False,False,False,False,False
5,広島広域,無効,,,後期高齢,なし,なし,False,False,False,False,False,False,False,False,False,False,False,False,False,False,False,False
17,徳島広域,使用中,,徳島県広域高齢者医療保健連合,後期高齢,なし,なし,False,False,False,False,False,False,False,False,False,False,False,False,False,False,False,False
2,愛知県都市職員共済組合,使用中,,,健保,あり,あり,True,True,False,False,True,False,False,False,False,False,False,False,False,False,False,False
76,成田国保,無効,,,国保,あり,あり,True,True,True,True,True,False,False,True,False,False,True,False,False,False,True,False
80,日進国保,無効,,,国保,なし,あり,True,True,True,True,True,False,False,False,True,True,True,False,False,False,False,False
77,朝倉国保,無効,,,国保,なし,あり,True,True,True,True,True,False,False,False,True,False,False,False,False,False,False,False
7,札幌市国保,無効,,,国保,あり,なし,False,False,False,False,False,False,False,False,False,False,False,False,False,False,False,False
81,東大阪国保,無効,,,国保,あり,あり,True,True,True,True,True,False,False,False,False,False,False,False,False,False,False,False
72,東村山市国保,使用中,,,国保,あり,あり,True,True,True,True,True,False,False,False,False,False,False,False,False,False,False,False
68,枚方市国保,無効,,,国保,なし,あり,True,True,True,True,True,False,False,False,True,True,True,True,True,False,True,False
6,武蔵野市国保,無効,,,国保,あり,あり,False,False,True,True,False,False,False,False,False,False,False,False,False,False,False,False
71,フタバ産業,使用中,06231757,フタバ産業健康保険組合,健保,あり,あり,True,True,True,True,True,False,False,False,False,False,False,False,False,False,False,False
75,茨木生保,無効,12272811,茨木市健康福祉部生活福祉課,その他,あり,なし,False,False,False,False,False,False,False,False,False,False,False,False,False,False,False,False
92,荒川区国保,使用中,,,国保,あり,あり,True,True,True,True,True,False,False,False,False,False,False,False,False,False,True,False
89,豊橋市国保,無効,,,国保,あり,あり,False,False,True,True,False,False,False,False,False,False,False,False,False,False,False,False
100,越谷市国保,使用中,,,国保,あり,あり,False,False,True,True,False,False,False,False,False,False,False,False,False,False,False,False
84,阪南市国保,無効,,,国保,あり,なし,False,False,False,False,False,False,False,False,False,False,False,False,False,False,False,False
79,電気硝子,使用中,,,健保,あり,あり,True,True,True,True,True,False,False,False,False,False,False,False,False,False,False,False
94,静岡市あはき,使用中,,,国保,あり,あり,False,False,True,True,False,False,False,False,False,False,False,False,False,False,False,False
16,静岡広域,無効,,静岡県広域高齢者医療保健連合,後期高齢,なし,なし,False,False,False,False,False,False,False,False,False,False,False,False,False,False,False,False
