"処理年月","レセプト全国共通キー","国保連レセプト番号","保険者番号","被保険者証記号","被保険者証番号(全角)","被保険者証番号(半角)","生年月日","性別","被保険者氏名","個人番号","受給者番号","帳票イメージ番号","審査年月","診療年月","本人家族入外","保険_診療実日数","保険_請求点数","算定＿保険＿決定点数"
"50204","001","001","00040022","石巻市","み石","70A928507","3 57.10.24","1","草野　雄太","0050078000  ","","001","50204","50201","02","1","1220","1220"
"50204","002","002","00040022","塩竈市","み石","70A935155","3 60.09.09","2","坂下　かよ","0080751748  ","","002","50204","50201","02","1","3175","3175"
"50204","003","003","00040022","気仙沼市","み石","1A319256","3 54.01.12","2","杉浦　久子","","","003","50204","50203","06","1","1220","1220"
"50204","004","004","00040022","白石市","み石","70A518716","3 59.07.23","2","横田　佳世子","","","004","50204","50203","06","2","3617","3617"
"50204","005","005","00040022","石巻市","み石","113A28005","3 57.07.10","1","阪本　滿代","","","005","50204","50203","2","13","4374","4374"
"50204","006","006","00040022","石巻市","み石","101A22544","3 57.03.24","2","染川　剛生","","","006","50204","50203","2","12","11986","11986"
"50204","007","007","00040022","石巻市","み石","225A26867","3 51.09.28","1","松原　誠","","","007","50204","50203","2","8","15547","15547"
"50204","008","008","00040030","塩竈市","み塩","1A24814","3 62.01.10","1","居林　優衣","","","008","50204","50203","6","24","4579","4579"
"50204","009","009","00040055","気仙沼市","み気","A21943","3 45.04.28","1","北谷　佳寿美","","","009","50204","50203","2","21","16881","16881"
"50204","010","010","00040055","気仙沼市","み気","A12662","3 55.02.07","2","宮井　嘉月","","","010","50204","50203","2","4","4888","4888"
"50204","011","011","00040055","気仙沼市","み気","A7239","3 61.02.25","2","西岡　昭一","","","011","50204","50203","2","17","22931","22931"
"50204","012","012","00040063","白石市","み白","1376A28106","3 47.04.06","2","西岡　まり子","","","012","50204","50203","2","10","2312","2312"
"50204","013","013","00040063","白石市","み白","2544A9377","3 51.01.25","2","鈴木　佑基","","","013","50204","50203","2","6","19122","19122"
"50204","014","014","00040030","塩竈市","み塩","2A28444","3 60.08.12","1","酒谷　正弘","","","014","50204","50203","2","22","3770","3770"
"50204","015","015","00040071","名取市","み名","A25291","3 53.11.03","1","佐古　裕美","","","015","50204","50203","2","11","20287","20287"
"50204","016","016","00040071","名取市","み名","A30825","3 59.08.01","2","佐古　有弘","","","016","50204","50203","2","5","11734","11734"
"50204","017","017","00044040","仙台市太白区","太白","390-38722","3 59.06.28","2","要　陽子","","","017","50204","50203","2","5","23547","23547"
"50204","018","018","00044024","仙台市宮城野区","宮城野","173-1566","3 56.07.16","1","吉田　節子","","","018","50204","50203","2","4","11306","11306"
"50204","019","019","00040030","塩竈市","み塩","3A12046","3 49.10.15","1","齊田　文子","","","019","50204","50203","6","23","10834","10834"