   ?column?    | count 
---------------+-------
  aichi_toshi  | 86317
(1 行)

   ?column?    | count 
---------------+-------
  aichi_toshi  | 86317
(1 行)

      ?column?      | count  
--------------------+--------
  amagasaki_kokuho  | 215610
(1 行)

  ?column?   | count 
-------------+-------
  arakawaku  | 18426
(1 行)

     ?column?     | count 
------------------+-------
  asakura_kokuho  |  7416
(1 行)

     ?column?      | count 
-------------------+-------
  beppushi_kokuho  |  9175
(1 行)

     ?column?      | count 
-------------------+-------
  chibashi_kokuho  | 44750
(1 行)

  ?column?   | count 
-------------+-------
  chikiiryo  |  9942
(1 行)

   ?column?   | count 
--------------+-------
  chuo_radio  | 22503
(1 行)

    ?column?    | count 
----------------+-------
  denki_garasu  |  3203
(1 行)

 ?column? | count 
----------+-------
  futaba  | 10074
(1 行)

       ?column?       | count 
----------------------+-------
  gaimusho_ryouyouhi  |  3412
(1 行)

      ?column?      | count  
--------------------+--------
  gakko_01hokkaido  | 139048
(1 行)

     ?column?     | count 
------------------+-------
  gakko_02aomori  | 28183
(1 行)

    ?column?     | count 
-----------------+-------
  gakko_03iwate  | 36500
(1 行)

     ?column?     | count 
------------------+-------
  gakko_04miyagi  | 75920
(1 行)

    ?column?     | count 
-----------------+-------
  gakko_05akita  | 21395
(1 行)

      ?column?      | count 
--------------------+-------
  gakko_06yamagata  | 23417
(1 行)

      ?column?       | count 
---------------------+-------
  gakko_07fukushima  | 53608
(1 行)

     ?column?      | count 
-------------------+-------
  gakko_08ibaragi  | 58759
(1 行)

     ?column?      | count 
-------------------+-------
  gakko_09tochigi  | 44786
(1 行)

    ?column?     | count 
-----------------+-------
  gakko_10gunma  | 48684
(1 行)

     ?column?      | count  
-------------------+--------
  gakko_11saitama  | 136947
(1 行)

    ?column?     | count  
-----------------+--------
  gakko_12chiba  | 110955
(1 行)

    ?column?     | count  
-----------------+--------
  gakko_13tokyo  | 211151
(1 行)

      ?column?      | count  
--------------------+--------
  gakko_14kanagawa  | 152405
(1 行)

     ?column?     | count 
------------------+-------
  gakko_15nigata  | 39005
(1 行)

     ?column?     | count 
------------------+-------
  gakko_16toyama  | 24414
(1 行)

      ?column?      | count 
--------------------+-------
  gakko_17ishikawa  | 23768
(1 行)

    ?column?     | count 
-----------------+-------
  gakko_18fukui  | 19693
(1 行)

      ?column?       | count 
---------------------+-------
  gakko_19yamanashi  | 21930
(1 行)

     ?column?     | count 
------------------+-------
  gakko_20nagano  | 50379
(1 行)

    ?column?    | count 
----------------+-------
  gakko_21gifu  | 54916
(1 行)

      ?column?      | count 
--------------------+-------
  gakko_22shizuoka  | 68597
(1 行)

    ?column?     | count  
-----------------+--------
  gakko_23aichi  | 152979
(1 行)

   ?column?    | count 
---------------+-------
  gakko_24mie  | 40073
(1 行)

    ?column?     | count 
-----------------+-------
  gakko_25shiga  | 37314
(1 行)

    ?column?     | count 
-----------------+-------
  gakko_26kyoto  | 91235
(1 行)

    ?column?     | count  
-----------------+--------
  gakko_27osaka  | 400832
(1 行)

    ?column?     | count  
-----------------+--------
  gakko_28hyogo  | 152192
(1 行)

    ?column?    | count 
----------------+-------
  gakko_29nara  | 47551
(1 行)

      ?column?      | count 
--------------------+-------
  gakko_30wakayama  | 51008
(1 行)

     ?column?      | count 
-------------------+-------
  gakko_31tottori  |  8863
(1 行)

     ?column?      | count 
-------------------+-------
  gakko_32shimane  | 10253
(1 行)

     ?column?      | count 
-------------------+-------
  gakko_33okayama  | 39731
(1 行)

      ?column?       | count 
---------------------+-------
  gakko_34hiroshima  | 46210
(1 行)

       ?column?       | count 
----------------------+-------
  gakko_35yamamguchi  | 31653
(1 行)

      ?column?       | count 
---------------------+-------
  gakko_36tokushima  | 40215
(1 行)

     ?column?     | count 
------------------+-------
  gakko_37kagawa  | 31467
(1 行)

    ?column?     | count 
-----------------+-------
  gakko_38ehime  | 37194
(1 行)

    ?column?     | count 
-----------------+-------
  gakko_39kochi  | 21961
(1 行)

     ?column?      | count  
-------------------+--------
  gakko_40fukuoka  | 170376
(1 行)

    ?column?    | count 
----------------+-------
  gakko_41saga  | 32860
(1 行)

      ?column?      | count 
--------------------+-------
  gakko_42nagasaki  | 81290
(1 行)

      ?column?      | count 
--------------------+-------
  gakko_43kumamoto  | 44939
(1 行)

    ?column?    | count 
----------------+-------
  gakko_44oita  | 40355
(1 行)

      ?column?      | count 
--------------------+-------
  gakko_45miyazaki  | 35446
(1 行)

      ?column?       | count 
---------------------+-------
  gakko_46kagoshima  | 74165
(1 行)

     ?column?      | count 
-------------------+-------
  gakko_47okinawa  | 48303
(1 行)

    ?column?    | count 
----------------+-------
  gakko_99test  |  7048
(1 行)

    ?column?     | count 
-----------------+-------
  hannan_kokuho  |  5242
(1 行)

         ?column?         | count 
--------------------------+-------
  higashimurayama_kokuho  | 62511
(1 行)

     ?column?      | count  
-------------------+--------
  hirakata_kokuho  | 108092
(1 行)

     ?column?      | count  
-------------------+--------
  hiroshima_koiki  | 625464
(1 行)

   ?column?    | count  
---------------+--------
  hyogo_koiki  | 702506
(1 行)

    ?column?     | count 
-----------------+-------
  ibaraki_seiho  |    35
(1 行)

    ?column?    | count 
----------------+-------
  iruma_kokuho  | 10875
(1 行)

 ?column? | count 
----------+-------
  kagome  |  5969
(1 行)

      ?column?      | count 
--------------------+-------
  kishiwada_kokuho  | 97367
(1 行)

    ?column?    | count 
----------------+-------
  kk_hiroshima  |  7997
(1 行)

   ?column?   | count 
--------------+-------
  kk_saitama  |  5833
(1 行)

    ?column?     | count 
-----------------+-------
  kyotofu_nokyo  |  4750
(1 行)

   ?column?    | count  
---------------+--------
  kyoto_koiki  | 525152
(1 行)

      ?column?       | count 
---------------------+-------
  mitsubishi_seishi  |  4003
(1 行)

    ?column?    | count  
----------------+--------
  miyagi_koiki  | 212940
(1 行)

    ?column?     | count 
-----------------+-------
  miyagi_kokuho  | 95318
(1 行)

     ?column?     | count  
------------------+--------
  miyazaki_koiki  | 315726
(1 行)

  ?column?   | count 
-------------+-------
  musashino  | 14783
(1 行)

      ?column?      | count 
--------------------+-------
  nagoyashi_kokuho  |  9668
(1 行)

    ?column?     | count 
-----------------+-------
  nagoya_kouwan  | 13814
(1 行)

     ?column?     | count 
------------------+-------
  nagoya_mokuzai  |     0
(1 行)

   ?column?   | count  
--------------+--------
  nara_koiki  | 765599
(1 行)

    ?column?     | count 
-----------------+-------
  narita_kokuho  | 11008
(1 行)

     ?column?     | count 
------------------+-------
  nisshin_kokuho  | 15479
(1 行)

   ?column?    |  count  
---------------+---------
  osaka_koiki  | 5479189
(1 行)

    ?column?    | count 
----------------+-------
  otaru_kokuho  |  2912
(1 行)

   ?column?    | count 
---------------+-------
  otsu_kokuho  | 32208
(1 行)

      ?column?      | count 
--------------------+-------
  sakurashi_kokuho  | 13537
(1 行)

     ?column?     | count  
------------------+--------
  sapporo_kokuho  | 105068
(1 行)

   ?column?    | count 
---------------+-------
  sharp_kenpo  | 25579
(1 行)

    ?column?     | count 
-----------------+-------
  shimane_koiki  | 61110
(1 行)

      ?column?       | count 
---------------------+-------
  shizuokashi_ahaki  |  5403
(1 行)

     ?column?     | count  
------------------+--------
  shizuoka_koiki  | 361335
(1 行)

     ?column?      | count  
-------------------+--------
  tokushima_koiki  | 419681
(1 行)

      ?column?      | count 
--------------------+-------
  toyohashi_kokuho  | 24993
(1 行)

   ?column?   | count 
--------------+-------
  uji_kokuho  | 28938
(1 行)

     ?column?     | count 
------------------+-------
  yachiyo_kokuho  | 19502
(1 行)

     ?column?     | count 
------------------+-------
  yamazaki_mazak  |  6544
(1 行)

