"aid","cym","honsho","shokuin","kokan","pname","psex","pbirthy","pbirthm","pbirthd","zokugara","sickname","ryouyoukubun","months","days","f1sty","f1stm","f1std","f1edy","f1edm","f1edd","f2sty","f2stm","f2std","f2edy","f2edm","f2edd","currencycode","total","chrgy","chrgm","chrgd","bunruiflg"
"401013","202004","9999","15668","301A","北村　陽子","2","1978","3","31","2","帯状疱疹","2","1","","2019","6","1","2019","6","1","","","","","","","01","215","2019","10","8","0"
"501086","202004","57","24559","301A","足立　吉樹","1","1968","7","8","1","アレルギー性鼻炎","2","1","","2019","12","17","2019","12","17","","","","","","","00","18780","2020","4","14","0"
"501087","202004","57","24559","301A","足立　真紀","2","1974","8","9","2","乳がんの疑い","2","1","","2019","11","25","2019","11","25","","","","","","","01","450","2020","4","14","0"
"501088","202004","57","24559","301A","足立　皐","2","2004","3","10","3","コンタクトレンズ検査","2","1","","2019","11","16","2019","11","16","","","","","","","01","244","2020","4","14","0"
"601033","202004","57","24559","301A","足立　皐","2","2004","3","10","3","抜歯","3","1","","2020","1","2","2020","1","2","","","","","","","01","322","2020","4","14","0"
"601034","202004","57","24559","301A","足立　皐","2","2004","3","10","3","抜歯","3","1","","2020","3","3","2020","3","3","","","","","","","01","348","2020","4","14","0"
"301057","202004","30","07973","301C","酒井　起久夫","1","1965","3","4","1","本能性高血圧症","2","1","","2020","1","15","2020","1","15","","","","","","","00","4402","2020","3","16","0"
"601029","202004","8","13690","301E","増田　龍乃輔","1","2009","1","22","3","虫歯","3","2","","2020","1","25","2020","2","29","","","","","","","01","700","2020","4","1","0"
"601035","202004","8","13690","301E","増田　結梨乃","2","2012","2","15","3","虫歯","3","3","","2020","1","25","2020","3","14","","","","","","","01","1230","2020","4","1","0"
"301061","202004","19","12529","301F","菊間　佳奈","2","1978","7","11","2","胸の痛み、胸からの分泌液","2","1","","2019","9","19","2019","9","19","","","","","","","01","375","2020","3","9","0"
"601039","202004","19","12529","301F","菊間　佳奈","2","1978","7","11","2","虫歯治療","3","1","","2019","9","26","2019","9","26","","","","","","","01","182","2020","3","9","0"
"301060","202004","19","12529","301F","菊間　佳奈","2","1978","7","11","2","胸の痛み、胸の分泌液","2","1","","2019","11","6","2019","11","6","","","","","","","01","943","2020","3","9","0"
"301059","202004","22","24718","301F","古橋　怜旺","1","2016","11","7","3","ぜんそく","2","1","","2020","3","7","2020","3","7","","","","","","","01","75","2020","3","20","0"
"601007","202004","23","14580","301H","飯島　翠","2","2012","6","15","3","う触症","3","1","","2020","2","21","2020","2","28","","","","","","","01","1080","2020","3","12","0"
"401017","202004","23","24625","301H","久米　均","1","1984","10","19","1","緑内障","2","1","","2020","3","5","2020","3","5","","","","","","","01","380","2020","3","9","0"
"501090","202004","9","14093","301I","草山　郁","2","1967","2","23","2","細菌性膣炎","2","1","","2019","1","15","2019","1","15","","","","","","","C9","1505.82","2020","3","27","0"
"301058","202004","4","24399","301K","永田　陸登","1","2006","10","9","3","インフルエンザA型","2","1","","2020","3","2","2020","3","2","","","","","","","01","313.99","2020","3","18","0"
"601045","202004","5","19213","301P","山口　大希","1","1988","9","21","1","歯科治療","3","1","","2020","3","7","2020","3","7","","","","","","","01","460","2020","3","18","0"
"301056","202004","2","25813","301P","齋藤　陽太","1","2014","2","4","3","インフルエンザ及び中耳炎","2","1","","2020","2","11","2020","2","20","","","","","","","01","964980","2020","3","11","0"
"501089","202004","7","25813","301P","齋藤　陽太","1","2014","2","4","3","インフルエンザ及び中耳炎","2","1","","2020","2","11","2020","2","11","","","","","","","01","246","2020","4","7","0"
"601028","202004","9999","19207","301S","花本　宜裕","1","1987","2","12","1","歯冠治療","3","2","","2019","9","24","2019","10","15","","","","","","","01","194","2020","1","14","0"
"201010","202004","16","09113","302A","佐々山　真理子","2","1970","10","5","2","子宮内生検","2","1","","2020","3","6","2020","3","6","","","","","","","08","313.4","2020","3","10","0"
"601038","202004","18","25677","302A","髙橋　朋子","2","1977","12","6","1","歯科(外れたインレーをセメントで再度固めたもの)","3","1","","2020","3","13","2020","3","13","","","","","","","08","192","2020","3","17","0"
"601036","202004","10","12888","302T","イェン　リリーイーシン","2","1982","10","9","2","虫歯","3","2","","2020","2","25","2020","3","3","","","","","","","08","1899","2020","4","7","0"
"601040","202004","6","25072","402A","櫻井　みどり","2","1975","3","29","1","う歯","3","1","","2020","1","31","2020","1","31","","","","","","","D1","630","2020","3","13","0"
"201006","202004","6","25072","402A","櫻井　だりあ","2","2008","5","8","3","咽頭炎","2","1","","2020","3","4","2020","3","7","","","","","","","D1","264","2020","3","13","0"
"301042","202004","13","19919","403A","藤原　慎哉","1","1972","2","7","1","風邪、インフルエンザ検査","2","1","","2020","3","9","2020","3","9","","","","","","","G3","822.76","2020","3","12","0"
"601012","202004","6","10476","403H","大鶴　哲也","1","1967","6","5","1","歯の詰め物の再充填","3","1","","2020","3","9","2020","3","9","","","","","","","G3","200","2020","3","17","0"
"501028","202004","1","22289","403T","山口　晋一","1","2019","3","25","3","風邪の疑い","2","1","","2020","3","18","2020","3","18","","","","","","","G3","757.74","2020","3","24","0"
"401003","202004","18","06144","404A","平石　好伸","1","1956","7","5","1","白内障","2","3","","2018","10","18","2018","12","14","","","","","","","80","5358878","2020","3","24","0"
"401010","202004","20","24611","404A","湯沢　遙馬","1","2014","4","4","3","発達障害","2","2","","2020","2","4","2020","3","12","","","","","","","80","211000","2020","3","24","0"
"401024","202004","5","06885","408A","熊倉　隆行","1","1963","8","19","1","高血圧症","2","1","","2019","12","13","2019","12","13","","","","","","","00","1651","2020","3","16","0"
"201007","202004","3","09855","410A","清水　一良","1","1962","12","10","1","網膜剥離（初期段階：視野一部欠損）","2","2","","2020","2","7","2020","3","20","","","","","","","E4","13775.65","2020","3","25","0"
"501079","202004","5","24660","410A","石田　楓花","2","2015","7","4","3","B型インフルエンザ","2","1","","2020","2","8","2020","2","8","","","","","","","E4","3335","2020","4","16","0"
"601041","202004","5","05371","411A","石田　直裕","1","1951","5","29","1","入れ歯の再作成","3","1","","2019","12","6","2019","12","21","","","","","","","30","1800000","2020","3","18","0"
"601043","202004","5","09605","411A","小林　幸","2","1970","4","26","1","前歯の欠,歯ぎしり,虫歯","3","1","","2020","2","8","2020","2","22","","","","","","","30","1060000","2020","3","18","0"
"601042","202004","5","09605","411A","小林　祐志","1","1972","5","18","2","虫歯の疑い","3","1","","2019","10","8","2019","10","8","","","","","","","30","160000","2020","3","18","0"
"201004","202004","5","09605","411A","小林　悠人","1","2010","3","10","3","風邪、腸重積","1","1","","2019","11","23","2019","11","23","2019","11","17","2019","11","20","30","12926241","2020","3","18","0"
"601027","202004","7","24529","411A","佐藤　新介","1","1973","7","12","1","う歯","3","1","","2020","4","1","2020","4","1","","","","","","","30","200000","2020","4","1","0"
"201008","202004","4","24347","413A","野澤　雅仁","1","2011","8","31","3","風邪","2","1","","2020","3","3","2020","3","3","","","","","","","F1","1300","2020","3","13","0"
"201009","202004","4","24347","413A","野澤　雅仁","1","2011","8","31","3","風邪","2","1","","2020","3","4","2020","3","4","","","","","","","F1","3850","2020","3","13","0"
"201005","202004","3","25053","414A","天野　尚之","1","1974","8","24","1","高血圧症","2","3","","2020","3","4","2020","6","14","","","","","","","00","1871","2020","3","10","0"
"301043","202004","1","18511","424A","森沢　馨","1","1978","5","2","1","潰瘍性大腸炎","2","1","","2019","12","4","2019","12","4","","","","","","","00","61163","2020","3","19","0"
"401001","202004","21","14140","501C","三澤　真希","2","2013","9","6","2","水疱瘡に伴う結膜炎","2","1","","2020","3","10","2020","3","10","","","","","","","03","200","2020","3","23","0"
"401006","202004","19","25140","501C","山本　泰宏","1","1978","12","4","1","右薬指皮下骨付近損傷","2","1","","2020","3","14","2020","3","14","","","","","","","03","225.33","2020","3","24","0"
"401007","202004","19","25140","501C","山本　泰宏","1","1978","12","4","1","急性伸筋腱損傷の疑い","2","1","","2020","3","14","2020","3","14","","","","","","","03","120","2020","3","24","0"
"601017","202004","25","25140","501C","山本　泰宏","1","1978","12","4","1","詰め物(銀歯)の脱離","3","1","","2020","4","2","2020","4","2","","","","","","","03","51.42","2020","4","3","0"
"601049","202004","21","04746","505A","倉島　義幸","1","1956","8","31","1","歯科治療(脱離・再装着)","3","1","","2020","3","3","2020","3","3","","","","","","","03","40","2020","3","13","0"
"401031","202004","24","17734","505A","伏木　光英","1","1977","7","3","1","裂傷","2","1","","2020","3","17","2020","3","17","","","","","","","03","25","2020","4","7","0"
"401034","202004","12","24387","506A","森谷　奎太","1","2015","5","16","3","ウイルス性感染症の疑い","2","1","","2020","2","14","2020","2","14","","","","","","","03","37.53","2020","3","31","0"
"501008","202004","14","25900","506A","萩野　成道","1","2010","12","19","3","嘔吐症","2","1","","2019","10","19","2019","10","22","","","","","","","03","194.12","2020","4","1","0"
"501010","202004","14","25900","506A","萩野　成道","1","2010","12","19","3","嘔吐症","2","1","","2019","10","19","2019","10","19","","","","","","","03","64.43","2020","4","1","0"
"502101","202004","14","25900","506A","萩野　路大","1","2015","12","19","3","発熱を伴う感染症、肺炎の疑い、膿痂疹","2","1","","2019","12","6","2019","12","12","","","","","","","03","189.92","2020","4","1","0"
"502105","202004","14","25900","506A","萩野　成道","1","2010","12","19","3","肺炎疑い","2","1","","2019","12","9","2019","12","12","","","","","","","03","129.44","2020","4","1","0"
"501100","202004","14","25900","506A","萩野　路大","1","2015","12","19","3","ヘルペス、膿痂疹","2","1","","2020","1","6","2020","1","6","","","","","","","03","40.21","2020","4","1","0"
"601014","202004","6","24388","506E","富田　和也","1","1978","8","6","1","左奥上歯の詰め物の欠損","3","1","","2020","2","13","2020","2","24","","","","","","","03","237.25","2020","3","27","0"
"301045","202004","4","25211","506F","甲斐　康太郎","1","2009","4","2","3","アレルギー性湿疹","2","2","","2019","12","9","2020","1","6","","","","","","","03","191.28","2020","3","13","0"
"401036","202004","27","08761","508A","河原　昌昭","1","1968","11","4","1","腱鞘炎","2","1","","2019","6","5","2019","6","5","","","","","","","92","33000","2020","3","23","0"
"301018","202004","25","17925","508A","飯田　友紀","2","1972","1","19","1","不眠症","2","1","","2019","12","12","2019","12","12","","","","","","","00","5517","2020","3","11","0"
"401035","202004","28","22886","508A","岩崎　祐樹","1","1981","7","7","1","アレルギー性皮膚炎","2","1","","2019","12","11","2019","12","11","","","","","","","00","4889","2020","3","25","0"
"501007","202004","12","14667","512A","橋本　美佳子","2","1980","6","4","2","リウマチ","2","1","","2020","3","12","2020","3","16","","","","","","","G5","1450.82","2020","3","20","0"
"601015","202004","12","24621","512A","池田　健太","1","1973","10","18","1","測切歯・門歯の治療・処置","3","1","","2019","6","24","2019","6","24","","","","","","","G5","500","2020","4","3","0"
"601016","202004","12","24621","512A","池田　健太","1","1973","10","18","1","側切歯・門歯の治療・処置","3","1","","2019","7","3","2019","7","3","","","","","","","G5","1170","2020","4","3","0"
"401011","202004","20","19135","513A","柴田　道子","2","1985","1","22","1","膣ガードネレラ","2","2","","2020","2","11","2020","3","13","","","","","","","03","455.03","2020","3","16","0"
"501002","202004","22","19135","513A","柴田　道子","2","1985","1","22","1","膣ガードネレラ","2","1","","2020","3","26","2020","3","26","","","","","","","03","104.82","2020","3","26","0"
"401020","202004","20","19135","513A","柴田　洋兵","1","2015","11","29","3","風邪","2","1","","2020","3","9","2020","3","9","","","","","","","03","86.04","2020","3","9","0"
"501004","202004","20","18871","514A","鈴木　聖夏","1","2013","2","7","3","尿崩症及びランゲルハンス細胞組織球症(原疾患)","2","1","","2018","6","1","2018","6","30","","","","","","","03","1126.04","2020","4","15","0"
"501003","202004","20","18871","514A","鈴木　聖夏","1","2013","2","7","3","尿崩症及びランゲルハンス細胞組織球症(原疾患)","2","1","","2018","7","1","2018","7","31","","","","","","","03","234.42","2020","4","15","0"
"501005","202004","20","18871","514A","鈴木　聖夏","1","2013","2","7","3","尿崩症及びランゲルハンス細胞組織球症(原疾患)","2","1","","2018","10","1","2018","10","31","","","","","","","03","1087.57","2020","4","15","0"
"501081","202004","20","18871","514A","鈴木　聖夏","1","2013","2","7","3","尿崩症及びランゲルハンス細胞組織球症(原疾患)","2","1","","2019","1","1","2019","1","31","","","","","","","03","465.31","2020","4","15","0"
"501085","202004","20","18871","514A","鈴木　聖夏","1","2013","2","7","3","尿崩症及びランゲルハンス細胞組織球症(原疾患)","2","1","","2019","5","1","2019","5","31","","","","","","","03","1067.54","2020","4","15","0"
"501083","202004","20","18871","514A","鈴木　聖夏","1","2013","2","7","3","尿崩症及びランゲルハンス細胞組織球症(原疾患)","2","1","","2019","9","1","2019","9","30","","","","","","","03","591.29","2020","4","15","0"
"501082","202004","20","18871","514A","鈴木　聖夏","1","2013","2","7","3","尿崩症及びランゲルハンス細胞組織球症(原疾患)","2","1","","2019","10","1","2019","10","30","","","","","","","03","124.42","2020","4","15","0"
"501011","202004","20","18871","514A","鈴木　聖夏","1","2013","2","7","3","尿崩症及びランゲルハンス細胞組織球症(原疾患)","2","1","","2019","12","1","2019","12","31","","","","","","","03","1060.08","2020","4","15","0"
"501084","202004","17","22375","514A","森林　育広","1","1991","9","4","1","寒気、下痢等の風邪の諸症状","2","1","","2020","3","9","2020","3","9","","","","","","","03","135","2020","3","20","0"
"501080","202004","15","24630","514A","青木　勝弘","1","1978","4","8","1","大腸ガンの疑い","2","1","","2020","3","12","2020","3","12","","","","","","","03","639.86","2020","3","30","0"
"501009","202004","19","25209","514V","今村　紗矢香","2","1979","7","5","2","結膜炎","2","1","","2018","11","27","2018","11","27","","","","","","","03","86.25","2020","3","24","0"
"502107","202004","19","25209","514V","今村　紗矢香","2","1979","7","5","2","パニック障害(自律神経失調症)","2","1","","2019","12","11","2019","12","11","","","","","","","00","23461","2020","3","24","0"
"601019","202004","23","16149","516C","前平　知慶","1","1980","2","26","1","歯石除去","3","1","","2020","3","11","2020","3","11","","","","","","","09","176.4","2020","3","31","0"
"501099","202004","25","16149","516C","前平　麗如奈","2","2016","1","10","3","風邪","2","1","","2020","2","25","2020","2","25","","","","","","","09","150.05","2020","4","7","0"
"501098","202004","25","16149","516C","前平　麗如奈","2","2016","1","10","3","風邪","2","1","","2020","3","16","2020","3","16","","","","","","","09","132.05","2020","4","7","0"
"501006","202004","21","20702","516C","劔持　晶子","2","1979","10","1","1","萎縮性胃炎","2","1","","2019","11","6","2019","11","6","","","","","","","09","386.4","2020","3","20","0"
"502106","202004","23","22357","516C","大内　ひかる","2","1990","4","25","1","外耳炎","2","1","","2019","6","24","2019","6","24","","","","","","","09","119.5","2020","3","27","0"
"502104","202004","23","22357","516C","大内　ひかる","2","1990","4","25","2","外耳炎","2","1","","2019","7","1","2019","7","1","","","","","","","09","318.9","2020","3","27","0"
"502103","202004","23","24402","516C","福井　慶紀","1","1972","4","14","1","胃炎等の疑い","2","1","","2019","11","18","2019","11","18","","","","","","","09","502.1","2020","3","26","0"
"502102","202004","23","24402","516C","福井　綾","2","1974","9","16","2","胃炎等の疑い","2","1","","2019","11","18","2019","11","18","","","","","","","09","485.4","2020","3","26","0"
"501096","202004","25","25762","516C","上野　紗佳","2","1984","12","28","2","ねんざ","2","1","","2019","12","23","2019","12","23","","","","","","","09","207.65","2020","4","6","0"
"501094","202004","25","25762","516C","上野　絢弓","2","2019","8","1","3","風邪の疑い","2","1","","2019","12","5","2019","12","5","","","","","","","09","229.25","2020","4","8","0"
"501097","202004","25","25762","516C","上野　瑛大","1","2016","9","20","3","便秘","2","1","","2019","12","5","2019","12","5","","","","","","","09","228.35","2020","4","8","0"
"501095","202004","25","25762","516C","上野　瑛大","1","2016","9","20","3","喘息","2","1","","2019","12","11","2019","12","23","","","","","","","09","356.73","2020","4","8","0"
"401037","202004","36","15682","517A","青佐　由香理","2","1975","9","26","1","左手首骨折","1","3","","2019","2","2","2019","7","15","2019","2","5","2019","2","6","H6","493569.95","2019","10","10","0"
"401004","202004","37","21854","517A","松尾　美由起","2","1992","3","1","2","ゴナトロピン性腺機能低下症","2","3","","2018","11","18","2019","1","2","","","","","","","H6","93611.06","2020","3","24","0"
"301044","202004","23","24567","517A","富澤　寿則","1","1973","3","14","1","高尿酸血症、高血圧症","2","1","","2019","12","19","2019","12","19","","","","","","","00","26518","2020","3","12","0"
"301046","202004","23","24567","517A","富澤　夏穂","2","2005","7","23","3","自閉症スペクトラム症","2","1","","2019","12","19","2019","12","19","","","","","","","00","19837","2020","3","12","0"
"401005","202004","38","24590","517A","佐藤　友介","1","1980","3","26","1","動悸、甲状腺機能異常の疑い","2","1","","2020","2","14","2020","2","14","","","","","","","H6","27880.3","2020","3","26","0"
"401033","202004","29","24590","517A","佐藤　亜希子","2","1978","9","20","2","右肺炎症","2","2","","2019","10","4","2020","2","14","","","","","","","H6","76718.15","2020","3","24","0"
"601044","202004","25","24726","517A","佐藤　由起","2","1983","11","20","2","虫歯治療","3","1","","2020","2","24","2020","2","24","","","","","","","H6","20357.5","2020","3","16","0"
"301017","202004","27","24726","517A","佐藤　弘治","1","2018","8","26","3","その他の特定の皮膚炎","2","1","","2020","2","25","2020","2","25","","","","","","","H6","35122.31","2020","3","14","0"
"601008","202004","31","25895","517A","神田　隆行","1","1977","11","11","1","左下6番の歯冠の脱落","3","1","","2019","12","9","2019","12","9","","","","","","","H6","8330","2020","3","19","0"
"501093","202004","21","11945","518A","田中　剛士","1","1967","11","18","1","ストレスなどによる一時的な聴力低下","2","1","","2020","3","12","2020","3","12","","","","","","","16","232","2020","4","15","0"
"301019","202004","9","12402","520A","木村　博史","1","1959","4","16","1","大腸ポリープ","2","1","","2020","3","11","2020","3","16","","","","","","","H1","56360","2020","3","17","0"
"601009","202004","16","09969","521A","兒玉　有紗","2","2001","7","24","3","虫歯","3","1","","2020","2","21","2020","2","21","","","","","","","03","245","2020","3","25","0"
"301020","202004","13","16622","521A","淡川　裕子","2","1978","10","1","2","気管支喘息","2","1","","2019","10","24","2019","10","24","","","","","","","00","55044","2020","3","12","0"
"401021","202004","14","16622","521A","淡川　翔太郎","1","2013","5","20","3","マイコプラズマ感染症","2","1","","2019","12","27","2019","12","27","","","","","","","03","79.45","2020","3","24","0"
"501092","202004","22","13021","521C","鴨川　恵","2","1973","5","29","2","甲状腺検査のための血液採取","2","1","","2020","3","2","2020","3","2","","","","","","","03","85.35","2020","4","6","0"
"501091","202004","22","13021","521C","鴨川　凌知","1","2010","10","4","3","風邪による吐き気","2","1","","2019","10","7","2019","10","7","","","","","","","03","64.93","2020","4","6","0"
"301021","202004","20","25783","521C","社本　彩葉","2","2019","10","2","3","発熱及び咳・鼻水","2","1","","2020","3","11","2020","3","11","","","","","","","03","35","2020","3","11","0"
"301041","202004","17","25901","521C","濱田　武文","1","1974","1","30","1","甲状腺機能亢進症(バセドウ病)","2","4","","2019","12","16","2020","3","16","","","","","","","03","658.9","2020","3","16","0"
"401018","202004","3","19332","523A","松村　祐吾","1","2015","4","3","3","手足口病","2","1","","2019","10","9","2019","10","9","","","","","","","J8","305.63","2020","3","18","0"
"301040","202004","3","19332","523A","松村　祐吾","1","2015","4","3","3","インフルエンザ","2","1","","2020","1","30","2020","1","30","","","","","","","J8","425.73","2020","3","18","0"
"401022","202004","3","08346","527A","松村　一","1","1961","10","16","1","アレルギー、胃炎","2","1","","2018","5","23","2018","5","23","","","","","","","00","24602","2020","3","25","0"
"401023","202004","3","08346","527A","松村　一","1","1961","10","16","1","アレルギー","2","1","","2018","5","23","2018","5","23","","","","","","","00","42333","2020","3","25","0"
"301031","202004","4","18292","529A","福田　紗友","2","2013","11","13","3","溶連菌感染症の疑い","2","1","","2020","3","18","2020","3","18","","","","","","","03","74.54","2020","3","20","0"
"401032","202004","10","24397","529A","小野　昌宏","1","1972","9","17","1","高脂血症","2","1","","2019","4","1","2019","4","1","","","","","","","00","2483","2020","4","6","0"
"601018","202004","3","16691","542A","山田　律子","2","1981","1","14","2","詰め物が取れた","3","1","","2020","3","24","2020","3","24","","","","","","","H7","500","2020","3","31","0"
"601001","202004","8","20471","553A","安藤　美緒","2","1992","3","25","1","虫歯","3","3","","2020","1","24","2020","3","21","","","","","","","3","1300","2020","4","7","0"
"301012","202004","8","24107","601A","吉田　尚史","1","1972","8","8","1","緑内障","2","5","","2018","7","7","2019","8","31","","","","","","","K7","34611.8","2020","3","20","0"
"601046","202004","9","24107","601A","吉田　尚史","1","1972","8","8","1","う歯","3","2","","2019","4","27","2019","5","4","","","","","","","K7","2900","2020","3","20","0"
"401029","202004","11","24107","601A","吉田　春乃","2","1985","4","16","2","デング熱","1","1","","2018","11","8","2018","11","8","2018","11","9","2018","11","15","N4","1133590","2020","3","20","0"
"401009","202004","13","24782","601A","國井　弘樹","1","1975","3","5","1","食道炎、胃周囲炎、大腸がんの疑い(大腸ポリープ)、痔核","2","1","","2018","10","30","2018","10","31","","","","","","","K7","79009","2020","3","23","0"
"401016","202004","18","08309","602A","三上　正裕","1","1962","7","10","1","高脂血症","2","1","","2020","1","6","2020","1","6","","","","","","","00","13031","2020","3","12","0"
"401015","202004","18","20265","602A","時岡　尚子","2","1979","2","17","2","火傷治療","2","1","","2019","8","10","2019","8","10","","","","","","","01","29","2020","3","13","0"
"401014","202004","18","20265","602A","時岡　尚子","2","1979","2","17","2","乳がん検査(マンモグラフィー検査)","2","1","","2019","9","16","2019","9","16","","","","","","","01","105","2020","3","13","0"
"601004","202004","9999","23781","602A","堀　恒平","1","1979","5","10","1","う歯","3","3","","2019","12","5","2020","2","8","","","","","","","01","855","2020","2","8","0"
"601005","202004","9999","23781","602A","堀　稔子","2","1981","7","10","2","う歯","3","1","","2019","8","10","2019","8","26","","","","","","","01","42","2020","2","5","0"
"501019","202004","32","07164","605D","和田　充広","1","1960","7","28","1","胸の痛み、呼吸困難","1","2","","2020","3","17","2020","3","18","2020","3","17","2020","3","18","K6","43383","2020","3","27","0"
"501018","202004","34","09647","605D","船山　洋子","2","1962","11","21","2","右足首周辺の痛み","2","1","","2020","2","19","2020","2","26","","","","","","","K6","6690","2020","3","25","0"
"501045","202004","34","09647","605D","船山　洋子","2","1962","11","21","2","右足首周辺の痛み","2","1","","2020","3","18","2020","3","18","","","","","","","K6","2000","2020","3","25","0"
"301014","202004","5","19882","606D","児嶋　芽里","2","1988","5","14","1","舌の痛み、腫れ","2","1","","2019","12","17","2019","12","17","","","","","","","49","2669.01","2020","3","5","0"
"601047","202004","5","19882","606D","児嶋　芽里","2","1988","5","14","1","虫歯","3","1","","2020","2","1","2020","2","1","","","","","","","58","508.25","2020","3","5","0"
"201001","202004","2","05818","606T","内山　カレン","2","1960","6","3","2","原発性胆汁性肝硬変及び甲状腺機能低下症","2","3","","2019","12","3","2020","3","2","","","","","","","00","18966","2020","3","12","0"
"401012","202004","61","11540","607A","大﨑　恵美","2","1974","9","18","2","急性腰痛症(ぎっくり腰)","2","1","","2020","2","4","2020","2","7","","","","","","","41","4822600","2020","3","23","0"
"501047","202004","69","12032","607A","阿部　哲也","1","1965","10","29","1","高血圧","2","1","","2020","4","1","2020","4","1","","","","","","","00","34478","2020","4","14","0"
"501046","202004","66","24609","607A","金子　翔哉","1","2018","10","1","3","発熱、咳及び肌の発疹","2","1","","2020","2","10","2020","2","10","","","","","","","41","1330000","2020","3","31","0"
"301053","202004","5","24991","607A","吉田　一穂","1","1986","12","27","1","社会不安症候群","2","1","","2019","12","9","2019","12","9","","","","","","","00","12576","2020","3","12","0"
"501013","202004","9999","23796","607C","坪山　桃佳","2","2017","9","5","3","気管支肺炎","1","1","","","","","","","","2018","4","20","2018","4","22","41","8896122","2020","3","13","0"
"301011","202004","23","16132","609A","小山　凛弓","2","2016","6","25","3","喘息","2","1","","2019","12","26","2019","12","27","","","","","","","47","658.4","2020","3","10","0"
"501048","202004","27","17018","609A","井谷　彰宏","1","2010","8","25","3","風邪","2","1","","2020","2","9","2020","2","9","","","","","","","47","260","2020","2","21","0"
"501014","202004","27","24767","609A","石川　静江","2","1979","11","20","2","腹痛","2","1","","2019","4","8","2019","4","16","","","","","","","47","1687","2020","4","10","0"
"501050","202004","27","24767","609A","石川　静江","2","1979","11","20","2","花粉症","2","1","","2019","6","25","2019","6","25","","","","","","","47","165.4","2020","4","10","0"
"501020","202004","27","24767","609A","石川　静江","2","1979","11","20","2","アレルギー性鼻炎","2","1","","2019","12","5","2019","12","5","","","","","","","47","132.7","2020","4","8","0"
"501001","202004","27","24767","609A","石川　純麗","2","2012","1","12","3","発熱・風邪","2","1","","2018","4","12","2018","4","12","","","","","","","47","298.75","2020","4","2","0"
"501054","202004","27","24767","609A","石川　純麗","2","2012","1","12","3","頭部打撲","2","1","","2019","9","26","2019","9","26","","","","","","","47","274.65","2020","4","10","0"
"501056","202004","27","24767","609A","石川　純麗","2","2012","1","12","3","胃炎","2","1","","2019","11","1","2019","11","2","","","","","","","47","134.9","2020","4","8","0"
"501059","202004","27","24767","609A","石川　純麗","2","2012","1","12","3","虫刺され","2","1","","2019","11","19","2019","11","19","","","","","","","47","188.85","2020","4","10","0"
"501049","202004","27","24767","609A","石川　空","1","2019","2","22","3","風邪、インフルエンザの疑い、RSウイルス感染の疑い","2","1","","2020","1","4","2020","1","4","","","","","","","47","260","2020","4","10","0"
"501062","202004","27","25164","609A","小村　将之","1","1988","8","31","1","ウイルス性胃腸炎","2","1","","2020","2","10","2020","2","13","","","","","","","47","530","2020","4","7","0"
"601037","202004","27","25164","609A","小村　愛珠","2","2014","12","4","3","右側下顎中切歯の萌出異常による右側下顎中切歯の抜歯","3","1","","2020","1","20","2020","1","20","","","","","","","47","185","2020","4","7","0"
"501064","202004","27","25202","609A","山内　琳太郎","1","2016","11","3","3","アデノウイルス及びインフルエンザ","2","1","","2018","11","7","2018","11","7","","","","","","","47","315.9","2020","3","25","0"
"501063","202004","27","25202","609A","山内　琳太郎","1","2016","11","3","3","アデノウイルス及びインフルエンザ","2","1","","2018","11","8","2018","11","8","","","","","","","47","296","2020","3","25","0"
"501065","202004","27","25547","609A","齋藤　裕太","1","1987","4","15","1","胃腸炎とそれに伴う下痢","2","1","","2019","12","8","2019","12","8","","","","","","","47","453.7","2020","4","1","0"
"601013","202004","24","25583","609A","片平　拓也","1","1989","12","4","1","歯肉炎","3","1","","2020","1","28","2020","1","28","","","","","","","47","330","2020","3","17","0"
"301052","202004","23","04753","609D","清水　弘正","1","1957","3","10","1","高血圧症、高尿酸血症、アレルギー症","2","1","","2019","12","9","2019","12","9","","","","","","","00","50603","2020","3","16","0"
"501067","202004","31","17691","609D","西田　早也香","2","2005","5","10","3","急性適応障害(抑鬱病)","2","4","","2020","1","28","2020","4","4","","","","","","","58","823.9","2020","4","6","0"
"401028","202004","24","23940","609D","笠原　基和","1","1983","2","14","1","右小指基節骨骨折","2","4","","2019","7","3","2019","10","4","","","","","","","58","3676.45","2020","3","3","0"
"301034","202004","24","23940","609D","笠原　基和","1","1983","2","14","1","発熱(インフルエンザ)","2","1","","2019","11","6","2019","11","6","","","","","","","58","207.85","2020","3","3","0"
"601048","202004","24","23940","609D","笠原　有希","1","1982","4","15","2","虫歯の痛み","3","3","","2019","9","27","2019","11","18","","","","","","","58","3567.55","2020","3","3","0"
"401027","202004","24","23940","609D","笠原　翔","1","2009","8","13","3","唇の痒み、ただれ","2","1","","2019","7","8","2019","7","8","","","","","","","58","183.7","2020","3","3","0"
"301015","202004","24","23940","609D","笠原　翔","1","2009","8","13","3","頚部の外傷","2","1","","2019","7","26","2019","7","26","","","","","","","58","121","2020","3","3","0"
"301016","202004","24","23940","609D","笠原　大","1","2014","5","25","3","結膜炎","2","1","","2019","11","18","2019","11","18","","","","","","","58","270.2","2020","3","3","0"
"301055","202004","24","23940","609D","笠原　航","1","2012","2","10","3","歯肉炎","3","1","","2019","12","27","2019","12","27","","","","","","","58","235.4","2020","3","3","0"
"601032","202004","24","23940","609D","笠原　翔","1","2009","8","13","3","歯肉炎","3","1","","2019","12","27","2019","12","27","","","","","","","58","235.4","2020","3","3","0"
"601030","202004","24","23940","609D","笠原　大","1","2014","5","25","3","歯肉炎","3","1","","2020","1","3","2020","1","3","","","","","","","58","203.3","2020","3","3","0"
"601031","202004","27","24744","609D","溝田　葵","1","2011","5","17","3","虫歯","3","1","","2020","2","24","2020","3","7","","","","","","","58","374.5","2020","3","16","0"
"501066","202004","29","25161","609D","片山　加奈子","2","2016","9","29","3","左目目尻の赤み、腫れ","2","1","","2020","3","19","2020","3","19","","","","","","","58","272.2","2020","4","2","0"
"401008","202004","9999","19447","610D","下京田　孝","1","1970","6","5","1","急性胃腸炎、食道裂孔ヘルニア、BEP、精巣腫瘍の疑い","1","1","","2019","7","27","2019","7","29","2019","7","27","2019","7","29","39","95855","2020","1","31","0"
"501051","202004","13","21236","610D","樋口　理絵","2","1983","9","17","2","副びく炎の症状による受診","2","1","","2019","12","9","2019","12","9","","","","","","","39","2000","2020","4","6","0"
"501052","202004","22","22069","611A","堀　貞治","1","1980","9","18","1","急性腸炎","2","1","","2019","5","27","2019","5","27","","","","","","","40","3660","2020","4","7","0"
"501055","202004","22","22069","611A","堀　修史","1","2013","12","17","3","肺炎","2","1","","2018","7","12","2018","7","17","","","","","","","40","10400","2020","4","7","0"
"501057","202004","22","22069","611A","堀　修史","1","2013","12","17","3","肺炎","2","1","","2019","9","14","2019","9","14","","","","","","","40","5410.89","2020","4","7","0"
"501053","202004","22","22069","611A","堀　真吾","1","2008","10","28","3","急性腸炎","2","1","","2019","11","5","2019","11","5","","","","","","","40","2225","2020","4","7","0"
"501061","202004","24","24949","611A","若村　あい子","2","1974","1","18","2","真菌性皮膚炎(白癬)","2","1","","2018","12","6","2018","12","6","","","","","","","40","3202","2020","4","15","0"
"501071","202004","24","24949","611A","若村　あい子","2","1974","1","18","2","乳腺嚢胞","2","1","","2019","1","9","2019","1","9","","","","","","","40","4400","2020","4","15","0"
"501070","202004","24","24949","611A","若村　苺珂","2","2005","6","9","3","副鼻腔炎、気管支炎","2","1","","2018","7","18","2018","7","18","","","","","","","40","5080.25","2020","4","15","0"
"501072","202004","24","24949","611A","若村　苺珂","2","2005","6","9","3","急性胃腸炎","2","1","","2018","8","29","2018","8","29","","","","","","","40","5799.02","2020","4","15","0"
"201003","202004","45","04770","612A","山田　勇","1","1956","8","25","1","右眼の硝子体の出血に伴う網膜裂孔","2","1","","2020","3","4","2020","3","16","","","","","","","K7","26353","2020","3","16","0"
"501035","202004","50","07477","612A","梨田　和也","1","1960","10","7","1","高血圧症、高尿酸血症","2","1","","2020","3","26","2020","3","26","","","","","","","K7","6516","2020","3","30","0"
"501036","202004","50","08708","612A","早川　修","1","1964","9","23","1","緑内障の治療および検査","2","1","","2020","3","28","2020","3","28","","","","","","","K7","13557.9","2020","4","1","0"
"501073","202004","47","08866","612A","野中　豊","1","1956","12","1","1","糖尿病　高血圧症　高脂血症　高尿酸血症","2","1","","2018","11","29","2018","11","29","","","","","","","K7","16261","2020","3","26","0"
"501074","202004","47","08866","612A","野中　豊","1","1956","12","1","1","糖尿病　高血圧症　高脂血症　高尿酸血症","2","1","","2019","3","31","2019","3","31","","","","","","","K7","22643.9","2020","3","26","0"
"501075","202004","47","08866","612A","野中　豊","1","1956","12","1","1","糖尿病　高血圧症　高脂血症　高尿酸血症","2","1","","2019","6","30","2019","6","30","","","","","","","K7","25019","2020","3","26","0"
"501076","202004","47","08866","612A","野中　豊","1","1956","12","1","1","糖尿病　高血圧症　高脂血症　高尿酸血症","2","1","","2019","10","21","2019","10","21","","","","","","","K7","26532.5","2020","3","26","0"
"501077","202004","47","08866","612A","野中　豊","1","1956","12","1","1","糖尿病　高血圧症　高脂血症　高尿酸血症","2","1","","2020","1","9","2020","1","9","","","","","","","K7","23249.4","2020","3","26","0"
"501078","202004","47","08866","612A","野中　豊","1","1956","12","1","1","糖尿病　高血圧症　高脂血症　高尿酸血症","2","1","","2020","3","1","2020","3","1","","","","","","","K7","23549.4","2020","3","26","0"
"501029","202004","47","08866","612A","野中　眞須子","2","1960","8","29","2","糖尿病　高血圧症　脂肪性肝炎","2","1","","2018","11","29","2018","11","29","","","","","","","K7","27391.3","2020","3","26","0"
"501030","202004","47","08866","612A","野中　眞須子","2","1960","8","29","2","糖尿病　高血圧症　脂肪性肝炎","2","1","","2019","3","31","2019","3","31","","","","","","","K7","23546.3","2020","3","26","0"
"501031","202004","47","08866","612A","野中　眞須子","2","1960","8","29","2","糖尿病　高血圧症　脂肪性肝炎","2","1","","2019","7","30","2019","7","30","","","","","","","K7","27646.7","2020","3","26","0"
"501032","202004","47","08866","612A","野中　眞須子","2","1960","8","29","2","糖尿病　高血圧症　脂肪性肝炎","2","1","","2019","10","21","2019","10","21","","","","","","","K7","30238.7","2020","3","26","0"
"501033","202004","47","08866","612A","野中　眞須子","2","1960","8","29","2","糖尿病　高血圧症　脂肪性肝炎","2","1","","2020","1","9","2020","1","9","","","","","","","K7","23122.5","2020","3","26","0"
"501034","202004","47","08866","612A","野中　眞須子","2","1960","8","29","2","糖尿病　高血圧症　脂肪性肝炎","2","1","","2020","3","1","2020","3","1","","","","","","","K7","28062.9","2020","3","26","0"
"201002","202004","45","24317","612A","崎谷　加奈","2","1982","12","16","2","血管性頭痛","2","1","","2020","3","3","2020","3","3","","","","","","","K7","2382.8","2020","3","13","0"
"301023","202004","45","24327","612A","鷹合　登志子","2","1980","3","7","2","虫歯","3","2","","2020","2","16","2020","3","1","","","","","","","K7","7710","2020","3","16","0"
"301013","202004","45","24413","612A","今村　圭吾","1","1982","12","21","1","喘息","2","1","","2020","3","5","2020","3","5","","","","","","","K7","2206","2020","3","13","0"
"501037","202004","53","25090","612A","真庭　匠","1","1983","5","15","1","急性胃腸炎","2","1","","2020","3","7","2020","3","7","","","","","","","K7","3278.5","2020","4","7","0"
"501068","202004","18","22379","612E","阿部　泰平","1","1992","2","26","1","左足親指の爪下血腫","2","1","","2019","8","27","2019","8","27","","","","","","","K7","5271.67","2020","1","7","0"
"501039","202004","16","22379","612E","阿部　泰平","1","1992","2","26","1","白血球減少異常の原因検索のための骨髄吸引と生検","2","1","","2019","11","5","2019","11","12","","","","","","","K7","60513","2020","3","23","0"
"501038","202004","20","25080","612E","瀬田　聖斗","1","2007","3","25","3","感染症皮膚炎","2","1","","2020","3","20","2020","3","20","","","","","","","k7","1670.3","2020","3","31","0"
"301010","202004","19","14695","614A","土屋　翠","2","1978","5","1","2","ＰＭＳ/ＰＭＤＤ","2","1","","2020","2","10","2020","2","10","","","","","","","56","164.15","2020","3","22","0"
"301009","202004","19","14695","614A","土屋　駿","1","2015","3","2","3","骨折","2","1","","2020","2","19","2020","2","19","","","","","","","56","335.1","2020","3","22","0"
"301022","202004","16","14695","614A","土屋　駿","1","2015","3","2","3","ねんざ","2","1","","2020","3","18","2020","3","18","","","","","","","56","85","2020","3","18","0"
"401002","202004","27","15931","614A","高橋　由太郎","1","2017","3","13","3","左手薬指爪部分損傷","2","1","","2019","11","16","2019","11","17","","","","","","","56","1406.2","2020","3","23","0"
"301054","202004","27","15931","614A","高橋　由太郎","1","2017","3","13","3","皮膚裂傷(右足親指付根付近)","2","1","","2020","2","1","2020","2","7","","","","","","","56","1017.95","2020","3","20","0"
"301051","202004","18","15931","614A","高橋　由太郎","1","2017","3","13","3","右手肘部分腫脹(虫刺され)","2","1","","2020","2","12","2020","2","12","","","","","","","56","105.85","2020","3","3","0"
"301049","202004","24","24677","614A","中尾　圭介","1","1972","8","6","1","高脂血症、高尿酸血症","2","1","","2019","5","6","2019","5","6","","","","","","","00","6961","2020","3","24","0"
"301048","202004","24","24677","614A","中尾　圭介","1","1972","8","6","1","高脂血症、高尿酸血症","2","1","","2019","12","2","2019","12","2","","","","","","","00","11319","2020","3","24","0"
"301062","202004","24","24677","614A","中尾　麻里子","2","1974","3","26","2","リウマチ","2","2","","2019","4","26","2019","4","28","","","","","","","56","473.5","2020","3","24","0"
"301008","202004","24","24677","614A","中尾　麻里子","2","1974","3","26","2","咳","2","1","","2019","6","29","2019","6","29","","","","","","","56","110.99","2020","3","24","0"
"301047","202004","24","24677","614A","中尾　麻里子","2","1974","3","26","2","リウマチ","2","1","","2019","11","18","2019","11","18","","","","","","","00","10219","2020","3","24","0"
"301007","202004","24","24677","614A","中尾　麻里子","2","1974","3","26","2","リウマチ","2","1","","2020","3","13","2020","3","13","","","","","","","56","196","2020","3","24","0"
"301050","202004","22","25647","614A","寺尾　宗一郎","1","1982","10","27","1","緑内障","2","1","","2020","3","2","2020","3","12","","","","","","","56","684.4","2020","3","20","0"
"301006","202004","26","25647","614A","寺尾　宗一郎","1","1982","10","27","1","緑内障","2","1","","2020","3","17","2020","3","17","","","","","","","56","410","2020","3","24","0"
"501069","202004","17","25171","614D","赤川　紗弥華","2","1980","12","30","2","続発性無月経省、症候性てんかん、消化障害、高脂血症","2","1","","2019","12","2","2019","12","2","","","","","","","00","131744","2020","4","1","0"
"501043","202004","3","07923","614V","内田　喜美子","2","1960","2","12","2","下痢","2","2","","2020","2","23","2020","3","7","","","","","","","56","455.8","2020","3","27","0"
"301004","202004","14","24985","615A","中島　隆博","1","2017","5","4","3","喘息の疑い","2","1","","2020","3","5","2020","3","5","","","","","","","M9","129","2020","3","10","0"
"501040","202004","77","11002","616A","西岡　達史","1","1967","12","10","1","坐骨神経痛","2","2","","2020","1","13","2020","2","1","","","","","","","55","234180","2020","3","31","0"
"301037","202004","66","15357","616A","谷内　正登","1","1963","4","21","1","逆流性食道炎","2","1","","2020","3","16","2020","3","16","","","","","","","55","112980","2020","3","18","0"
"501044","202004","74","15357","616A","谷内　正登","1","1963","4","21","1","高血圧、前立腺肥大、更年期障害","2","1","","2020","3","16","2020","3","23","","","","","","","55","688250","2020","4","1","0"
"301003","202004","59","19900","616A","浜野　達也","1","1988","10","20","1","てんかん","2","1","","2020","3","13","2020","3","13","","","","","","","55","107530","2020","3","13","0"
"301036","202004","59","19900","616A","浜野　達也","1","1988","10","20","1","喘息","2","1","","2020","3","13","2020","3","13","","","","","","","55","260280","2020","3","13","0"
"501041","202004","79","19900","616A","ハマノ　アクボタ","2","1992","5","15","2","橋本病","2","1","","2019","8","22","2019","8","22","","","","","","","55","238810","2020","3","26","0"
"501042","202004","74","19900","616A","ハマノ　アクボタ","2","1992","5","15","2","橋本病","2","1","","2019","11","14","2019","11","14","","","","","","","55","346530","2020","3","31","0"
"301025","202004","67","20517","616A","辻畑　佑弥","1","2017","5","31","3","風及び中耳炎","2","2","","2019","12","27","2020","1","17","","","","","","","55","110600","2020","3","17","0"
"301029","202004","67","20517","616A","辻畑　勇斗","1","2018","12","10","3","風邪","2","1","","2020","1","3","2020","1","10","","","","","","","55","48600","2020","3","17","0"
"301027","202004","67","20517","616A","辻畑　佑弥","1","2017","5","31","3","風邪","2","2","","2020","1","29","2020","2","19","","","","","","","55","71700","2020","3","17","0"
"301035","202004","67","20517","616A","辻畑　勇斗","1","2018","12","10","3","風邪","2","1","","2020","1","29","2020","1","29","","","","","","","55","28400","2020","3","17","0"
"601025","202004","80","22974","616A","樋口　博久","1","1991","8","5","1","う蝕,歯肉発赤","3","1","","2018","12","22","2018","12","22","","","","","","","55","150000","2020","4","8","0"
"601026","202004","80","22974","616A","樋口　博久","1","1991","8","5","1","う蝕","3","1","","2019","1","26","2019","1","26","","","","","","","55","51380","2020","4","8","0"
"501012","202004","9999","24322","616A","三好　絵美","2","1980","2","6","2","子宮頸部の炎症性疾患","2","6","","2019","3","11","2019","8","7","","","","","","","55","1344760","2020","2","12","0"
"301002","202004","63","24322","616A","三好　絵美","2","1980","2","6","2","子宮頸部の炎症性疾患","2","1","","2019","11","6","2019","11","19","","","","","","","55","1160230","2020","3","17","0"
"301005","202004","59","24322","616A","三好　竜太郎","1","2007","12","18","3","爪のはく離","2","1","","2019","11","12","2019","11","12","","","","","","","55","1027000","2019","12","4","0"
"501021","202004","74","24576","616A","南　明夫","1","1978","7","27","1","普通感冒","2","1","","2019","8","16","2019","8","16","","","","","","","55","45400","2020","4","1","0"
"301038","202004","61","24576","616A","南　香澄","2","1973","6","7","2","偏頭痛及び更年期障害","2","1","","2018","6","21","2018","6","21","","","","","","","55","175200","2020","3","16","0"
"401025","202004","70","24576","616A","南　里衣紗","2","2011","7","6","3","急性鼻咽頭炎","2","1","","2019","4","26","2019","4","26","","","","","","","55","48300","2020","3","24","0"
"501024","202004","80","25287","616A","杤谷　梢","2","1977","7","13","2","膀胱炎","2","1","","2018","9","12","2018","9","15","","","","","","","55","137900","2020","4","9","0"
"501026","202004","80","25287","616A","杤谷　梢","2","1977","7","13","2","皮膚掻痒症","2","1","","2018","10","12","2018","10","12","","","","","","","55","67080","2020","4","9","0"
"501025","202004","80","25287","616A","杤谷　梢","2","1977","7","13","2","肋間神経痛","2","1","","2018","11","9","2018","11","9","","","","","","","55","49070","2020","4","9","0"
"501023","202004","80","25287","616A","杤谷　理奈","2","2013","10","30","3","風邪(咳及び鼻水)","2","1","","2018","12","6","2018","12","6","","","","","","","55","42030","2020","4","9","0"
"501022","202004","80","25287","616A","杤谷　理奈","2","2013","10","30","3","アレルギー性結膜炎","2","1","","2018","12","14","2018","12","14","","","","","","","55","61200","2020","4","9","0"
"501027","202004","80","25287","616A","杤谷　理奈","2","2013","10","30","3","皮膚掻痒症","2","1","","2018","12","14","2018","12","14","","","","","","","55","52650","2020","4","9","0"
"501015","202004","13","10529","616D","中江　新","1","1964","5","8","1","結腸内視鏡検査とポリープ切除施術","2","1","","2020","3","7","2020","3","25","","","","","","","55","512040","2020","3","29","0"
"401030","202004","12","19957","616D","古村　哲夫","1","1973","8","21","1","高脂血症、高血圧","2","4","","2019","1","14","2019","11","11","","","","","","","55","604890","2020","3","4","0"
"301001","202004","12","19957","616D","古村　哲夫","1","1973","8","21","1","逆流性食道炎、胃炎","2","2","","2019","12","16","2020","1","9","","","","","","","55","142880","2020","3","4","0"
"301026","202004","12","19957","616D","古村　哲夫","1","1973","8","21","1","アレルギー性鼻炎","2","1","","2020","1","30","2020","1","30","","","","","","","55","51850","2020","3","13","0"
"501017","202004","21","14577","619A","熊野　麟太郎","1","2008","1","23","3","鼻炎","2","1","","2019","6","6","2019","6","6","","","","","","","G2","2000","2020","3","31","0"
"501016","202004","21","14577","619A","熊野　暁鹿","2","2003","10","9","3","疣贅","2","4","","2019","10","31","2020","1","15","","","","","","","G2","6863.4","2020","3","17","0"
"601002","202004","19","20666","619A","飯田　博文","1","1970","12","28","1","虫歯(右下親知らず内部炎症及び内側の奥歯の虫歯)","3","1","","2020","3","17","2020","3","17","","","","","","","G2","1617.66","2020","3","17","0"
"601023","202004","19","20666","619A","飯田　博文","1","1970","12","28","1","虫歯(右下奥の親知らずが炎症を起こしたため抜歯)","3","1","","2020","3","24","2020","3","24","","","","","","","G2","2775.04","2020","3","24","0"
"601021","202004","21","22093","619A","長田　優惟","2","2011","4","7","3","齲蝕","3","1","","2019","1","7","2019","1","12","","","","","","","G2","2060","2020","3","17","0"
"601020","202004","21","22093","619A","長田　雄輝","1","2008","9","15","3","齲蝕の疑い","3","1","","2019","10","21","2019","10","21","","","","","","","G2","1700","2020","3","17","0"
"601022","202004","21","22093","619A","長田　優惟","2","2011","4","7","3","齲蝕","3","1","","2019","10","21","2019","10","23","","","","","","","G2","7400","2020","3","17","0"
"301028","202004","17","25930","619A","神原　紘美","2","1980","6","25","2","不眠症、不安神経症","2","1","","2019","12","16","2019","12","16","","","","","","","00","12805","2020","3","16","0"
"301032","202004","12","08693","619E","石塚　英樹","1","1964","3","3","1","高血圧症、神経性心悸亢進症","2","1","","2019","12","11","2019","12","11","","","","","","","00","10398","2020","3","16","0"
"301030","202004","11","09147","619E","大聖寺　利幸","1","1962","9","26","1","化膿(右手小指)","2","1","","2020","1","12","2020","1","15","","","","","","","G2","3154","2020","3","13","0"
"401026","202004","28","25018","620A","柿沼　順子","2","1972","5","7","2","椎間板ヘルニア、神経根障害、右足底筋膜炎、仙腸骨炎等","2","3","","2020","1","18","2020","3","4","","","","","","","01","517","2020","3","18","0"
"501058","202004","29","11100","705A","島崎　紗幸","2","2016","11","30","3","風邪(鼻水、発疹)","2","1","","2018","5","6","2018","5","6","","","","","","","c9","900","2019","9","13","0"
"601010","202004","27","25838","705A","平光　仁","1","2010","9","16","3","虫歯","3","1","","2020","3","15","2020","3","17","","","","","","","c9","1500","2020","3","18","0"
"301033","202004","3","06495","708D","宮本　一枝","2","1961","1","18","2","狭心症、高脂血症","2","1","","2019","7","15","2019","7","16","","","","","","","N2","3683.25","2020","3","17","0"
"601003","202004","7","07947","709T","西牧　久雄","1","1959","3","3","1","抜歯","3","1","","2019","10","8","2019","10","8","","","","","","","J9","887.78","2019","11","18","0"
"601011","202004","25","25581","713A","重藤　慈子","2","1983","1","25","2","歯科治療","3","1","","2020","3","16","2020","3","16","","","","","","","B5","12030","2020","3","24","0"
"301039","202004","9999","12592","714A","甲斐　洋和","1","1975","1","13","1","糖尿病","2","3","","2019","7","24","2019","10","17","","","","","","","78","1012.5","2019","10","17","0"
"501060","202004","13","20689","720A","阿世知　重行","1","2009","3","4","3","両肘関節捻挫","2","1","","2018","4","27","2018","4","27","","","","","","","A7","200000","2020","4","6","0"
"301024","202004","3","13145","727A","六原　千枝","2","1976","9","30","1","卵巣チョコレート嚢胞","2","1","","2019","9","26","2019","9","26","","","","","","","00","41813","2020","3","10","0"
"401019","202004","5","22398","727A","土原　幸太郎","1","1990","5","25","1","水いぼ","2","2","","2019","11","13","2019","12","5","","","","","","","C3","131.826","2020","3","31","0"
"601006","202004","6","12587","756A","大石　学","1","1976","3","28","1","虫歯","3","2","","2019","10","27","2019","11","14","","","","","","","81","1915","2019","11","24","0"
"601024","202004","6","12587","756A","大石　久美子","2","1977","3","28","2","虫歯","3","2","","2020","2","24","2020","3","11","","","","","","","81","4160","2020","4","6","0"
"901035","202004","56","09222","301A","長沼　健二","1","1960","12","17","1","狭心症","2","1","","2019","12","9","2019","12","9","","","","","","","00","70093","2020","3","19","1"
"1001011","202004","57","24559","301A","足立　皐","2","2004","3","10","3","左奥歯の全体的な痛み","3","1","","2019","9","12","2019","9","12","","","","","","","01","250","2020","4","14","1"
"1001012","202004","59","25146","301A","古林　紗季","2","2008","1","24","3","虫歯","3","1","","2020","3","17","2020","3","30","","","","","","","01","1625","2020","4","14","1"
"901032","202004","10","19573","301D","小林　ユリ","2","1972","8","17","1","PTSD","2","2","","2020","2","1","2020","3","25","","","","","","","01","1835.9","2020","3","25","1"
"901034","202004","10","07462","301E","伊藤康一","1","1959","9","16","1","睡眠時無呼吸症候群","2","6","","2019","8","8","2020","1","28","2019","8","26","2019","8","27","01","5034.03","2020","3","25","1"
"901036","202004","7","14904","301S","三原　さくら","2","2008","4","14","3","アレルギー性発疹","2","1","","2019","12","25","2019","12","25","","","","","","","01","641.99","2020","4","15","1"
"1001014","202004","4","25185","302E","石川　京子","2","1971","12","28","2","虫歯治療","3","2","","2019","11","19","2019","12","5","","","","","","","08","1503.9","2020","3","13","1"
"901015","202004","6","10476","403H","大鶴　哲也","1","1967","6","5","1","ワクチン(A型肝炎、B型肝炎)注射","2","1","","2020","3","18","2020","3","18","","","","","","","G3","70","2020","3","18","1"
"901030","202004","1","07952","403X","濵田　圭司","1","1960","5","10","1","蕁麻疹","2","1","","2019","1","18","2019","1","18","","","","","","","G3","319.97","2020","4","3","1"
"901031","202004","1","07952","403X","濵田　圭司","1","1960","5","10","1","蕁麻疹","2","1","","2019","2","15","2019","2","22","","","","","","","G3","700","2020","4","3","1"
"1001010","202004","1","07952","403X","濱田　泰子","2","1967","2","24","2","虫歯","3","1","","2019","6","28","2019","6","28","","","","","","","G3","2420","2020","4","3","1"
"1001016","202004","18","06144","404A","平石　好伸","1","1956","7","5","1","歯科治療","3","2","","2018","11","9","2018","12","13","","","","","","","80","2143747","2020","3","24","1"
"901033","202004","5","24660","410A","石田　楓花","2","2015","7","4","3","急性咽頭炎、インフルエンザの疑い","2","1","","2020","1","24","2020","1","24","","","","","","","E4","2497.99","2020","4","16","1"
"901041","202004","23","05791","505A","伊原　純一","1","1956","4","18","1","風邪","2","1","","2020","3","16","2020","3","25","","","","","","","03","100","2020","3","26","1"
"1001001","202004","9999","14638","505C","神先　徹哉","1","1977","7","22","1","歯科治療","3","4","","2019","8","28","2019","11","7","","","","","","","03","1731.28","2019","11","17","1"
"1001006","202004","12","24387","506A","森谷　謙一","1","1976","4","17","1","虫歯治療、知覚過敏の疑い","3","5","","2019","11","25","2020","3","6","","","","","","","03","919.22","2020","3","31","1"
"1001007","202004","12","24621","512A","池田　健太","1","1973","10","18","1","側切歯・門歯の治療・処置","3","1","","2019","6","7","2019","6","7","","","","","","","G5","150","2020","4","3","1"
"901040","202004","19","06838","513A","片上　昌一","1","1960","4","19","1","うつ病、統合失調症、逆流性食道炎等","2","1","","2019","12","4","2019","12","4","","","","","","","00","57952","2020","3","23","1"
"901016","202004","20","18871","514A","鈴木　聖夏","1","2013","2","7","3","尿崩症及びランゲルハンス細胞組織球症(原疾患)","1","1","","2018","4","1","2018","4","30","","","","","","","03","1111.87","2020","2","13","1"
"1001008","202004","33","24726","517A","佐藤　由起","2","1983","11","20","2","虫歯治療","3","1","","2020","3","14","2020","3","14","","","","","","","H6","50397.5","2020","3","18","1"
"1001003","202004","22","13021","521C","鴨川　恵","2","1973","5","29","2","歯の検査,歯石の除去","3","1","","2020","3","3","2020","3","3","","","","","","","03","148","2020","4","6","1"
"901037","202004","22","13021","521C","鴨川　凌知","1","2010","10","4","3","皮膚の炎症","2","1","","2018","8","22","2018","8","22","","","","","","","03","57.44","2020","4","6","1"
"901039","202004","22","13021","521C","鴨川　凌知","1","2010","10","4","3","目の炎症","2","1","","2019","7","8","2019","7","8","","","","","","","03","62.07","2020","4","6","1"
"901038","202004","22","13021","521C","鴨川　凌知","1","2010","10","4","3","目の炎症","2","1","","2019","7","10","2019","7","10","","","","","","","03","123.5","2020","4","6","1"
"1001015","202004","22","13021","521C","鴨川　凌知","1","2010","10","4","3","歯の検査","3","1","","2020","2","4","2020","2","4","","","","","","","03","47","2020","4","6","1"
"901004","202004","17","25901","521C","濵田　実祈","2","2003","5","23","3","胃腸炎","2","1","","2020","3","9","2020","3","9","","","","","","","03","86.75","2020","3","16","1"
"901003","202004","3","19332","523A","松村祐吾","1","2015","4","3","3","風邪","2","1","","2019","7","12","2019","7","12","","","","","","","J8","307.75","2020","3","18","1"
"901001","202004","6","25656","529A","葛山　栄亮","1","1969","6","7","1","手首の豆骨のなんらかの痛み","2","2","","2019","11","2","2019","12","6","","","","","","","03","525.47","2020","3","17","1"
"901008","202004","6","25656","529A","葛山　慧","1","2008","9","15","3","細菌性胃腸炎","1","1","","2019","9","30","2019","10","3","2019","9","30","2019","10","3","03","462.75","2020","3","17","1"
"901005","202004","6","25656","529A","葛山　慧","1","2008","9","15","3","喉の痛み","2","","","2019","10","14","2019","10","14","","","","","","","03","107","2020","3","17","1"
"901009","202004","20","25255","602A","長尾　勝昭","1","1973","6","7","1","胃および大腸の炎症","2","1","","2019","12","19","2019","12","26","","","","","","","01","660","2020","3","31","1"
"1001009","202004","55","09569","607A","田子内　亜矢子","2","1973","2","11","2","奥歯の痛み","3","1","","2020","2","28","2020","2","28","","","","","","","41","1344100","2020","3","16","1"
"901006","202004","58","11014","607A","宮下　匡之","1","1968","6","13","1","高血圧症","2","1","","2020","2","6","2020","2","21","","","","","","","41","5028700","2019","12","24","1"
"1001004","202004","5","07475","608A","竹若　敬三","1","1960","12","21","1","左下臼歯の破損,抜歯","3","1","","2020","3","6","2020","3","24","","","","","","","A7","790000","2020","3","24","1"
"901017","202004","27","25202","609A","山内　琳太郎","1","2016","11","3","3","アデノウイルス及びインフルエンザ","1","1","","2018","11","7","2018","11","16","2018","11","8","2018","11","10","47","4437.3","2020","3","25","1"
"901010","202004","24","25547","609A","齋藤　美結","1","2017","9","1","3","胃腸炎とそれに伴う嘔吐、下痢","2","1","","2019","11","13","2019","11","26","","","","","","","47","457.5","2020","3","27","1"
"901007","202004","24","23940","609D","笠原　大","1","2014","5","25","3","発熱(インフルエンザ)","2","1","","2019","11","6","2019","11","6","","","","","","","58","434.5","2020","3","3","1"
"901018","202004","13","21236","610D","樋口　理絵","2","1983","9","17","2","右足の第5中足骨骨折(ヒビ)","2","3","","2018","9","18","2018","11","19","","","","","","","39","12435","2020","4","6","1"
"901019","202004","13","21236","610D","樋口　理絵","2","1983","9","17","2","ウイルス性発熱による受診および入院","1","2","","2019","7","28","2019","7","28","2019","7","29","2019","8","1","39","46668","2020","4","6","1"
"901025","202004","50","20457","612A","飯田　知枝","2","1987","2","22","1","右足首　蜂巣炎","2","1","","2020","3","8","2020","3","9","","","","","","","K7","21708.25","2020","3","30","1"
"1001013","202004","45","24327","612A","鷹合　誠","1","2015","4","17","3","虫歯","3","3","","2020","1","23","2020","3","5","","","","","","","K7","17200","2020","3","16","1"
"901023","202004","18","25171","614D","赤川　紗弥華","2","1980","12","30","2","てんかん","2","1","","2020","3","30","2020","3","30","","","","","","","56","226.56","2020","4","8","1"
"901013","202004","71","10001","616A","高根　和正","1","1967","1","11","1","高血圧等","2","9","","2019","8","8","2020","3","7","","","","","","","55","597460","2020","3","25","1"
"901024","202004","77","11002","616A","西岡　達史","1","1967","12","10","1","甲状腺機能不全の疑い(検査)","2","1","","2019","12","2","2019","12","9","","","","","","","55","454520","2020","3","31","1"
"901014","202004","73","11528","616A","佐々木雪美","2","1969","2","26","1","腰痛","2","1","","2019","1","14","2019","1","14","","","","","","","55","36000","2020","3","17","1"
"901012","202004","67","20517","616A","辻畑　圭亮","1","1982","3","24","1","風邪","2","1","","2020","1","3","2020","1","20","","","","","","","55","150700","2020","3","17","1"
"901011","202004","67","20517","616A","辻畑　彩乃","2","1988","12","22","2","風邪","2","1","","2020","1","3","2020","1","3","","","","","","","55","46700","2020","3","17","1"
"901026","202004","80","25287","616A","杤谷　貴美","1","1979","1","20","1","アレルギー性鼻炎","2","1","","2019","5","8","2019","5","8","","","","","","","55","30970","2020","4","9","1"
"901022","202004","80","25287","616A","杤谷　梢","2","1977","7","13","2","片頭痛","2","1","","2018","11","20","2018","11","21","","","","","","","55","152000","2020","4","9","1"
"901027","202004","80","25287","616A","杤谷　理奈","2","2013","10","30","3","風邪(咳及び鼻水)","2","1","","2018","12","29","2018","12","29","","","","","","","55","35860","2020","4","9","1"
"901029","202004","80","25287","616A","杤谷　理奈","2","2013","10","30","3","風邪(喉の腫れ)","2","1","","2019","3","25","2019","3","25","","","","","","","55","34540","2020","4","9","1"
"901028","202004","80","25287","616A","杤谷　理奈","2","2013","10","30","3","中耳炎","2","1","","2019","5","2","2019","5","8","","","","","","","55","76690","2020","4","9","1"
"901021","202004","21","21845","619A","三枝加奈","2","2019","4","10","1","チョコレート嚢腫","2","1","","2019","9","5","2019","9","5","","","","","","","00","111829","2020","3","30","1"
"901020","202004","21","21845","619A","三枝加奈","2","2019","4","10","1","チョコレート嚢腫","2","1","","2019","12","17","2019","12","17","","","","","","","00","105758","2020","3","30","1"
"901002","202004","16","23468","619D","安田　吉宏","1","1971","8","13","1","肩関節周囲炎　頸椎症","2","9","","2019","9","20","2019","9","20","","","","","","","G2","3715","2020","3","19","1"
"1001005","202004","5","06408","715A","篠澤　孝幸","1","1962","3","8","1","差し歯の脱落と歯根のう胞","3","2","","2019","8","15","2019","9","6","","","","","","","19","53500","2020","1","3","1"
"1001002","202004","6","22455","755A","成田　彩郁","2","1993","12","8","2","歯牙破折","3","2","","2019","4","11","2019","5","14","","","","","","","L8","5050","2020","1","5","1"
"1101001","202004","1","07952","403X","濱田　圭司","1","1960","5","10","1","アレルギー疾患","2","1","","2018","4","19","2018","4","19","","","","","","","G3","423.19","2020","4","3","2"
"1101002","202004","1","07952","403X","濱田　泰子","2","1967","2","24","2","風邪","2","1","","2018","4","13","2018","4","13","","","","","","","G3","551","2020","4","3","2"
