SJIS-WIN 	弥 	1001011011101101 	96ed
EUC-JP 	弥 	1100110011101111 	ccef
UTF-8 	弥 	111001011011110010100101 	e5bca5 

SJIS-WIN 	正 	1001000010110011 	90b3
EUC-JP 	正 	1100000010110101 	c0b5
UTF-8 	正 	111001101010110110100011 	e6ada3 