aid,statusflags
804367,3
805409,3
701039,3
704330,3
705463,3
803235,3
803234,3
804326,3
803242,3
803244,3
804352,3
807678,3
704331,3
1001040,3
1001042,3
1001004,3
1101046,3
1101050,3
801001,3
807640,3
701033,3
807692,3
901015,3
701079,3
705465,3
705467,3
705469,3
807680,3
801027,3
1001011,33816576
901011,3
804320,3
804322,3
1101017,3
1101034,3
1001003,786435
1001007,34340867
1001005,34340867
804333,3
807614,3
1001009,34340865
703267,33554432
804349,33554432
807601,33554432
807602,3
1001002,34340867
1001006,786435
1001008,34340867
804334,3
806537,33554432
704394,3
807603,3
802107,33554432
801002,3
804336,3
801003,33554432
807606,33554432
1101038,3
702197,33554432
807607,33554432
801057,33554432
701040,33554432
804337,3
804342,3
801060,33554432
801066,33554432
804344,3
807608,3
801069,33554432
802108,33554432
804348,33554432
806535,33554432
802115,3
701042,3
801070,3
801071,3
802181,33554432
807609,3
804345,3
703250,3
801095,3
807610,3
807611,3
807612,3
801006,3
1101040,3
807613,3
701023,3
807615,3
805474,3
808701,33554432
807619,33554432
901010,3
807620,33554432
807616,3
807617,3
701036,33554432
802112,33554432
804319,33554432
901012,3
802110,3
1101042,3
806547,33554432
804316,3
701046,33554432
901013,3
901014,3
804317,3
804314,33554432
807621,33554432
804338,33554432
804339,33554432
804341,33554432
1101047,33554432
703297,3
1101054,33554432
901016,3
1101049,33554432
901017,3
806543,3
802113,33554432
802114,33554432
1101041,3
1101043,3
1101044,3
1101051,33554432
1101052,33554432
1101053,33554432
1101055,33554432
806557,33554432
806561,33554432
1101045,3
808703,33554432
1101048,3
808704,33554432
807623,33554432
703300,3
801015,3
801016,3
801017,3
801019,3
801026,3
802101,33554432
808707,33554432
801009,3
801011,3
808709,33554432
807622,3
802117,33554432
802119,33554432
802122,33554432
806548,3
806553,3
808712,33554432
802102,33554432
806530,33554432
807630,33554432
807624,3
808705,3
807631,33554432
801005,3
807625,3
807628,3
807632,33554432
804315,33554432
802123,33554432
801007,3
802124,33554432
802125,33554432
801012,3
801022,3
803226,33554432
803227,33554432
803246,33554432
808710,3
808711,3
803251,33554432
801024,3
806531,33554432
802131,33554432
801037,33554432
801025,3
804330,33554432
701052,33554432
808713,3
801004,3
1101003,34340864
901007,3
801028,3
801029,3
801038,33554432
801043,33554432
805481,3
808714,3
808715,3
808716,3
705415,33554432
803283,33554432
807635,33554432
806562,3
806564,3
1101005,33554432
801040,33554432
805487,3
1101057,33554432
801032,3
801034,3
801046,33554432
1101061,33554432
808717,3
804325,3
802148,33554432
803202,33554432
804351,3
803225,3
804353,3
808718,3
803256,33554432
803205,33554432
804328,3
808719,3
808720,3
808721,3
808722,3
808731,3
803216,33554432
803219,33554432
707646,3
705482,3
804327,3
1101035,33554432
803220,33554432
803257,33554432
801051,33554432
801052,33554432
806516,1
803231,33554432
803247,33554432
1101062,33554432
1101063,33554432
807638,33554432
807636,33554432
807637,33554432
806560,1
807634,3
806568,3
808723,3
808724,3
808725,3
808726,3
804356,3
804360,3
806569,3
801053,33554432
801056,33554432
1101037,3
802195,33554432
808727,3
808728,3
703226,33554432
806577,3
806581,3
808729,3
808730,3
808732,3
808733,3
806592,33554432
804361,3
804362,3
804366,3
804371,3
804376,3
807639,33554432
807642,33554432
1101058,3
801059,33554432
807643,33554432
807627,3
807644,33554432
802142,3
807645,33554432
807626,33554432
803211,3
1101039,3
706523,33554432
808734,3
801065,33554432
808735,3
808736,3
704329,3
801048,3
801050,3
1101066,33554432
1101064,3
1101065,3
901008,3
901009,3
901003,3
1101068,33554432
1101069,33554432
901018,3
808737,3
808738,3
808739,3
808740,3
1101070,33554432
1001071,3
804343,3
806583,3
806587,3
804355,3
808741,3
808742,3
808743,3
802128,3
1101032,33554432
801067,33554432
801068,33554432
1101023,3
1101071,33554432
804365,3
804375,3
805413,33554432
801055,3
807655,33554432
705433,3
808744,3
808745,3
808746,3
703275,3
808759,33554432
808747,3
808748,3
808749,3
808750,3
808751,3
807652,33554432
808753,3
804379,3
804381,3
804382,3
808752,3
808754,3
808755,3
806595,3
807641,3
801008,3
801062,3
808766,33554432
808768,33554432
808770,33554432
1101002,262147
808772,33554432
808773,33554432
807648,3
807649,3
801084,33554432
805442,33554432
802132,33554432
806539,33554432
806596,3
805401,3
801085,33554432
801088,33554432
801100,33554432
1101077,33554432
808756,3
1101078,33554432
1101079,33554432
1101067,3
1101080,33554432
805423,33554432
808785,33554432
804388,3
804394,3
808780,33554432
1001018,33554432
805418,3
801075,3
801076,3
808784,33554432
801087,33554432
1101072,3
1101073,3
1101074,3
1101075,3
805406,3
805408,3
808757,3
808758,3
808760,3
808761,3
802158,33554432
802134,33554432
801077,3
808762,3
802145,3
802147,3
803203,33554432
803204,33554432
807658,3
807659,3
807660,3
803206,33554432
704395,3
701083,33554432
807661,3
807662,3
807663,3
807664,3
807665,3
807650,33554432
807651,33554432
803207,33554432
803214,33554432
705449,3
1101024,33554432
806582,1
802161,33554432
805422,33554432
704303,3
804332,33554432
806580,1
804331,33554432
807667,3
804386,3
1101056,33554432
804391,3
801080,3
806571,1
802149,3
808777,3
808778,3
807666,3
802105,33554432
804335,33554432
807668,3
807669,3
807670,3
807673,3
802163,33554432
1101013,33554432
805456,33554432
801090,3
805458,33554432
803228,33554432
805437,3
805461,33554432
805464,33554432
808781,3
808783,3
803239,33554432
808786,3
803248,33554432
804396,3
802183,33554432
802185,33554432
802188,33554432
803208,33554432
803209,33554432
803215,33554432
803275,33554432
803230,33554432
706542,33554432
802159,3
802160,3
803249,33554432
806552,33554432
803269,33554432
803276,33554432
803290,33554432
803287,33554432
803300,33554432
803212,3
802190,33554432
803258,33554432
802165,3
802199,33554432
805493,33554432
805497,33554432
805498,33554432
804301,33554432
803253,33554432
806536,33554432
802166,3
707658,3
707610,33554432
803284,33554432
803286,33554432
802139,33554432
806540,33554432
806544,33554432
806549,33554432
806550,33554432
802167,3
802169,3
806551,33554432
805452,3
806555,33554432
806589,33554432
803292,33554432
803293,33554432
803221,3
803222,3
803224,3
1101022,33554432
801023,3
701098,11
807674,3
807675,3
807691,33554432
802176,3
806533,33554432
808702,33554432
801089,33554432
801041,33554432
805471,3
805476,3
805477,3
805478,3
807696,33554432
807698,33554432
807700,33554432
802179,3
806501,33554432
803243,3
805403,3
802150,33554432
803233,3
803237,3
803245,3
807676,3
803255,3
805412,3
803270,33554432
805480,3
803289,3
807677,3
801021,33554432
807679,3
804321,33554432
1001028,3
803299,3
801091,33554432
807681,3
807682,3
806586,33554432
802180,33554432
701027,3
802154,33554432
806590,33554432
801030,3
701026,3
806591,33554432
806593,33554432
806594,33554432
802135,3
801083,33554432
801092,33554432
801094,33554432
802136,3
805410,33554432
801058,33554432
805416,33554432
805420,33554432
801061,33554432
805425,33554432
803274,3
805429,33554432
807683,3
807684,3
805430,33554432
805431,33554432
805433,33554432
805435,33554432
805438,33554432
805439,33554432
805441,33554432
805443,33554432
806546,3
807685,3
805445,33554432
805449,33554432
805451,33554432
805454,33554432
805455,33554432
805466,33554432
805457,33554432
706548,3
806572,3
806574,3
802141,3
802143,3
805459,33554432
806579,3
805465,33554432
802162,33554432
703264,3
802144,3
805491,33554432
805496,33554432
802170,33554432
803294,3
802171,33554432
805499,33554432
707650,3
803213,1075
806532,33554432
803263,33554432
805447,33554432
808789,33554432
803272,33554432
803277,33554432
803288,33554432
803297,33554432
803298,33554432
805427,33554432
808788,3
807686,3
807689,3
806563,3
801079,33554432
801097,33554432
801098,33554432
802175,33554432
802186,33554432
802191,33554432
804304,33554432
806576,3
804350,33554432
803259,33554432
807694,3
807695,3
807697,3
804307,33554432
1101007,33554432
1101008,33554432
802146,3
1101009,33554432
1101010,33554432
1101011,33554432
1101026,33554432
1101028,33554432
804312,33554432
703265,33554432
1101030,33554432
1101031,33554432
1101033,33554432
802109,1
806502,3
806503,3
801010,3
801014,3
1001057,3
801018,3
802152,3
801020,3
1001044,3
802111,1
703277,3
704381,33554432
705414,33554432
802104,1
802118,1
802129,1
702126,3
706518,3
706517,3
804318,3
705423,1
803217,3
707620,33554432
705470,33554432
705421,3
702139,3
806504,3
806505,3
704350,33554432
804323,3
707618,33554432
806565,3
806566,3
806567,3
705417,33554432
806570,3
806573,3
806575,3
806578,3
806584,1
702168,33554432
706577,3
1001043,33554432
701055,33554432
704380,33554432
706516,3
806598,3
806599,3
703220,3
901002,3
705468,3
707654,3
704393,3
801035,3
804354,3
705466,3
804357,3
804358,3
804359,3
705464,3
804363,3
804364,3
801093,3
705445,3
804368,3
804369,3
804370,3
705496,33554432
804372,3
804373,3
804374,3
804377,3
804378,3
804380,3
804383,3
804384,3
804385,3
804387,3
804389,3
804390,3
704390,3
804392,3
804393,3
804395,3
804397,3
804398,3
804399,3
804400,3
805402,3
805404,3
805405,3
705410,33554432
801054,3
805407,3
704320,3
805411,3
704310,33554432
702175,33554432
704346,33554432
806588,3
701076,33554432
805421,3
702169,3
706593,3
805426,3
805428,3
706541,33554432
801063,33554432
707612,3
703246,3
701080,3
707613,3
707602,3
701097,33554432
702181,33554432
702116,33554432
805440,3
703231,33554432
801072,3
703230,3
703248,3
707645,3
805448,3
707615,33554432
704385,3
806597,3
707653,3
706514,3
705455,3
706506,3
707657,3
805460,3
703237,33554432
701089,33554432
805468,3
805469,3
805470,3
703254,3
805486,3
805472,3
805473,3
805475,3
703213,3
805479,3
805482,3
805483,3
805484,3
805485,3
805488,3
805489,3
805490,3
704306,3
704349,33554432
805495,3
704391,3
705411,3
702113,3
702118,3
805500,3
806506,3
703280,3
704358,33554432
706511,3
701053,3
805417,3
702151,3
801033,3
801036,3
707631,33554432
707603,3
702164,33554432
704301,3
808791,3
808792,3
808793,3
808794,3
803266,3
704383,3
704400,33554432
701048,3
802192,3
808795,3
702173,33554432
702163,33554432
701100,33554432
702186,3
701069,3
701041,33554432
701077,3
702121,33554432
705494,3
808796,3
808797,3
808798,3
805419,3
806507,3
806508,3
705443,3
701001,0
706537,33554432
704343,33554432
703288,3
702150,3
703296,3
705471,3
707635,3
806509,3
806510,3
801078,3
705477,33554432
801081,3
801096,3
705428,3
805453,3
701071,3
703223,3
706510,33554432
705483,3
802184,3
702172,3
1101001,262147
704314,3
802193,3
706578,3
802197,3
701016,3
802198,3
802200,3
806511,3
806512,3
806513,3
806514,3
806515,3
804305,3
707634,33554432
804302,3
704311,3
706558,33554432
707664,3
704336,3
703294,3
705458,3
806518,3
806519,3
806517,1
806520,3
804308,3
804309,3
804310,3
706505,3
704388,3
702137,3
1101004,3
701009,3
703247,3
702162,33554432
701007,262147
706585,3
706587,3
705475,3
705426,3
702120,33554432
703286,3
707643,3
1101014,3
1101015,11
1101016,3
1101018,3
806521,3
806522,3
806523,3
806524,3
806525,3
1101020,262147
706556,33554432
1101019,3
706589,3
703255,33554432
706590,3
807605,33554432
807671,3
703283,3
807672,3
704386,3
703291,3
704362,3
1101029,3
704360,33554432
804313,3
706559,33554432
707663,3
802103,1
701065,33554432
703224,33554432
703209,3
705432,3
705473,3
806526,3
806527,3
705424,3
1001069,3
901001,3
704342,3
901004,3
901005,3
901006,3
808799,3
808800,3
703289,3
706584,3
806528,3
806529,3
707624,3
703256,33554432
702170,33554432
707649,3
701037,33554432
701068,33554432
701073,33554432
706580,3
801082,33554432
702185,3
705404,33554432
806534,33554432
801064,33554432
702141,3
702115,33554432
703206,3
801073,33554432
801074,33554432
802120,33554432
804346,33554432
804347,33554432
801013,33554432
706513,33554432
703261,3
703235,33554432
703249,33554432
807656,33554432
704347,33554432
703211,33554432
703284,3
807657,33554432
806538,33554432
707614,33554432
706549,3
705460,3
706507,3
704363,33554432
703293,3
807618,33554432
706547,3
706557,33554432
701072,33554432
706552,3
705405,33554432
704361,33554432
806542,33554432
702144,33554432
802126,33554432
704356,33554432
706581,3
707608,33554432
804324,33554432
702149,3
703287,3
703292,3
705452,3
706502,33554432
701018,3
704379,3
704328,3
703262,3
704322,3
702171,33554432
704366,3
802116,33554432
705408,33554432
706550,3
702152,3
806558,33554432
706544,3
704338,3
704326,3
702174,33554432
701091,3
704364,33554432
808706,33554432
701020,3
807629,33554432
704357,33554432
706579,3
707638,33554432
706521,33554432
808708,33554432
706566,3
705401,33554432
703201,3
802121,33554432
702182,33554432
703269,33554432
707661,3
706501,1
702184,33554432
801039,33554432
705451,3
706561,33554432
707662,3
705490,3
704352,3
801031,33554432
702195,33554432
702196,33554432
703295,3
701011,3
704353,33554432
704318,3
703274,3
706512,33554432
704367,33554432
701067,33554432
706567,3
807633,33554432
702199,33554432
706565,3
702101,33554432
702189,33554432
704309,3
702166,33554432
702134,3
705498,3
802127,33554432
705447,3
705487,33554432
705438,3
801042,33554432
703259,3
701006,262147
801045,33554432
703258,3
801044,33554432
703272,3
705479,33554432
705416,33554432
703204,33554432
702155,33554432
705429,3
701095,33554432
702131,3
706525,33554432
705418,33554432
1101006,33554432
701019,262147
702143,3
701096,33554432
705441,3
802133,33554432
705491,33554432
707639,3
706599,3
1101059,33554432
1101060,33554432
701063,33554432
703252,33554432
705407,33554432
705448,3
701082,33554432
701030,33554432
705412,33554432
702138,3
701059,3
701012,3
705440,3
701049,33554432
701045,3
803238,33554432
701044,3
704305,3
704371,33554432
705422,3
702177,33554432
703233,33554432
1101036,33554432
703216,33554432
705457,3
706504,3
706582,3
702180,3
702104,33554432
703227,3
704316,3
706598,3
707607,33554432
703241,3
701085,33554432
702140,33554432
702187,33554432
1101012,33554432
706519,33554432
702154,33554432
704324,3
802173,33554432
704373,33554432
703257,3
702194,33554432
701032,3
807646,33554432
704376,33554432
802130,33554432
702111,3
702110,33554432
705453,3
706503,3
704389,3
705409,3
701028,3
706531,33554432
703251,33554432
702133,3
705474,3
705425,3
705488,3
705439,3
705476,3
808771,33554432
804329,33554432
1001063,3
703232,33554432
705427,3
705454,3
706568,3
703234,33554432
808763,33554432
707619,3
807653,33554432
807654,33554432
701002,33554432
701087,33554432
703244,3
706597,3
707617,3
702148,3
705484,3
705434,3
701062,33554432
706569,3
707641,33554432
808764,33554432
808765,33554432
702129,3
808767,33554432
706524,3
704355,3
703221,3
808769,33554432
705489,33554432
707606,3
808774,33554432
808775,33554432
706600,3
706522,33554432
707660,3
802151,33554432
808776,33554432
704344,3
704302,3
703222,33554432
703245,33554432
701034,3
702106,3
706539,3
702124,33554432
801086,33554432
706553,3
706546,3
1101076,33554432
707629,33554432
701017,3
702132,3
706526,3
706596,3
808779,33554432
704378,33554432
701060,33554432
703279,3
808782,33554432
707626,33554432
704348,33554432
707630,3
703215,33554432
705481,3
705431,3
705497,33554432
808787,33554432
802196,33554432
706573,3
802155,33554432
707640,33554432
701099,33554432
803201,33554432
707604,33554432
701081,33554432
702188,33554432
701056,33554432
701090,33554432
701086,33554432
701084,33554432
707659,3
701057,33554432
803210,33554432
704321,3
803218,33554432
705461,3
706508,3
704317,3
706574,3
701088,33554432
704382,3
705500,3
705450,3
701092,33554432
703205,3
702114,33554432
702119,33554432
702179,33554432
707648,3
706538,3
805450,33554432
703202,33554432
701094,33554432
701074,33554432
704339,3
704325,3
702198,33554432
706588,3
705456,3
803229,33554432
702161,33554432
705435,3
701051,33554432
801099,33554432
802174,33554432
701021,33554432
701031,3
702153,3
703236,33554432
702192,3
805467,33554432
803241,33554432
803232,33554432
803240,33554432
702159,33554432
706545,3
802182,33554432
702160,3
703260,3
706575,3
707611,3
701058,3
705499,33554432
701078,3
701013,3
706515,33554432
706543,33554432
705485,33554432
705436,3
803262,33554432
1101021,33554432
701070,3
803236,33554432
701005,262147
701004,262147
704398,3
705420,33554432
703238,33554432
702156,33554432
803278,33554432
803280,33554432
703278,3
704332,33554432
707625,33554432
803295,33554432
803296,33554432
802189,33554432
701035,3
702158,3
703210,3
705459,3
805492,33554432
804340,33554432
706583,3
805494,33554432
707632,33554432
706536,3
706576,3
707616,33554432
703268,3
803254,33554432
802137,33554432
704374,3
703276,3
803265,33554432
803261,33554432
803273,33554432
802138,33554432
803282,33554432
707633,33554432
702142,3
706530,33554432
706540,33554432
806541,33554432
703212,33554432
806545,33554432
706528,3
703217,33554432
701043,3
806554,33554432
703218,33554432
806556,33554432
706532,33554432
807604,33554432
802140,33554432
701003,33816579
702102,33554432
701029,3
807688,33554432
702109,33554432
1001027,33554432
703266,33554432
1001037,3
1001066,33554432
1001015,3
1001023,3
705472,33554432
1001012,3
803252,33554432
1001024,3
1001055,33554432
806559,33554432
1001021,33554432
807687,33554432
1001034,3
705442,3
807690,33554432
807693,33554432
706555,33554432
1001050,3
1001016,33554432
706560,33554432
706562,33554432
706563,33554432
807699,33554432
703225,33554432
704319,3
704354,3
701008,262147
707651,3
706551,3
706564,33554432
701024,262147
705492,33554432
802106,33554432
703243,33554432
701010,259
702123,33554432
702165,33554432
703242,33554432
1001048,33554432
703281,3
704369,33554432
705486,33554432
705437,3
702107,3
704392,3
705413,33554432
706527,33554432
703203,3
805444,33554432
701038,33554432
705446,3
704368,3
701093,33554432
704312,3
702130,3
704337,3
802153,33554432
806585,33554432
704387,3
705406,3
702183,3
704327,3
704375,3
802156,33554432
702136,3
704351,3
701047,33554432
805414,33554432
706592,3
801047,33554432
801049,33554432
802157,33554432
706591,3
707623,3
703228,33554432
805415,33554432
703263,3
703270,33554432
704323,3
704365,33554432
702128,33554432
702200,33554432
702178,3
705495,33554432
705444,3
805434,33554432
707601,3
805436,33554432
704384,3
705402,33554432
701014,3
706595,3
707622,3
805446,33554432
705403,33554432
707642,3
705493,33554432
706586,3
707647,3
707644,3
805462,33554432
805463,33554432
704313,3
704372,33554432
802164,33554432
704396,3
802168,33554432
702146,3
702122,33554432
707652,3
703253,33554432
706554,33554432
704397,3
803264,33554432
705419,33554432
803267,33554432
803250,33554432
803260,33554432
706594,3
707636,33554432
702191,3
806600,33554432
808790,33554432
803268,33554432
803271,33554432
705480,33554432
705430,3
803279,33554432
803281,33554432
803285,33554432
702108,33554432
803291,33554432
703299,3
703240,3
701061,33554432
701075,3
805424,33554432
1001020,33554432
805432,33554432
701050,33554432
703229,33554432
706520,3
701022,33554432
702176,33554432
703207,33554432
704359,3
802172,33554432
703290,3
802177,33554432
802178,33554432
1001070,3
802187,33554432
701025,262147
802194,33554432
706535,3
1001017,3
703298,3
704345,3
707609,33554432
706534,3
706533,3
803223,33554432
807647,33554432
707637,33554432
704399,3
706570,3
707621,33554432
706571,3
804311,33554432
707627,33554432
702167,33554432
704304,3
703273,3
704334,33554432
1101025,33554432
1101027,33554432
704333,33554432
706509,3
701054,3
707656,3
706529,33554432
702135,3
702103,33554432
804303,33554432
804306,33554432
702145,33554432
707655,3
702190,33554432
703271,3
701015,3
702125,3
703282,3
704370,3
701066,33554432
702117,33554432
703239,3
702193,33554432
702127,33554432
704307,3
704308,3
704377,33554432
702112,3
703214,3
706572,3
707628,33554432
705478,33554432
701064,33554432
703219,33554432
702105,33554432
704340,33554432
704315,3
703208,33554432
702147,33554432
702157,33554432
705462,3
707605,33554432
704335,33554432
704341,3
703285,3
1001019,33554432
1001062,3
1001068,33554432
1001064,3
1001041,3
1001010,34340864
1001035,3
1001045,33554432
1001031,33554432
1001036,3
1001049,33554432
1001053,33554432
1001026,3
1001029,3
1001030,33554432
1001032,3
1001047,33554432
1001051,3
1001060,3
1001067,33554432
1001033,3
1001013,33554432
1001054,3
1001061,3
1001065,33554432
1001056,33554432
1001038,3
1001046,33554432
1001022,3
1001001,786435
1001058,3
1001059,33554432
1001014,3
1001052,33554432
1001039,3
1001025,33554432
