15,013,七ヶ宿町,み宿,~^み宿.*,00040139,39043021
28,028,富谷市,み富,~^み富.*,00040287,39044235
7,003,塩竈市,み塩,~^み塩.*,00040030,39042031
14,012,蔵王町,み蔵,~^み蔵.*,00040121,39043013
16,014,大河原町,み大,~^み大.*,00040147,39043211
17,015,村田町,み村,~^み村.*,00040154,39043229
18,016,柴田町,み柴,~^み柴.*,00040162,39043237
19,017,川崎町,み川,~^み川.*,00040170,39043245
20,018,丸森町,み丸,~^み丸.*,00040188,39043419
21,019,亘理町,み亘,~^み亘.*,00040196,39043617
0,'',宮城県,'','','',''
1,001-1,仙台市青葉区,青葉,~^青葉.*,00044016,39041017
4,001-4,仙台市宮城野区,宮城野,~^宮城野.*,00044024,39041025
5,001-5,仙台市若林区,若林,~^若林.*,00044032,39041033
3,001-3,仙台市太白区,太白,~^太白.*,00044040,39041041
2,001-2,仙台市泉区,泉,~^泉.*,00044057,39041058
6,002,石巻市,み石,~^み石.*,00040022,39042023
8,005,気仙沼市,み気,~^み気.*,00040055,39042056
9,006,白石市,み白,~^み白.*,00040063,39042064
10,007,名取市,み名,~^み名.*,00040071,39042072
11,008,角田市,み角,~^み角.*,00040089,39042080
12,009,多賀城市,み多,~^み多.*,00040097,39042098
13,011,岩沼市,み岩,~^み岩.*,00040113,39042114
35,077,登米市,み登米,~^み登米.*,00040774,39042122
34,076,栗原市,み栗原,~^み栗原.*,00040766,39042130
36,078,東松島市,み東松島,~^み東松島.*,00040782,39042148
39,081,大崎市,み大崎,~^み大崎.*,00040816,39042155
22,020,山元町,み山,~^み山.*,00040204,39043625
23,022,松島町,み島,~^み島.*,00040220,39044011
25,025,利府町,み利,~^み利.*,00040253,39044060
26,026,大和町,み和,~^み和.*,00040261,39044219
27,027,大郷町,み郷,~^み郷.*,00040279,39044227
29,029,大衡村,み衡,~^み衡.*,00040295,39044243
30,033,色麻町,み色,~^み色.*,00040337,39044441
31,039,涌谷町,み涌,~^み涌.*,00040394,39045018
32,068,女川町,み女,~^み女.*,00040683,39045810
33,075,加美町,み加,~^み加.*,00040758,39044458
37,079,美里町,み美,~^み美.*,00040790,39045059
38,080,南三陸町,み南,~^み南.*,00040808,39046065
24,023,七ヶ浜町,み浜,~^み浜.*,00040238,39044045
