"aid","cym","aratio","atotal","acharge","trunc","jadge","sa"
5501010,202006,7,5740,4017,"4018","NG","1"
5501012,202006,7,5690,3982,"3983","NG","1"
5502105,202006,7,5690,3982,"3983","NG","1"
5502113,202006,7,5520,3863,"3864","NG","1"
5503224,202006,7,2850,1994,"1995","NG","1"
5503245,202006,7,5520,3863,"3864","NG","1"
5503266,202006,7,5690,3982,"3983","NG","1"
5503269,202006,7,5690,3982,"3983","NG","1"
5503273,202006,7,5690,3982,"3983","NG","1"
5503281,202006,7,5790,4052,"4053","NG","1"
5503283,202006,7,11580,8105,"8106","NG","1"
5503284,202006,7,10980,7685,"7686","NG","1"
5503285,202006,7,10980,7685,"7686","NG","1"
5503293,202006,7,5290,3702,"3703","NG","1"
5504341,202006,7,5730,4010,"4011","NG","1"
5504358,202006,7,10980,7685,"7686","NG","1"
5504361,202006,7,5350,3744,"3745","NG","1"
5504364,202006,7,10820,7573,"7574","NG","1"
5505449,202006,7,10820,7573,"7574","NG","1"
5505457,202006,7,5210,3646,"3647","NG","1"
5505474,202006,7,2850,1994,"1995","NG","1"
5506518,202006,7,2850,1994,"1995","NG","1"
5506524,202006,7,10980,7685,"7686","NG","1"
5507654,202006,7,2850,1994,"1995","NG","1"
5507683,202006,7,20580,14405,"14406","NG","1"
5508712,202006,7,2850,1994,"1995","NG","1"
5508747,202006,7,10980,7685,"7686","NG","1"
5601011,202006,7,10570,7398,"7399","NG","1"
5601062,202006,7,5730,4010,"4011","NG","1"
5601076,202006,7,10500,7349,"7350","NG","1"
5601085,202006,7,21780,15245,"15246","NG","1"
5602113,202006,7,10820,7573,"7574","NG","1"
5602150,202006,7,2850,1994,"1995","NG","1"
5602174,202006,7,5690,3982,"3983","NG","1"
5603254,202006,7,2850,1994,"1995","NG","1"
5603293,202006,7,5180,3625,"3626","NG","1"
5604316,202006,7,10820,7573,"7574","NG","1"
5604373,202006,7,5490,3842,"3843","NG","1"
5605414,202006,7,10820,7573,"7574","NG","1"
5605420,202006,7,2590,1812,"1813","NG","1"
5605434,202006,7,5690,3982,"3983","NG","1"
5605444,202006,7,10980,7685,"7686","NG","1"
5606586,202006,7,5310,3716,"3717","NG","1"
5606591,202006,7,5690,3982,"3983","NG","1"
5607632,202006,7,10570,7398,"7399","NG","1"
5607645,202006,7,2850,1994,"1995","NG","1"
5608702,202006,7,5690,3982,"3983","NG","1"
5608721,202006,7,5490,3842,"3843","NG","1"
5608782,202006,7,20740,14517,"14518","NG","1"
5608785,202006,7,23180,16225,"16226","NG","1"
5701070,202006,7,22560,15791,"15792","NG","1"
5701073,202006,7,10400,7279,"7280","NG","1"
5702142,202006,7,10820,7573,"7574","NG","1"
5702154,202006,7,11580,8105,"8106","NG","1"
5702184,202006,7,5730,4010,"4011","NG","1"
5703219,202006,7,10980,7685,"7686","NG","1"
5703260,202006,7,10980,7685,"7686","NG","1"
5703282,202006,7,10980,7685,"7686","NG","1"
5704335,202006,7,21160,14811,"14812","NG","1"
5705414,202006,7,2850,1994,"1995","NG","1"
5705421,202006,7,5490,3842,"3843","NG","1"
5705467,202006,7,5640,3947,"3948","NG","1"
5706543,202006,7,2850,1994,"1995","NG","1"
5706564,202006,7,20740,14517,"14518","NG","1"
5706576,202006,7,10780,7545,"7546","NG","1"
5707655,202006,7,23380,16365,"16366","NG","1"
5707665,202006,7,5690,3982,"3983","NG","1"
5707694,202006,7,5290,3702,"3703","NG","1"
5708705,202006,7,2850,1994,"1995","NG","1"
5708716,202006,7,5350,3744,"3745","NG","1"
5708776,202006,7,10770,7538,"7539","NG","1"
5708779,202006,7,5560,3891,"3892","NG","1"
5708786,202006,7,2850,1994,"1995","NG","1"
5801040,202006,7,10980,7685,"7686","NG","1"
5802127,202006,7,10570,7398,"7399","NG","1"
5803238,202006,7,10700,7489,"7490","NG","1"
5803239,202006,7,5350,3744,"3745","NG","1"
5803245,202006,7,5350,3744,"3745","NG","1"
5803246,202006,7,5590,3912,"3913","NG","1"
5803251,202006,7,20530,14370,"14371","NG","1"
5803252,202006,7,20740,14517,"14518","NG","1"
5803278,202006,7,2590,1812,"1813","NG","1"
5803284,202006,7,5290,3702,"3703","NG","1"
5804303,202006,7,5640,3947,"3948","NG","1"
5804311,202006,7,11110,7776,"7777","NG","1"
5804326,202006,7,10980,7685,"7686","NG","1"
5804334,202006,7,5690,3982,"3983","NG","1"
5804380,202006,7,21000,14699,"14700","NG","1"
5805403,202006,7,5690,3982,"3983","NG","1"
5805470,202006,7,2850,1994,"1995","NG","1"
5805491,202006,7,1370,958,"959","NG","1"
5806518,202006,7,23280,16295,"16296","NG","1"
5806557,202006,7,5180,3625,"3626","NG","1"
5806586,202006,7,5640,3947,"3948","NG","1"
5807635,202006,7,2850,1994,"1995","NG","1"
5807645,202006,7,5690,3982,"3983","NG","1"
5807672,202006,7,21960,15371,"15372","NG","1"
5807687,202006,7,2590,1812,"1813","NG","1"
5808779,202006,7,2850,1994,"1995","NG","1"
5808785,202006,7,2850,1994,"1995","NG","1"
5808798,202006,7,10780,7545,"7546","NG","1"
5901044,202006,7,10980,7685,"7686","NG","1"
5902117,202006,7,5490,3842,"3843","NG","1"
5902144,202006,7,5640,3947,"3948","NG","1"
5902149,202006,7,21960,15371,"15372","NG","1"
5903222,202006,7,5690,3982,"3983","NG","1"
5903259,202006,7,10980,7685,"7686","NG","1"
5903260,202006,7,10980,7685,"7686","NG","1"
5903264,202006,7,10980,7685,"7686","NG","1"
5903266,202006,7,10980,7685,"7686","NG","1"
5903268,202006,7,10980,7685,"7686","NG","1"
5905424,202006,7,10980,7685,"7686","NG","1"
5905450,202006,7,5730,4010,"4011","NG","1"
5905458,202006,7,5690,3982,"3983","NG","1"
5905459,202006,7,5620,3933,"3934","NG","1"
5905474,202006,7,11620,8133,"8134","NG","1"
5906503,202006,7,10980,7685,"7686","NG","1"
5906555,202006,7,10610,7426,"7427","NG","1"
5906589,202006,7,10980,7685,"7686","NG","1"
5907602,202006,7,2850,1994,"1995","NG","1"
5907637,202006,7,5290,3702,"3703","NG","1"
5907698,202006,7,5690,3982,"3983","NG","1"
5908701,202006,7,10340,7237,"7238","NG","1"
5908707,202006,7,10980,7685,"7686","NG","1"
5908762,202006,7,2850,1994,"1995","NG","1"
6001013,202006,7,10980,7685,"7686","NG","1"
6001017,202006,7,5690,3982,"3983","NG","1"
6001048,202006,7,10820,7573,"7574","NG","1"
6001053,202006,7,5640,3947,"3948","NG","1"
6001069,202006,7,2850,1994,"1995","NG","1"
6002101,202006,7,5290,3702,"3703","NG","1"
6002104,202006,7,10410,7286,"7287","NG","1"
6002122,202006,7,5290,3702,"3703","NG","1"
6002138,202006,7,10980,7685,"7686","NG","1"
6002144,202006,7,2850,1994,"1995","NG","1"
6002158,202006,7,10980,7685,"7686","NG","1"
6002161,202006,7,10570,7398,"7399","NG","1"
6003208,202006,7,5310,3716,"3717","NG","1"
6003267,202006,7,10820,7573,"7574","NG","1"
6004304,202006,7,5730,4010,"4011","NG","1"
6004309,202006,7,5730,4010,"4011","NG","1"
6004318,202006,7,21960,15371,"15372","NG","1"
6004362,202006,7,2640,1847,"1848","NG","1"
6004374,202006,7,10980,7685,"7686","NG","1"
6004385,202006,7,10980,7685,"7686","NG","1"
6004390,202006,7,10980,7685,"7686","NG","1"
6004391,202006,7,10360,7251,"7252","NG","1"
6005428,202006,7,5730,4010,"4011","NG","1"
6005491,202006,7,5620,3933,"3934","NG","1"
6006526,202006,7,10370,7258,"7259","NG","1"
6006530,202006,7,5640,3947,"3948","NG","1"
6006536,202006,7,10370,7258,"7259","NG","1"
6006550,202006,7,5290,3702,"3703","NG","1"
6006559,202006,7,10570,7398,"7399","NG","1"
6006587,202006,7,1370,958,"959","NG","1"
6006600,202006,7,5490,3842,"3843","NG","1"
6007601,202006,7,5490,3842,"3843","NG","1"
6007606,202006,7,20870,14608,"14609","NG","1"
6007619,202006,7,10500,7349,"7350","NG","1"
6101010,202006,7,5690,3982,"3983","NG","1"
6102115,202006,7,11590,8112,"8113","NG","1"
6102145,202006,7,5490,3842,"3843","NG","1"
6102176,202006,7,10980,7685,"7686","NG","1"
6103241,202006,7,2590,1812,"1813","NG","1"
6104316,202006,7,10820,7573,"7574","NG","1"
6104336,202006,7,2590,1812,"1813","NG","1"
6104355,202006,7,5690,3982,"3983","NG","1"
6104359,202006,7,2850,1994,"1995","NG","1"
6104360,202006,7,2850,1994,"1995","NG","1"
6104364,202006,7,2850,1994,"1995","NG","1"
6104372,202006,7,5730,4010,"4011","NG","1"
6104378,202006,7,5730,4010,"4011","NG","1"
6105416,202006,7,5480,3835,"3836","NG","1"
6105437,202006,7,5690,3982,"3983","NG","1"
6105438,202006,7,10780,7545,"7546","NG","1"
6105456,202006,7,11580,8105,"8106","NG","1"
6105500,202006,7,10560,7391,"7392","NG","1"
6106506,202006,7,5620,3933,"3934","NG","1"
6106509,202006,7,2850,1994,"1995","NG","1"
6106513,202006,7,2850,1994,"1995","NG","1"
6106532,202006,7,10820,7573,"7574","NG","1"
6106551,202006,7,5690,3982,"3983","NG","1"
6106556,202006,7,5690,3982,"3983","NG","1"
6106557,202006,7,10980,7685,"7686","NG","1"
6106558,202006,7,2850,1994,"1995","NG","1"
6106563,202006,7,10610,7426,"7427","NG","1"
6106567,202006,7,22460,15721,"15722","NG","1"
6106599,202006,7,5290,3702,"3703","NG","1"
6107601,202006,7,10820,7573,"7574","NG","1"
6107611,202006,7,2890,2022,"2023","NG","1"
6107649,202006,7,5490,3842,"3843","NG","1"
6107674,202006,7,10980,7685,"7686","NG","1"
6107691,202006,7,2590,1812,"1813","NG","1"
6108709,202006,7,5730,4010,"4011","NG","1"
6108741,202006,7,2850,1994,"1995","NG","1"
6108755,202006,7,10980,7685,"7686","NG","1"
6108794,202006,7,5490,3842,"3843","NG","1"
6108799,202006,7,5620,3933,"3934","NG","1"
6108800,202006,7,2590,1812,"1813","NG","1"
6201022,202006,7,10360,7251,"7252","NG","1"
6201024,202006,7,10780,7545,"7546","NG","1"
6202112,202006,7,10570,7398,"7399","NG","1"
6202117,202006,7,5740,4017,"4018","NG","1"
6202148,202006,7,10780,7545,"7546","NG","1"
6202156,202006,7,2850,1994,"1995","NG","1"
6203211,202006,7,10820,7573,"7574","NG","1"
6203212,202006,7,10980,7685,"7686","NG","1"
6203213,202006,7,10820,7573,"7574","NG","1"
6203221,202006,7,10980,7685,"7686","NG","1"
6203226,202006,7,5490,3842,"3843","NG","1"
6203243,202006,7,5730,4010,"4011","NG","1"
6203297,202006,7,5620,3933,"3934","NG","1"
6203298,202006,7,5730,4010,"4011","NG","1"
6203300,202006,7,2850,1994,"1995","NG","1"
6204382,202006,7,10310,7216,"7217","NG","1"
6204397,202006,7,21740,15217,"15218","NG","1"
6205448,202006,7,2850,1994,"1995","NG","1"
6205454,202006,7,5640,3947,"3948","NG","1"
6205464,202006,7,5690,3982,"3983","NG","1"
6206549,202006,7,5690,3982,"3983","NG","1"
6206585,202006,7,2850,1994,"1995","NG","1"
6206588,202006,7,10820,7573,"7574","NG","1"
6206596,202006,7,2850,1994,"1995","NG","1"
6207612,202006,7,5690,3982,"3983","NG","1"
6207642,202006,7,2840,1987,"1988","NG","1"
6207643,202006,7,2840,1987,"1988","NG","1"
6207671,202006,7,2850,1994,"1995","NG","1"
6208715,202006,7,10980,7685,"7686","NG","1"
6208721,202006,7,10980,7685,"7686","NG","1"
6208722,202006,7,10980,7685,"7686","NG","1"
6208735,202006,7,20580,14405,"14406","NG","1"
6208763,202006,7,5640,3947,"3948","NG","1"
6301008,202006,7,2850,1994,"1995","NG","1"
6301025,202006,7,11580,8105,"8106","NG","1"
6301026,202006,7,5160,3611,"3612","NG","1"
6301053,202006,7,5690,3982,"3983","NG","1"
6301067,202006,7,1420,993,"994","NG","1"
6301093,202006,7,2590,1812,"1813","NG","1"
6302120,202006,7,10570,7398,"7399","NG","1"
6302134,202006,7,5690,3982,"3983","NG","1"
6302139,202006,7,2850,1994,"1995","NG","1"
6302143,202006,7,5520,3863,"3864","NG","1"
6302162,202006,7,20740,14517,"14518","NG","1"
6302186,202006,7,5730,4010,"4011","NG","1"
6303223,202006,7,10400,7279,"7280","NG","1"
6304322,202006,7,10820,7573,"7574","NG","1"
6304333,202006,7,5690,3982,"3983","NG","1"
6304372,202006,7,23240,16267,"16268","NG","1"
6304388,202006,7,20740,14517,"14518","NG","1"
6305405,202006,7,5730,4010,"4011","NG","1"
6305418,202006,7,5290,3702,"3703","NG","1"
6305482,202006,7,10980,7685,"7686","NG","1"
6306537,202006,7,20740,14517,"14518","NG","1"
6306541,202006,7,2850,1994,"1995","NG","1"
6306553,202006,7,1420,993,"994","NG","1"
6307618,202006,7,5490,3842,"3843","NG","1"
6307639,202006,7,10370,7258,"7259","NG","1"
6307654,202006,7,5490,3842,"3843","NG","1"
6308711,202006,7,10980,7685,"7686","NG","1"
6308716,202006,7,5520,3863,"3864","NG","1"
6308738,202006,7,5180,3625,"3626","NG","1"
6308770,202006,7,10980,7685,"7686","NG","1"
6308794,202006,7,21960,15371,"15372","NG","1"
6401013,202006,7,5730,4010,"4011","NG","1"
6401027,202006,7,10370,7258,"7259","NG","1"
6401037,202006,7,2640,1847,"1848","NG","1"
6401079,202006,7,5710,3996,"3997","NG","1"
6401085,202006,7,5490,3842,"3843","NG","1"
6401091,202006,7,2850,1994,"1995","NG","1"
6402162,202006,7,10780,7545,"7546","NG","1"
6402200,202006,7,10370,7258,"7259","NG","1"
6403222,202006,7,10980,7685,"7686","NG","1"
6403252,202006,7,5700,3989,"3990","NG","1"
6403266,202006,7,10980,7685,"7686","NG","1"
6403290,202006,7,23180,16225,"16226","NG","1"
6404325,202006,7,10780,7545,"7546","NG","1"
6404360,202006,7,10980,7685,"7686","NG","1"
6404378,202006,7,10980,7685,"7686","NG","1"
6404380,202006,7,5290,3702,"3703","NG","1"
6405445,202006,7,5690,3982,"3983","NG","1"
6405452,202006,7,21960,15371,"15372","NG","1"
6405454,202006,7,10980,7685,"7686","NG","1"
6406581,202006,7,2850,1994,"1995","NG","1"
6407604,202006,7,5690,3982,"3983","NG","1"
6407612,202006,7,10820,7573,"7574","NG","1"
6407641,202006,7,5680,3975,"3976","NG","1"
6407678,202006,7,21960,15371,"15372","NG","1"
6407684,202006,7,10360,7251,"7252","NG","1"
6407686,202006,7,2850,1994,"1995","NG","1"
6407693,202006,7,2850,1994,"1995","NG","1"
6407698,202006,7,10520,7363,"7364","NG","1"
6408774,202006,7,10610,7426,"7427","NG","1"
6408798,202006,7,10980,7685,"7686","NG","1"
6501037,202006,7,5450,3814,"3815","NG","1"
6502157,202006,7,2850,1994,"1995","NG","1"
6503201,202006,7,20740,14517,"14518","NG","1"
6503230,202006,7,5490,3842,"3843","NG","1"
6503272,202006,7,2850,1994,"1995","NG","1"
6503285,202006,7,5620,3933,"3934","NG","1"
6504324,202006,7,10370,7258,"7259","NG","1"
6504325,202006,7,5180,3625,"3626","NG","1"
6504329,202006,7,5790,4052,"4053","NG","1"
6504337,202006,7,5480,3835,"3836","NG","1"
6504370,202006,7,2590,1812,"1813","NG","1"
6505413,202006,7,5480,3835,"3836","NG","1"
6505466,202006,7,23240,16267,"16268","NG","1"
6506523,202006,7,5490,3842,"3843","NG","1"
6506568,202006,7,10820,7573,"7574","NG","1"
6507607,202006,7,10610,7426,"7427","NG","1"
6507616,202006,7,2590,1812,"1813","NG","1"
6507618,202006,7,1370,958,"959","NG","1"
6507650,202006,7,10980,7685,"7686","NG","1"
6507674,202006,7,23180,16225,"16226","NG","1"
6507679,202006,7,21800,15259,"15260","NG","1"
6507680,202006,7,21960,15371,"15372","NG","1"
6508724,202006,7,1370,958,"959","NG","1"
6508732,202006,7,5310,3716,"3717","NG","1"
6508751,202006,7,5620,3933,"3934","NG","1"
6508752,202006,7,5490,3842,"3843","NG","1"
6508796,202006,7,10370,7258,"7259","NG","1"
6601032,202006,7,10770,7538,"7539","NG","1"
6601033,202006,7,5640,3947,"3948","NG","1"
6601035,202006,7,1420,993,"994","NG","1"
6601044,202006,7,2850,1994,"1995","NG","1"
6601052,202006,7,2590,1812,"1813","NG","1"
6601053,202006,7,5480,3835,"3836","NG","1"
6601062,202006,7,10980,7685,"7686","NG","1"
6601069,202006,7,11580,8105,"8106","NG","1"
6601087,202006,7,5290,3702,"3703","NG","1"
6601088,202006,7,5690,3982,"3983","NG","1"
6601099,202006,7,5690,3982,"3983","NG","1"
6602169,202006,7,10610,7426,"7427","NG","1"
6602173,202006,7,5490,3842,"3843","NG","1"
6602196,202006,7,10820,7573,"7574","NG","1"
6603295,202006,7,5730,4010,"4011","NG","1"
6603296,202006,7,2850,1994,"1995","NG","1"
6604304,202006,7,10980,7685,"7686","NG","1"
6604309,202006,7,5690,3982,"3983","NG","1"
6604335,202006,7,5690,3982,"3983","NG","1"
6604351,202006,7,10920,7643,"7644","NG","1"
6604373,202006,7,20740,14517,"14518","NG","1"
6605405,202006,7,10820,7573,"7574","NG","1"
6605407,202006,7,5520,3863,"3864","NG","1"
6605408,202006,7,5490,3842,"3843","NG","1"
6605454,202006,7,2590,1812,"1813","NG","1"
6605468,202006,7,10650,7454,"7455","NG","1"
6605480,202006,7,5290,3702,"3703","NG","1"
6605492,202006,7,5490,3842,"3843","NG","1"
6605493,202006,7,10330,7230,"7231","NG","1"
6606568,202006,7,23180,16225,"16226","NG","1"
6606595,202006,7,5560,3891,"3892","NG","1"
6607610,202006,7,2850,1994,"1995","NG","1"
6607617,202006,7,2590,1812,"1813","NG","1"
6607640,202006,7,10980,7685,"7686","NG","1"
6608723,202006,7,21960,15371,"15372","NG","1"
6608736,202006,7,5490,3842,"3843","NG","1"
6608749,202006,7,20740,14517,"14518","NG","1"
6608775,202006,7,10980,7685,"7686","NG","1"
6608776,202006,7,5490,3842,"3843","NG","1"
6608788,202006,7,5280,3695,"3696","NG","1"
6608794,202006,7,10980,7685,"7686","NG","1"
6701028,202006,7,10820,7573,"7574","NG","1"
6701058,202006,7,5490,3842,"3843","NG","1"
6702103,202006,7,2590,1812,"1813","NG","1"
6702153,202006,7,5290,3702,"3703","NG","1"
6702194,202006,7,10980,7685,"7686","NG","1"
6703210,202006,7,10980,7685,"7686","NG","1"
6703215,202006,7,2850,1994,"1995","NG","1"
6703228,202006,7,10980,7685,"7686","NG","1"
6704301,202006,7,10980,7685,"7686","NG","1"
6704308,202006,7,10980,7685,"7686","NG","1"
6704316,202006,7,5180,3625,"3626","NG","1"
6704382,202006,7,5490,3842,"3843","NG","1"
6705410,202006,7,5690,3982,"3983","NG","1"
6705419,202006,7,2850,1994,"1995","NG","1"
6706559,202006,7,10950,7664,"7665","NG","1"
6706563,202006,7,5640,3947,"3948","NG","1"
6706573,202006,7,5730,4010,"4011","NG","1"
6706588,202006,7,10980,7685,"7686","NG","1"
6707603,202006,7,1370,958,"959","NG","1"
6707630,202006,7,10820,7573,"7574","NG","1"
6707645,202006,7,2850,1994,"1995","NG","1"
6707660,202006,7,5730,4010,"4011","NG","1"
6708730,202006,7,2850,1994,"1995","NG","1"
6708749,202006,7,5730,4010,"4011","NG","1"
6708766,202006,7,5290,3702,"3703","NG","1"
6801015,202007,7,5690,3982,"3983","NG","1"
6801019,202007,7,5690,3982,"3983","NG","1"
6801025,202007,7,11590,8112,"8113","NG","1"
6802154,202007,7,5290,3702,"3703","NG","1"
6802187,202007,7,2850,1994,"1995","NG","1"
6803240,202007,7,5290,3702,"3703","NG","1"
6803290,202007,7,5290,3702,"3703","NG","1"
6804321,202007,7,2850,1994,"1995","NG","1"
6804325,202007,7,5290,3702,"3703","NG","1"
6804326,202007,7,5740,4017,"4018","NG","1"
6804330,202007,7,5820,4073,"4074","NG","1"
6804334,202007,7,10980,7685,"7686","NG","1"
6804368,202007,7,5230,3660,"3661","NG","1"
6804393,202007,7,5740,4017,"4018","NG","1"
6805405,202007,7,11630,8140,"8141","NG","1"
6805415,202007,7,10830,7580,"7581","NG","1"
6805419,202007,7,10870,7608,"7609","NG","1"
6805426,202007,7,10980,7685,"7686","NG","1"
6805447,202007,7,5490,3842,"3843","NG","1"
6805475,202007,7,1420,993,"994","NG","1"
6806504,202007,7,10980,7685,"7686","NG","1"
6806507,202007,7,11110,7776,"7777","NG","1"
6806518,202007,7,10980,7685,"7686","NG","1"
6806519,202007,7,5490,3842,"3843","NG","1"
6806562,202007,7,2850,1994,"1995","NG","1"
6807609,202007,7,2850,1994,"1995","NG","1"
6807614,202007,7,10980,7685,"7686","NG","1"
6901044,202007,7,11040,7727,"7728","NG","1"
6901046,202007,7,10830,7580,"7581","NG","1"
6901052,202007,7,11040,7727,"7728","NG","1"
6901057,202007,7,10980,7685,"7686","NG","1"
6902126,202007,7,5740,4017,"4018","NG","1"
6902166,202007,7,5490,3842,"3843","NG","1"
6902172,202007,7,5780,4045,"4046","NG","1"
6902179,202007,7,23180,16225,"16226","NG","1"
6902199,202007,7,5740,4017,"4018","NG","1"
6904314,202007,7,5490,3842,"3843","NG","1"
6905436,202007,7,2850,1994,"1995","NG","1"
6905470,202007,7,11630,8140,"8141","NG","1"
6905494,202007,7,5820,4073,"4074","NG","1"
6906519,202007,7,10870,7608,"7609","NG","1"
6906520,202007,7,5490,3842,"3843","NG","1"
6906549,202007,7,5740,4017,"4018","NG","1"
6906552,202007,7,2850,1994,"1995","NG","1"
6907637,202007,7,21960,15371,"15372","NG","1"
6908707,202007,7,10870,7608,"7609","NG","1"
6908712,202007,7,10620,7433,"7434","NG","1"
6908720,202007,7,11110,7776,"7777","NG","1"
6908740,202007,7,5740,4017,"4018","NG","1"
6908769,202007,7,5490,3842,"3843","NG","1"
6908794,202007,7,2590,1812,"1813","NG","1"
7001005,202007,7,5570,3898,"3899","NG","1"
7001007,202007,7,5780,4045,"4046","NG","1"
7001073,202007,7,5740,4017,"4018","NG","1"
7001078,202007,7,5780,4045,"4046","NG","1"
7002134,202007,7,5490,3842,"3843","NG","1"
7002143,202007,7,2850,1994,"1995","NG","1"
7002147,202007,7,10620,7433,"7434","NG","1"
7002178,202007,7,11440,8007,"8008","NG","1"
7002183,202007,7,2850,1994,"1995","NG","1"
7002186,202007,7,20630,14440,"14441","NG","1"
7002190,202007,7,5640,3947,"3948","NG","1"
7002197,202007,7,2850,1994,"1995","NG","1"
7002200,202007,7,2850,1994,"1995","NG","1"
7003209,202007,7,5740,4017,"4018","NG","1"
7003210,202007,7,21600,15119,"15120","NG","1"
7003211,202007,7,23180,16225,"16226","NG","1"
7003216,202007,7,23180,16225,"16226","NG","1"
7003235,202007,7,10660,7461,"7462","NG","1"
7004302,202007,7,5740,4017,"4018","NG","1"
7004303,202007,7,5740,4017,"4018","NG","1"
7004358,202007,7,22820,15973,"15974","NG","1"
7004372,202007,7,10620,7433,"7434","NG","1"
7004373,202007,7,2850,1994,"1995","NG","1"
7005406,202007,7,10620,7433,"7434","NG","1"
7005471,202007,7,5680,3975,"3976","NG","1"
7005472,202007,7,2850,1994,"1995","NG","1"
7005477,202007,7,5850,4094,"4095","NG","1"
7005482,202007,7,10980,7685,"7686","NG","1"
7005484,202007,7,5180,3625,"3626","NG","1"
7006543,202007,7,2850,1994,"1995","NG","1"
7006544,202007,7,2850,1994,"1995","NG","1"
7006557,202007,7,2850,1994,"1995","NG","1"
7007638,202007,7,2850,1994,"1995","NG","1"
7007675,202007,7,2850,1994,"1995","NG","1"
7008720,202007,7,5740,4017,"4018","NG","1"
7008777,202007,7,2850,1994,"1995","NG","1"
7008785,202007,7,10830,7580,"7581","NG","1"
7008790,202007,7,5290,3702,"3703","NG","1"
7101041,202007,7,11110,7776,"7777","NG","1"
7101070,202007,7,2850,1994,"1995","NG","1"
7103212,202007,7,5680,3975,"3976","NG","1"
7103221,202007,7,5780,4045,"4046","NG","1"
7103247,202007,7,2910,2036,"2037","NG","1"
7103253,202007,7,5290,3702,"3703","NG","1"
7103257,202007,7,10980,7685,"7686","NG","1"
7103260,202007,7,5350,3744,"3745","NG","1"
7103267,202007,7,5780,4045,"4046","NG","1"
7103270,202007,7,2850,1994,"1995","NG","1"
7103275,202007,7,23180,16225,"16226","NG","1"
7103286,202007,7,1370,958,"959","NG","1"
7103298,202007,7,11110,7776,"7777","NG","1"
7104322,202007,7,2850,1994,"1995","NG","1"
7104355,202007,7,2850,1994,"1995","NG","1"
7104363,202007,7,2850,1994,"1995","NG","1"
7104368,202007,7,2850,1994,"1995","NG","1"
7104387,202007,7,2850,1994,"1995","NG","1"
7105419,202007,7,2850,1994,"1995","NG","1"
7105430,202007,7,11100,7769,"7770","NG","1"
7105455,202007,7,5850,4094,"4095","NG","1"
7105460,202007,7,2850,1994,"1995","NG","1"
7105483,202007,7,2850,1994,"1995","NG","1"
7105493,202007,7,5290,3702,"3703","NG","1"
7106535,202007,7,21270,14888,"14889","NG","1"
7106589,202007,7,5680,3975,"3976","NG","1"
7107635,202007,7,5800,4059,"4060","NG","1"
7107639,202007,7,5700,3989,"3990","NG","1"
7107647,202007,7,5350,3744,"3745","NG","1"
7107650,202007,7,5590,3912,"3913","NG","1"
7107658,202007,7,21960,15371,"15372","NG","1"
7107675,202007,7,2850,1994,"1995","NG","1"
7108729,202007,7,10980,7685,"7686","NG","1"
7108753,202007,7,20740,14517,"14518","NG","1"
7108766,202007,7,5850,4094,"4095","NG","1"
7108772,202007,7,10980,7685,"7686","NG","1"
7108784,202007,7,5470,3828,"3829","NG","1"
7201015,202007,7,5850,4094,"4095","NG","1"
7202125,202007,7,2850,1994,"1995","NG","1"
7202163,202007,7,11040,7727,"7728","NG","1"
7203275,202007,7,10870,7608,"7609","NG","1"
7203288,202007,7,5290,3702,"3703","NG","1"
7204320,202007,7,10880,7615,"7616","NG","1"
7204322,202007,7,5140,3597,"3598","NG","1"
7204368,202007,7,2590,1812,"1813","NG","1"
7205403,202007,7,10980,7685,"7686","NG","1"
7205444,202007,7,23070,16148,"16149","NG","1"
7205446,202007,7,20740,14517,"14518","NG","1"
7205447,202007,7,5290,3702,"3703","NG","1"
7205450,202007,7,10980,7685,"7686","NG","1"
7205474,202007,7,2850,1994,"1995","NG","1"
7205480,202007,7,5810,4066,"4067","NG","1"
7205482,202007,7,2850,1994,"1995","NG","1"
7205492,202007,7,5290,3702,"3703","NG","1"
7206504,202007,7,2850,1994,"1995","NG","1"
7206519,202007,7,5290,3702,"3703","NG","1"
7206543,202007,7,11110,7776,"7777","NG","1"
7206564,202007,7,10620,7433,"7434","NG","1"
7206570,202007,7,10980,7685,"7686","NG","1"
7206571,202007,7,10980,7685,"7686","NG","1"
7207625,202007,7,11160,7811,"7812","NG","1"
7207655,202007,7,10980,7685,"7686","NG","1"
7207661,202007,7,10780,7545,"7546","NG","1"
7207671,202007,7,2850,1994,"1995","NG","1"
7207674,202007,7,23180,16225,"16226","NG","1"
7207680,202007,7,21960,15371,"15372","NG","1"
7207684,202007,7,23180,16225,"16226","NG","1"
7207693,202007,7,2590,1812,"1813","NG","1"
7208719,202007,7,2850,1994,"1995","NG","1"
7208739,202007,7,5740,4017,"4018","NG","1"
7208752,202007,7,10980,7685,"7686","NG","1"
7208755,202007,7,2850,1994,"1995","NG","1"
7208756,202007,7,23180,16225,"16226","NG","1"
7208787,202007,7,10660,7461,"7462","NG","1"
7208797,202007,7,5740,4017,"4018","NG","1"
7301018,202007,7,21960,15371,"15372","NG","1"
7301020,202007,7,10980,7685,"7686","NG","1"
7301025,202007,7,10980,7685,"7686","NG","1"
7301026,202007,7,10980,7685,"7686","NG","1"
7301027,202007,7,10980,7685,"7686","NG","1"
7301028,202007,7,10620,7433,"7434","NG","1"
7301039,202007,7,5740,4017,"4018","NG","1"
7301041,202007,7,2850,1994,"1995","NG","1"
7301083,202007,7,20840,14587,"14588","NG","1"
7302170,202007,7,10780,7545,"7546","NG","1"
7303201,202007,7,11590,8112,"8113","NG","1"
7303205,202007,7,20740,14517,"14518","NG","1"
7303206,202007,7,20510,14356,"14357","NG","1"
7303242,202007,7,5620,3933,"3934","NG","1"
7303255,202007,7,11580,8105,"8106","NG","1"
7304347,202007,7,10980,7685,"7686","NG","1"
7304355,202007,7,2850,1994,"1995","NG","1"
7304365,202007,7,5490,3842,"3843","NG","1"
7304379,202007,7,5830,4080,"4081","NG","1"
7304381,202007,7,10990,7692,"7693","NG","1"
7304399,202007,7,5690,3982,"3983","NG","1"
7305425,202007,7,2850,1994,"1995","NG","1"
7306503,202007,7,10780,7545,"7546","NG","1"
7306556,202007,7,2850,1994,"1995","NG","1"
7306575,202007,7,10980,7685,"7686","NG","1"
7306590,202007,7,5690,3982,"3983","NG","1"
7306592,202007,7,2850,1994,"1995","NG","1"
7307604,202007,7,2850,1994,"1995","NG","1"
7307628,202007,7,10980,7685,"7686","NG","1"
7307635,202007,7,5490,3842,"3843","NG","1"
7307655,202007,7,2850,1994,"1995","NG","1"
7307678,202007,7,10980,7685,"7686","NG","1"
7307684,202007,7,10980,7685,"7686","NG","1"
7308715,202007,7,10980,7685,"7686","NG","1"
7308724,202007,7,5690,3982,"3983","NG","1"
7308730,202007,7,10730,7510,"7511","NG","1"
7308739,202007,7,2640,1847,"1848","NG","1"
7308756,202007,7,5640,3947,"3948","NG","1"
7308758,202007,7,10830,7580,"7581","NG","1"
7308764,202007,7,10780,7545,"7546","NG","1"
7308769,202007,7,10870,7608,"7609","NG","1"
7308770,202007,7,2840,1987,"1988","NG","1"
7308799,202007,7,10830,7580,"7581","NG","1"
7401027,202007,7,10980,7685,"7686","NG","1"
7401062,202007,7,5490,3842,"3843","NG","1"
7401091,202007,7,11670,8168,"8169","NG","1"
7401093,202007,7,10980,7685,"7686","NG","1"
7402101,202007,7,5840,4087,"4088","NG","1"
7402135,202007,7,2570,1798,"1799","NG","1"
7402159,202007,7,2850,1994,"1995","NG","1"
7402179,202007,7,2850,1994,"1995","NG","1"
7402192,202007,7,2590,1812,"1813","NG","1"
7402196,202007,7,5530,3870,"3871","NG","1"
7403246,202007,7,10980,7685,"7686","NG","1"
7403256,202007,7,21960,15371,"15372","NG","1"
7403257,202007,7,5290,3702,"3703","NG","1"
7404306,202007,7,5690,3982,"3983","NG","1"
7404374,202007,7,5680,3975,"3976","NG","1"
7404391,202007,7,5490,3842,"3843","NG","1"
7404393,202007,7,5490,3842,"3843","NG","1"
7405408,202007,7,5180,3625,"3626","NG","1"
7405411,202007,7,2590,1812,"1813","NG","1"
7405414,202007,7,5550,3884,"3885","NG","1"
7405438,202007,7,10620,7433,"7434","NG","1"
7405455,202007,7,10980,7685,"7686","NG","1"
7406507,202007,7,11130,7790,"7791","NG","1"
7406525,202007,7,11130,7790,"7791","NG","1"
7407609,202007,7,11040,7727,"7728","NG","1"
7407614,202007,7,5290,3702,"3703","NG","1"
7407628,202007,7,5740,4017,"4018","NG","1"
7407637,202007,7,20930,14650,"14651","NG","1"
7407699,202007,7,10980,7685,"7686","NG","1"
7408709,202007,7,2850,1994,"1995","NG","1"
7408726,202007,7,5740,4017,"4018","NG","1"
7408775,202007,7,5270,3688,"3689","NG","1"
7501062,202007,7,2590,1812,"1813","NG","1"
7501065,202007,7,11590,8112,"8113","NG","1"
7501080,202007,7,22860,16001,"16002","NG","1"
7502126,202007,7,2590,1812,"1813","NG","1"
7503218,202007,7,2590,1812,"1813","NG","1"
7503221,202007,7,1370,958,"959","NG","1"
7503223,202007,7,10980,7685,"7686","NG","1"
7503230,202007,7,5290,3702,"3703","NG","1"
7503242,202007,7,1370,958,"959","NG","1"
7503244,202007,7,5290,3702,"3703","NG","1"
7503258,202007,7,2590,1812,"1813","NG","1"
7503260,202007,7,1370,958,"959","NG","1"
7503265,202007,7,5480,3835,"3836","NG","1"
7503268,202007,7,1370,958,"959","NG","1"
7503272,202007,7,10820,7573,"7574","NG","1"
7503276,202007,7,2590,1812,"1813","NG","1"
7503281,202007,7,2590,1812,"1813","NG","1"
7503284,202007,7,2850,1994,"1995","NG","1"
7503290,202007,7,1370,958,"959","NG","1"
7503299,202007,7,2590,1812,"1813","NG","1"
7504308,202007,7,10980,7685,"7686","NG","1"
7504328,202007,7,5290,3702,"3703","NG","1"
7504363,202007,7,5520,3863,"3864","NG","1"
7504381,202007,7,10320,7223,"7224","NG","1"
7504383,202007,7,5690,3982,"3983","NG","1"
7505418,202007,7,11110,7776,"7777","NG","1"
7505429,202007,7,10980,7685,"7686","NG","1"
7505445,202007,7,21180,14825,"14826","NG","1"
7505447,202007,7,10980,7685,"7686","NG","1"
7505476,202007,7,1420,993,"994","NG","1"
7505494,202007,7,10830,7580,"7581","NG","1"
7506509,202007,7,10980,7685,"7686","NG","1"
7506514,202007,7,2850,1994,"1995","NG","1"
7506533,202007,7,10980,7685,"7686","NG","1"
7506541,202007,7,21960,15371,"15372","NG","1"
7506542,202007,7,10980,7685,"7686","NG","1"
7506550,202007,7,2850,1994,"1995","NG","1"
7506575,202007,7,2850,1994,"1995","NG","1"
7506576,202007,7,5290,3702,"3703","NG","1"
7506591,202007,7,10820,7573,"7574","NG","1"
7507634,202007,7,10660,7461,"7462","NG","1"
7508710,202007,7,2590,1812,"1813","NG","1"
7508714,202007,7,10980,7685,"7686","NG","1"
7508721,202007,7,11630,8140,"8141","NG","1"
7508737,202007,7,10980,7685,"7686","NG","1"
7508774,202007,7,10410,7286,"7287","NG","1"
7508781,202007,7,2850,1994,"1995","NG","1"
7508783,202007,7,10980,7685,"7686","NG","1"
7601026,202007,7,5840,4087,"4088","NG","1"
7601052,202007,7,10980,7685,"7686","NG","1"
7601079,202007,7,10980,7685,"7686","NG","1"
7601086,202007,7,10790,7552,"7553","NG","1"
7602103,202007,7,2850,1994,"1995","NG","1"
7602156,202007,7,10980,7685,"7686","NG","1"
7602166,202007,7,10260,7181,"7182","NG","1"
7602172,202007,7,5290,3702,"3703","NG","1"
7602176,202007,7,5290,3702,"3703","NG","1"
7602177,202007,7,5290,3702,"3703","NG","1"
7602194,202007,7,5740,4017,"4018","NG","1"
7603251,202007,7,2850,1994,"1995","NG","1"
7603253,202007,7,2850,1994,"1995","NG","1"
7603264,202007,7,5740,4017,"4018","NG","1"
7603284,202007,7,20740,14517,"14518","NG","1"
7604305,202007,7,11330,7930,"7931","NG","1"
7604307,202007,7,5840,4087,"4088","NG","1"
7604330,202007,7,2850,1994,"1995","NG","1"
7604363,202007,7,2850,1994,"1995","NG","1"
7604373,202007,7,5690,3982,"3983","NG","1"
7604379,202007,7,5690,3982,"3983","NG","1"
7605450,202007,7,10980,7685,"7686","NG","1"
7605459,202007,7,11040,7727,"7728","NG","1"
7605468,202007,7,2850,1994,"1995","NG","1"
7605476,202007,7,10870,7608,"7609","NG","1"
7605490,202007,7,10790,7552,"7553","NG","1"
7605500,202007,7,5180,3625,"3626","NG","1"
7606509,202007,7,10370,7258,"7259","NG","1"
7606537,202007,7,5620,3933,"3934","NG","1"
7606540,202007,7,2590,1812,"1813","NG","1"
7606582,202007,7,5640,3947,"3948","NG","1"
7607653,202007,7,10870,7608,"7609","NG","1"
7607655,202007,7,10830,7580,"7581","NG","1"
7607659,202007,7,5440,3807,"3808","NG","1"
7607666,202007,7,5270,3688,"3689","NG","1"
7608724,202007,7,2850,1994,"1995","NG","1"
7608745,202007,7,5640,3947,"3948","NG","1"
7608752,202007,7,10980,7685,"7686","NG","1"
7608780,202007,7,5850,4094,"4095","NG","1"
7608794,202007,7,5660,3961,"3962","NG","1"
7701006,202007,7,10770,7538,"7539","NG","1"
7701008,202007,7,5470,3828,"3829","NG","1"
7701025,202007,7,2850,1994,"1995","NG","1"
7701042,202007,7,5740,4017,"4018","NG","1"
7702108,202007,7,10450,7314,"7315","NG","1"
7702157,202007,7,10980,7685,"7686","NG","1"
7702165,202007,7,2850,1994,"1995","NG","1"
7703203,202007,7,2590,1812,"1813","NG","1"
7703216,202007,7,5840,4087,"4088","NG","1"
7703221,202007,7,2590,1812,"1813","NG","1"
7703244,202007,7,20630,14440,"14441","NG","1"
7703245,202007,7,2850,1994,"1995","NG","1"
7703255,202007,7,11590,8112,"8113","NG","1"
7703281,202007,7,2590,1812,"1813","NG","1"
7703288,202007,7,2590,1812,"1813","NG","1"
7704332,202007,7,5530,3870,"3871","NG","1"
7704372,202007,7,10980,7685,"7686","NG","1"
7704385,202007,7,22610,15826,"15827","NG","1"
7704392,202007,7,10620,7433,"7434","NG","1"
7705417,202007,7,5290,3702,"3703","NG","1"
7705430,202007,7,2850,1994,"1995","NG","1"
7705460,202007,7,21960,15371,"15372","NG","1"
7706516,202007,7,2590,1812,"1813","NG","1"
7706528,202007,7,10870,7608,"7609","NG","1"
7706550,202007,7,5290,3702,"3703","NG","1"
7706573,202007,7,5290,3702,"3703","NG","1"
7707652,202007,7,1370,958,"959","NG","1"
7707666,202007,7,10870,7608,"7609","NG","1"
7707681,202007,7,2700,1889,"1890","NG","1"
7708705,202007,7,5780,4045,"4046","NG","1"
7708723,202007,7,10980,7685,"7686","NG","1"
7708731,202007,7,11580,8105,"8106","NG","1"
7708774,202007,7,2590,1812,"1813","NG","1"
7801001,202007,7,5520,3863,"3864","NG","1"
7802141,202007,7,5740,4017,"4018","NG","1"
7802163,202007,7,10370,7258,"7259","NG","1"
7802175,202007,7,10830,7580,"7581","NG","1"
7803207,202007,7,10980,7685,"7686","NG","1"
7803210,202007,7,20740,14517,"14518","NG","1"
7803220,202007,7,5610,3926,"3927","NG","1"
7803272,202007,7,10870,7608,"7609","NG","1"
7803275,202007,7,11590,8112,"8113","NG","1"
7803297,202007,7,5740,4017,"4018","NG","1"
7803298,202007,7,10500,7349,"7350","NG","1"
7804311,202007,7,10870,7608,"7609","NG","1"
7804321,202007,7,10980,7685,"7686","NG","1"
7804322,202007,7,10980,7685,"7686","NG","1"
7804328,202007,7,10980,7685,"7686","NG","1"
7804341,202007,7,5740,4017,"4018","NG","1"
7804343,202007,7,5780,4045,"4046","NG","1"
7804353,202007,7,5740,4017,"4018","NG","1"
7804360,202007,7,10980,7685,"7686","NG","1"
7804392,202007,7,10980,7685,"7686","NG","1"
7805403,202007,7,2850,1994,"1995","NG","1"
7805448,202007,7,5740,4017,"4018","NG","1"
7805449,202007,7,5230,3660,"3661","NG","1"
7805452,202007,7,20740,14517,"14518","NG","1"
7805489,202007,7,23100,16169,"16170","NG","1"
7806508,202007,7,2640,1847,"1848","NG","1"
7806513,202007,7,10450,7314,"7315","NG","1"
7806551,202007,7,10620,7433,"7434","NG","1"
7806584,202007,7,5840,4087,"4088","NG","1"
7806599,202007,7,10870,7608,"7609","NG","1"
7807615,202007,7,10660,7461,"7462","NG","1"
7807617,202007,7,2850,1994,"1995","NG","1"
7807635,202007,7,11390,7972,"7973","NG","1"
7807678,202007,7,23180,16225,"16226","NG","1"
7808719,202007,7,1370,958,"959","NG","1"
7808722,202007,7,5780,4045,"4046","NG","1"
7808758,202007,7,10980,7685,"7686","NG","1"
7808784,202007,7,10850,7594,"7595","NG","1"
7808787,202007,7,5740,4017,"4018","NG","1"
7808792,202007,7,5780,4045,"4046","NG","1"
7901001,202007,7,2590,1812,"1813","NG","1"
7901016,202007,7,10520,7363,"7364","NG","1"
7901032,202007,7,10830,7580,"7581","NG","1"
7901039,202007,7,10570,7398,"7399","NG","1"
7901058,202007,7,5780,4045,"4046","NG","1"
7901067,202007,7,2850,1994,"1995","NG","1"
7902114,202007,7,2590,1812,"1813","NG","1"
7902116,202007,7,2590,1812,"1813","NG","1"
7902164,202007,7,5640,3947,"3948","NG","1"
7903201,202007,7,2850,1994,"1995","NG","1"
7903229,202007,7,10980,7685,"7686","NG","1"
7903251,202007,7,10660,7461,"7462","NG","1"
7903263,202007,7,5490,3842,"3843","NG","1"
7903266,202007,7,10980,7685,"7686","NG","1"
7903267,202007,7,10980,7685,"7686","NG","1"
7903294,202007,7,2850,1994,"1995","NG","1"
7904308,202007,7,1370,958,"959","NG","1"
7904316,202007,7,5730,4010,"4011","NG","1"
7904319,202007,7,10770,7538,"7539","NG","1"
7904323,202007,7,5490,3842,"3843","NG","1"
7904334,202007,7,2850,1994,"1995","NG","1"
7904369,202007,7,23180,16225,"16226","NG","1"
7904379,202007,7,23180,16225,"16226","NG","1"
7905421,202007,7,2850,1994,"1995","NG","1"
7905430,202007,7,5290,3702,"3703","NG","1"
7905437,202007,7,5480,3835,"3836","NG","1"
7905455,202007,7,5180,3625,"3626","NG","1"
7906510,202007,7,2570,1798,"1799","NG","1"
7906526,202007,7,10980,7685,"7686","NG","1"
7906556,202007,7,2850,1994,"1995","NG","1"
7906570,202007,7,21600,15119,"15120","NG","1"
7906590,202007,7,10620,7433,"7434","NG","1"
7907608,202007,7,10980,7685,"7686","NG","1"
7907642,202007,7,5690,3982,"3983","NG","1"
7907643,202007,7,5520,3863,"3864","NG","1"
7907644,202007,7,5560,3891,"3892","NG","1"
7907660,202007,7,11670,8168,"8169","NG","1"
7907699,202007,7,2850,1994,"1995","NG","1"
7908727,202007,7,2590,1812,"1813","NG","1"
7908734,202007,7,2850,1994,"1995","NG","1"
7908771,202007,7,2850,1994,"1995","NG","1"
8001005,202007,7,22230,15560,"15561","NG","1"
8001019,202007,7,2850,1994,"1995","NG","1"
8001040,202007,7,10870,7608,"7609","NG","1"
8001057,202007,7,5490,3842,"3843","NG","1"
8001090,202007,7,10790,7552,"7553","NG","1"
8002124,202007,7,11460,8021,"8022","NG","1"
8002125,202007,7,10450,7314,"7315","NG","1"
8002127,202007,7,5840,4087,"4088","NG","1"
8002147,202007,7,2870,2008,"2009","NG","1"
8002190,202007,7,10980,7685,"7686","NG","1"
8003211,202007,7,5290,3702,"3703","NG","1"
8003219,202007,7,10980,7685,"7686","NG","1"
8003233,202007,7,2850,1994,"1995","NG","1"
8003274,202007,7,11670,8168,"8169","NG","1"
8003286,202007,7,11460,8021,"8022","NG","1"
8003287,202007,7,5230,3660,"3661","NG","1"
8003300,202007,7,5550,3884,"3885","NG","1"
8004305,202007,7,5490,3842,"3843","NG","1"
8004307,202007,7,11040,7727,"7728","NG","1"
8004341,202007,7,5680,3975,"3976","NG","1"
8004360,202007,7,5730,4010,"4011","NG","1"
8004363,202007,7,2850,1994,"1995","NG","1"
8004396,202007,7,5230,3660,"3661","NG","1"
8005403,202007,7,10870,7608,"7609","NG","1"
8005416,202007,7,5230,3660,"3661","NG","1"
8005426,202007,7,5740,4017,"4018","NG","1"
8005486,202007,7,21960,15371,"15372","NG","1"
8006505,202007,7,20740,14517,"14518","NG","1"
8006513,202007,7,5550,3884,"3885","NG","1"
8006533,202007,7,2850,1994,"1995","NG","1"
8006586,202007,7,21960,15371,"15372","NG","1"
8006594,202007,7,10660,7461,"7462","NG","1"
8006598,202007,7,10450,7314,"7315","NG","1"
8006599,202007,7,5640,3947,"3948","NG","1"
8007604,202007,7,2850,1994,"1995","NG","1"
8007616,202007,7,5760,4031,"4032","NG","1"
8007625,202007,7,5180,3625,"3626","NG","1"
8007653,202007,7,11510,8056,"8057","NG","1"
8007657,202007,7,21960,15371,"15372","NG","1"
8008736,202007,7,22610,15826,"15827","NG","1"
8008742,202007,7,22820,15973,"15974","NG","1"
8008797,202007,7,2850,1994,"1995","NG","1"
8101014,202007,7,5780,4045,"4046","NG","1"
8101060,202007,7,5780,4045,"4046","NG","1"
8101072,202007,7,10980,7685,"7686","NG","1"
8101089,202007,7,5290,3702,"3703","NG","1"
8103230,202007,7,22820,15973,"15974","NG","1"
8103237,202007,7,10660,7461,"7462","NG","1"
8103248,202007,7,2850,1994,"1995","NG","1"
8103263,202007,7,2850,1994,"1995","NG","1"
8103268,202007,7,5780,4045,"4046","NG","1"
8104318,202007,7,2850,1994,"1995","NG","1"
8104348,202007,7,11130,7790,"7791","NG","1"
8104361,202007,7,2590,1812,"1813","NG","1"
8104397,202007,7,5490,3842,"3843","NG","1"
8105428,202007,7,5690,3982,"3983","NG","1"
8105461,202007,7,10990,7692,"7693","NG","1"
8106539,202007,7,2850,1994,"1995","NG","1"
8106548,202007,7,10980,7685,"7686","NG","1"
8107605,202007,7,10980,7685,"7686","NG","1"
8107611,202007,7,1370,958,"959","NG","1"
8107613,202007,7,45380,31765,"31766","NG","1"
8107615,202007,7,2850,1994,"1995","NG","1"
8107622,202007,7,1420,993,"994","NG","1"
8107624,202007,7,5570,3898,"3899","NG","1"
8107636,202007,7,5740,4017,"4018","NG","1"
8107657,202007,7,1370,958,"959","NG","1"
8107675,202007,7,2850,1994,"1995","NG","1"
8107698,202007,7,2850,1994,"1995","NG","1"
8108702,202007,7,5640,3947,"3948","NG","1"
8108750,202007,7,10980,7685,"7686","NG","1"
8108767,202007,7,21960,15371,"15372","NG","1"
8201002,202007,7,5490,3842,"3843","NG","1"
8201012,202007,7,11420,7993,"7994","NG","1"
8201089,202007,7,5780,4045,"4046","NG","1"
8202180,202007,7,5180,3625,"3626","NG","1"
8203217,202007,7,2850,1994,"1995","NG","1"
8203231,202007,7,10980,7685,"7686","NG","1"
8203234,202007,7,10980,7685,"7686","NG","1"
8203241,202007,7,2850,1994,"1995","NG","1"
8203245,202007,7,2850,1994,"1995","NG","1"
8203283,202007,7,10980,7685,"7686","NG","1"
8203284,202007,7,10980,7685,"7686","NG","1"
8204323,202007,7,10660,7461,"7462","NG","1"
8204336,202007,7,2590,1812,"1813","NG","1"
8204350,202007,7,5490,3842,"3843","NG","1"
8204376,202007,7,10660,7461,"7462","NG","1"
8204377,202007,7,11630,8140,"8141","NG","1"
8205458,202007,7,5840,4087,"4088","NG","1"
8205464,202007,7,5360,3751,"3752","NG","1"
8205498,202007,7,5780,4045,"4046","NG","1"
8206533,202007,7,2850,1994,"1995","NG","1"
8206567,202007,7,10820,7573,"7574","NG","1"
8206590,202007,7,2850,1994,"1995","NG","1"
8207606,202007,7,11090,7762,"7763","NG","1"
8207615,202007,7,10620,7433,"7434","NG","1"
8207616,202007,7,10660,7461,"7462","NG","1"
8207640,202007,7,5780,4045,"4046","NG","1"
8207645,202007,7,10870,7608,"7609","NG","1"
8207660,202007,7,2590,1812,"1813","NG","1"
8207672,202007,7,11180,7825,"7826","NG","1"
8207680,202007,7,11590,8112,"8113","NG","1"
8207694,202007,7,2850,1994,"1995","NG","1"
8208741,202007,7,2850,1994,"1995","NG","1"
8208743,202007,7,10570,7398,"7399","NG","1"
8208762,202007,7,5290,3702,"3703","NG","1"
8208780,202007,7,2850,1994,"1995","NG","1"
8208781,202007,7,11180,7825,"7826","NG","1"
8208782,202007,7,2850,1994,"1995","NG","1"
8301044,202007,7,10260,7181,"7182","NG","1"
8301075,202007,7,5640,3947,"3948","NG","1"
8301080,202007,7,5740,4017,"4018","NG","1"
8301088,202007,7,10980,7685,"7686","NG","1"
8302107,202007,7,10980,7685,"7686","NG","1"
