"insurerid","description_csv"
1,"""hzip"",""郵便番号（〒）"",""ハイフンなし"",""800"",""220"",""true"",""0.7""
""haddress"",""住所"",""枝番号は半角"",""800"",""220"",""true"",""0.7"""
2,"""hname"",""被保険者氏名"",""姓名の間は全角スペース"",""80"",""280"",""true"",""0.7""
""pname"",""受療者氏名"",""姓名の間は全角スペース"",""80"",""280"",""true"",""0.7""
""sname"",""施術所名"","""",""80"",""2600"",""true"",0.7"""
3,"""hname"",""被保険者氏名"",""姓名の間は全角スペース"",""80"",""280"",""true"",""0.7""
""pname"",""受療者氏名"",""姓名の間は全角スペース"",""80"",""280"",""true"",""0.7""
""hzip"",""郵便番号（〒）"",""ハイフンなし"",""800"",""220"",""true"",""0.7""
""haddress"",""住所"",""枝番号は半角"",""800"",""220"",""true"",""0.7""
""sname"",""施術所名,"""",""80"",""2700"",""true"",""0.7"""
5,""
6,"""hzip"",""郵便番号（〒）"",""ハイフンなし"",""800"",""220"",""true"",""0.7""
""haddress"",""住所"",""枝番号は半角"",""800"",""220"",""true"",""0.7"""
7,"""hname"",""被保険者氏名"",""姓名の間は全角スペース"",""80"",""280"",""true"",""0.7""
"
8,"""hname"",""被保険者氏名"",""姓名の間は全角スペース"",""80"",""280"",""true"",""0.7""
""hzip"",""郵便番号（〒）"",""ハイフンなし"",""800"",""220"",""true"",""0.7""
""haddress"",""住所"",""枝番号は半角"",""800"",""220"",""true"",""0.7""
""sname"",""施術所名,"""",""80"",""2700"",""true"",""0.7"""
9,"""hname"",""被保険者氏名"",""姓名の間は全角スペース"",""80"",""280"",""true"",""0.7""
""pname"",""受療者氏名"",""姓名の間は全角スペース"",""80"",""280"",""true"",""0.7""
""hzip"",""郵便番号（〒）"",""ハイフンなし"",""800"",""220"",""true"",""0.7""
""haddress"",""住所"",""枝番号は半角"",""800"",""220"",""true"",""0.7""
""sname"",""施術所名,"""",""80"",""2700"",""true"",""0.7"""
10,"""hname"",""被保険者氏名"",""姓名の間は全角スペース"",""80"",""280"",""true"",""0.7""
""pname"",""受療者氏名"",""姓名の間は全角スペース"",""80"",""280"",""true"",""0.7""
""hzip"",""郵便番号（〒）"",""ハイフンなし"",""800"",""220"",""true"",""0.7""
""haddress"",""住所"",""枝番号は半角"",""800"",""220"",""true"",""0.7""
""sname"",""施術所名,"""",""80"",""2700"",""true"",""0.7"""
11,"""hname"",""被保険者氏名"",""姓名の間は全角スペース"",""80"",""280"",""true"",""0.7""
""pname"",""受療者氏名"",""姓名の間は全角スペース"",""80"",""280"",""true"",""0.7""
""hzip"",""郵便番号（〒）"",""ハイフンなし"",""800"",""220"",""true"",""0.7""
""haddress"",""住所"",""枝番号は半角"",""800"",""220"",""true"",""0.7""
""sname"",""施術所名,"""",""80"",""2700"",""true"",""0.7"""
13,"""hname"",""被保険者氏名"",""姓名の間は全角スペース"",""80"",""280"",""true"",""0.7""
""pname"",""受療者氏名"",""姓名の間は全角スペース"",""80"",""280"",""true"",""0.7""
""hzip"",""郵便番号（〒）"",""ハイフンなし"",""800"",""220"",""true"",""0.7""
""haddress"",""住所"",""枝番号は半角"",""800"",""220"",""true"",""0.7""
""sname"",""施術所名,"""",""80"",""2700"",""true"",""0.7"""
14,"""hnum"",""記号番号"",""ハイフンがある場合は入力"",""800"",""0"",""false"",""0.7""
""hname"",""被保険者氏名"",""姓名の間は全角スペース"",""80"",""280"",""true"",""0.7""
""hzip"",""郵便番号（〒）"",""ハイフンなし"",""800"",""1600"",""true"",""0.7""
""haddress"",""住所"",""枝番号は半角"",""800"",""1600"",""true"",""0.7""
""sname"",""施術所名,"""",""800"",""1400""
""fvisittimes"",""往療回数"","""",""425"",""1200"""
15,"""hname"",""被保険者氏名"",""姓名の間は全角スペース"",""80"",""280"",""true"",""0.7""
""pname"",""受療者氏名"",""姓名の間は全角スペース"",""80"",""280"",""true"",""0.7""
""hzip"",""郵便番号（〒）"",""ハイフンなし"",""800"",""220"",""true"",""0.7""
""haddress"",""住所"",""枝番号は半角"",""800"",""220"",""true"",""0.7""
""sname"",""施術所名,"""",""80"",""2700"",""true"",""0.7"""
16,""
18,"""hname"",""被保険者氏名"",""姓名の間は全角スペース"",""80"",""280"",""true"",""0.7""
""pname"",""受療者氏名"",""姓名の間は全角スペース"",""80"",""280"",""true"",""0.7""
""hzip"",""郵便番号（〒）"",""ハイフンなし"",""800"",""220"",""true"",""0.7""
""haddress"",""住所"",""枝番号は半角"",""800"",""220"",""true"",""0.7""
""sname"",""施術所名"","""",""80"",""2700"",""true"",""0.7"""
19,"""hname"",""被保険者氏名"",""姓名の間は全角スペース"",""80"",""280"",""true"",""0.7""
""hzip"",""郵便番号（〒）"",""ハイフンなし"",""800"",""220"",""true"",""0.7""
""haddress"",""住所"",""枝番号は半角"",""800"",""220"",""true"",""0.7"""
20,"""hname"",""被保険者名"",""姓名の間は全角スペース"",""80"",""280"",""true"",""0.7""
""pname"",""受療者名"",""姓名の間は全角スペース"",""80"",""280"",""true"",""0.7""
""hzip"",""郵便番号（〒）"",""ハイフンなし"",""800"",""220"",""true"",""0.7""
""haddress"",""住所"",""枝番号は半角"",""800"",""220"",""true"",""0.7""
""sname"",""施術所名"","""",""80"",""2300"",""true"""
21,"""hname"",""被保険者氏名"",""姓名の間は全角スペース"",""80"",""280"",""true"",""0.7""
""pname"",""受療者氏名"",""姓名の間は全角スペース"",""80"",""280"",""true"",""0.7""
""hzip"",""郵便番号（〒）"",""ハイフンなし"",""800"",""220"",""true"",""0.7""
""haddress"",""住所"",""枝番号は半角"",""800"",""220"",""true"",""0.7""
""sname"",""施術所名,"""",""80"",""2700"",""true"",""0.7"""
22,"""hname"",""被保険者氏名"",""姓名の間は全角スペース"",""80"",""280"",""true"",""0.7""
""pname"",""受療者氏名"",""姓名の間は全角スペース"",""80"",""280"",""true"",""0.7""
""hzip"",""郵便番号（〒）"",""ハイフンなし"",""800"",""220"",""true"",""0.7""
""haddress"",""住所"",""枝番号は半角"",""800"",""220"",""true"",""0.7""
""sname"",""施術所名,"""",""80"",""2700"",""true"",""0.7"""
23,"""hname"",""被保険者氏名"",""姓名の間は全角スペース"",""80"",""280"",""true"",""0.7""
""pname"",""受療者氏名"",""姓名の間は全角スペース"",""80"",""280"",""true"",""0.7""
""hzip"",""郵便番号（〒）"",""ハイフンなし"",""800"",""220"",""true"",""0.7""
""haddress"",""住所"",""枝番号は半角"",""800"",""220"",""true"",""0.7""
""sname"",""施術所名,"""",""80"",""2700"",""true"",""0.7"""
24,"""hname"",""被保険者氏名"",""姓名の間は全角スペース"",""80"",""280"",""true"",""0.7""
""pname"",""受療者氏名"",""姓名の間は全角スペース"",""80"",""280"",""true"",""0.7""
""hzip"",""郵便番号（〒）"",""ハイフンなし"",""800"",""220"",""true"",""0.7""
""haddress"",""住所"",""枝番号は半角"",""800"",""220"",""true"",""0.7""
""sname"",""施術所名,"""",""80"",""2700"",""true"",""0.7"""
25,"""hname"",""被保険者氏名"",""姓名の間は全角スペース"",""80"",""280"",""true"",""0.7""
""pname"",""受療者氏名"",""姓名の間は全角スペース"",""80"",""280"",""true"",""0.7""
""hzip"",""郵便番号（〒）"",""ハイフンなし"",""800"",""220"",""true"",""0.7""
""haddress"",""住所"",""枝番号は半角"",""800"",""220"",""true"",""0.7""
""sname"",""施術所名,"""",""80"",""2700"",""true"",""0.7"""
26,"""hname"",""被保険者氏名"",""姓名の間は全角スペース"",""80"",""280"",""true"",""0.7""
""pname"",""受療者氏名"",""姓名の間は全角スペース"",""80"",""280"",""true"",""0.7""
""hzip"",""郵便番号（〒）"",""ハイフンなし"",""800"",""220"",""true"",""0.7""
""haddress"",""住所"",""枝番号は半角"",""800"",""220"",""true"",""0.7""
""sname"",""施術所名,"""",""80"",""2700"",""true"",""0.7"""
27,"""hname"",""被保険者氏名"",""姓名の間は全角スペース"",""80"",""280"",""true"",""0.7""
""pname"",""受療者氏名"",""姓名の間は全角スペース"",""80"",""280"",""true"",""0.7""
""hzip"",""郵便番号（〒）"",""ハイフンなし"",""800"",""220"",""true"",""0.7""
""haddress"",""住所"",""枝番号は半角"",""800"",""220"",""true"",""0.7""
""sname"",""施術所名,"""",""80"",""2700"",""true"",""0.7"""
28,"""hname"",""被保険者氏名"",""姓名の間は全角スペース"",""80"",""280"",""true"",""0.7""
""pname"",""受療者氏名"",""姓名の間は全角スペース"",""80"",""280"",""true"",""0.7""
""hzip"",""郵便番号（〒）"",""ハイフンなし"",""800"",""220"",""true"",""0.7""
""haddress"",""住所"",""枝番号は半角"",""800"",""220"",""true"",""0.7""
""sname"",""施術所名,"""",""80"",""2700"",""true"",""0.7"""
29,"""hname"",""被保険者氏名"",""姓名の間は全角スペース"",""80"",""280"",""true"",""0.7""
""pname"",""受療者氏名"",""姓名の間は全角スペース"",""80"",""280"",""true"",""0.7""
""hzip"",""郵便番号（〒）"",""ハイフンなし"",""800"",""220"",""true"",""0.7""
""haddress"",""住所"",""枝番号は半角"",""800"",""220"",""true"",""0.7""
""sname"",""施術所名,"""",""80"",""2700"",""true"",""0.7"""
30,"""hname"",""被保険者氏名"",""姓名の間は全角スペース"",""80"",""280"",""true"",""0.7""
""pname"",""受療者氏名"",""姓名の間は全角スペース"",""80"",""280"",""true"",""0.7""
""hzip"",""郵便番号（〒）"",""ハイフンなし"",""800"",""220"",""true"",""0.7""
""haddress"",""住所"",""枝番号は半角"",""800"",""220"",""true"",""0.7""
""sname"",""施術所名,"""",""80"",""2700"",""true"",""0.7"""
31,"""hname"",""被保険者氏名"",""姓名の間は全角スペース"",""80"",""280"",""true"",""0.7""
""pname"",""受療者氏名"",""姓名の間は全角スペース"",""80"",""280"",""true"",""0.7""
""hzip"",""郵便番号（〒）"",""ハイフンなし"",""800"",""220"",""true"",""0.7""
""haddress"",""住所"",""枝番号は半角"",""800"",""220"",""true"",""0.7""
""sname"",""施術所名,"""",""80"",""2700"",""true"",""0.7"""
32,"""hname"",""被保険者氏名"",""姓名の間は全角スペース"",""80"",""280"",""true"",""0.7""
""pname"",""受療者氏名"",""姓名の間は全角スペース"",""80"",""280"",""true"",""0.7""
""hzip"",""郵便番号（〒）"",""ハイフンなし"",""800"",""220"",""true"",""0.7""
""haddress"",""住所"",""枝番号は半角"",""800"",""220"",""true"",""0.7""
""sname"",""施術所名,"""",""80"",""2700"",""true"",""0.7"""
33,"""hname"",""被保険者氏名"",""姓名の間は全角スペース"",""80"",""280"",""true"",""0.7""
""pname"",""受療者氏名"",""姓名の間は全角スペース"",""80"",""280"",""true"",""0.7""
""hzip"",""郵便番号（〒）"",""ハイフンなし"",""800"",""220"",""true"",""0.7""
""haddress"",""住所"",""枝番号は半角"",""800"",""220"",""true"",""0.7""
""sname"",""施術所名,"""",""80"",""2700"",""true"",""0.7"""
34,"""hname"",""被保険者氏名"",""姓名の間は全角スペース"",""80"",""280"",""true"",""0.7""
""pname"",""受療者氏名"",""姓名の間は全角スペース"",""80"",""280"",""true"",""0.7""
""hzip"",""郵便番号（〒）"",""ハイフンなし"",""800"",""220"",""true"",""0.7""
""haddress"",""住所"",""枝番号は半角"",""800"",""220"",""true"",""0.7""
""sname"",""施術所名,"""",""80"",""2700"",""true"",""0.7"""
35,"""hname"",""被保険者氏名"",""姓名の間は全角スペース"",""80"",""280"",""true"",""0.7""
""pname"",""受療者氏名"",""姓名の間は全角スペース"",""80"",""280"",""true"",""0.7""
""hzip"",""郵便番号（〒）"",""ハイフンなし"",""800"",""220"",""true"",""0.7""
""haddress"",""住所"",""枝番号は半角"",""800"",""220"",""true"",""0.7""
""sname"",""施術所名,"""",""80"",""2700"",""true"",""0.7"""
36,"""hname"",""被保険者氏名"",""姓名の間は全角スペース"",""80"",""280"",""true"",""0.7""
""pname"",""受療者氏名"",""姓名の間は全角スペース"",""80"",""280"",""true"",""0.7""
""hzip"",""郵便番号（〒）"",""ハイフンなし"",""800"",""220"",""true"",""0.7""
""haddress"",""住所"",""枝番号は半角"",""800"",""220"",""true"",""0.7""
""sname"",""施術所名,"""",""80"",""2700"",""true"",""0.7"""
37,"""hname"",""被保険者氏名"",""姓名の間は全角スペース"",""80"",""280"",""true"",""0.7""
""pname"",""受療者氏名"",""姓名の間は全角スペース"",""80"",""280"",""true"",""0.7""
""hzip"",""郵便番号（〒）"",""ハイフンなし"",""800"",""220"",""true"",""0.7""
""haddress"",""住所"",""枝番号は半角"",""800"",""220"",""true"",""0.7""
""sname"",""施術所名,"""",""80"",""2700"",""true"",""0.7"""
38,"""hname"",""被保険者氏名"",""姓名の間は全角スペース"",""80"",""280"",""true"",""0.7""
""pname"",""受療者氏名"",""姓名の間は全角スペース"",""80"",""280"",""true"",""0.7""
""hzip"",""郵便番号（〒）"",""ハイフンなし"",""800"",""220"",""true"",""0.7""
""haddress"",""住所"",""枝番号は半角"",""800"",""220"",""true"",""0.7""
""sname"",""施術所名,"""",""80"",""2700"",""true"",""0.7"""
39,"""hname"",""被保険者氏名"",""姓名の間は全角スペース"",""80"",""280"",""true"",""0.7""
""pname"",""受療者氏名"",""姓名の間は全角スペース"",""80"",""280"",""true"",""0.7""
""hzip"",""郵便番号（〒）"",""ハイフンなし"",""800"",""220"",""true"",""0.7""
""haddress"",""住所"",""枝番号は半角"",""800"",""220"",""true"",""0.7""
""sname"",""施術所名,"""",""80"",""2700"",""true"",""0.7"""
40,"""hname"",""被保険者氏名"",""姓名の間は全角スペース"",""80"",""280"",""true"",""0.7""
""pname"",""受療者氏名"",""姓名の間は全角スペース"",""80"",""280"",""true"",""0.7""
""hzip"",""郵便番号（〒）"",""ハイフンなし"",""800"",""220"",""true"",""0.7""
""haddress"",""住所"",""枝番号は半角"",""800"",""220"",""true"",""0.7""
""sname"",""施術所名,"""",""80"",""2700"",""true"",""0.7"""
41,"""hname"",""被保険者氏名"",""姓名の間は全角スペース"",""80"",""280"",""true"",""0.7""
""pname"",""受療者氏名"",""姓名の間は全角スペース"",""80"",""280"",""true"",""0.7""
""hzip"",""郵便番号（〒）"",""ハイフンなし"",""800"",""220"",""true"",""0.7""
""haddress"",""住所"",""枝番号は半角"",""800"",""220"",""true"",""0.7""
""sname"",""施術所名,"""",""80"",""2700"",""true"",""0.7"""
42,"""hname"",""被保険者氏名"",""姓名の間は全角スペース"",""80"",""280"",""true"",""0.7""
""pname"",""受療者氏名"",""姓名の間は全角スペース"",""80"",""280"",""true"",""0.7""
""hzip"",""郵便番号（〒）"",""ハイフンなし"",""800"",""220"",""true"",""0.7""
""haddress"",""住所"",""枝番号は半角"",""800"",""220"",""true"",""0.7""
""sname"",""施術所名,"""",""80"",""2700"",""true"",""0.7"""
43,"""hname"",""被保険者氏名"",""姓名の間は全角スペース"",""80"",""280"",""true"",""0.7""
""pname"",""受療者氏名"",""姓名の間は全角スペース"",""80"",""280"",""true"",""0.7""
""hzip"",""郵便番号（〒）"",""ハイフンなし"",""800"",""220"",""true"",""0.7""
""haddress"",""住所"",""枝番号は半角"",""800"",""220"",""true"",""0.7""
""sname"",""施術所名,"""",""80"",""2700"",""true"",""0.7"""
44,"""hname"",""被保険者氏名"",""姓名の間は全角スペース"",""80"",""280"",""true"",""0.7""
""pname"",""受療者氏名"",""姓名の間は全角スペース"",""80"",""280"",""true"",""0.7""
""hzip"",""郵便番号（〒）"",""ハイフンなし"",""800"",""220"",""true"",""0.7""
""haddress"",""住所"",""枝番号は半角"",""800"",""220"",""true"",""0.7""
""sname"",""施術所名,"""",""80"",""2700"",""true"",""0.7"""
45,"""hname"",""被保険者氏名"",""姓名の間は全角スペース"",""80"",""280"",""true"",""0.7""
""pname"",""受療者氏名"",""姓名の間は全角スペース"",""80"",""280"",""true"",""0.7""
""hzip"",""郵便番号（〒）"",""ハイフンなし"",""800"",""220"",""true"",""0.7""
""haddress"",""住所"",""枝番号は半角"",""800"",""220"",""true"",""0.7""
""sname"",""施術所名,"""",""80"",""2700"",""true"",""0.7"""
46,"""hname"",""被保険者氏名"",""姓名の間は全角スペース"",""80"",""280"",""true"",""0.7""
""pname"",""受療者氏名"",""姓名の間は全角スペース"",""80"",""280"",""true"",""0.7""
""hzip"",""郵便番号（〒）"",""ハイフンなし"",""800"",""220"",""true"",""0.7""
""haddress"",""住所"",""枝番号は半角"",""800"",""220"",""true"",""0.7""
""sname"",""施術所名,"""",""80"",""2700"",""true"",""0.7"""
47,"""hname"",""被保険者氏名"",""姓名の間は全角スペース"",""80"",""280"",""true"",""0.7""
""pname"",""受療者氏名"",""姓名の間は全角スペース"",""80"",""280"",""true"",""0.7""
""hzip"",""郵便番号（〒）"",""ハイフンなし"",""800"",""220"",""true"",""0.7""
""haddress"",""住所"",""枝番号は半角"",""800"",""220"",""true"",""0.7""
""sname"",""施術所名,"""",""80"",""2700"",""true"",""0.7"""
48,"""hname"",""被保険者氏名"",""姓名の間は全角スペース"",""80"",""280"",""true"",""0.7""
""pname"",""受療者氏名"",""姓名の間は全角スペース"",""80"",""280"",""true"",""0.7""
""hzip"",""郵便番号（〒）"",""ハイフンなし"",""800"",""220"",""true"",""0.7""
""haddress"",""住所"",""枝番号は半角"",""800"",""220"",""true"",""0.7""
""sname"",""施術所名,"""",""80"",""2700"",""true"",""0.7"""
49,"""hname"",""被保険者氏名"",""姓名の間は全角スペース"",""80"",""280"",""true"",""0.7""
""pname"",""受療者氏名"",""姓名の間は全角スペース"",""80"",""280"",""true"",""0.7""
""hzip"",""郵便番号（〒）"",""ハイフンなし"",""800"",""220"",""true"",""0.7""
""haddress"",""住所"",""枝番号は半角"",""800"",""220"",""true"",""0.7""
""sname"",""施術所名,"""",""80"",""2700"",""true"",""0.7"""
50,"""hname"",""被保険者氏名"",""姓名の間は全角スペース"",""80"",""280"",""true"",""0.7""
""pname"",""受療者氏名"",""姓名の間は全角スペース"",""80"",""280"",""true"",""0.7""
""hzip"",""郵便番号（〒）"",""ハイフンなし"",""800"",""220"",""true"",""0.7""
""haddress"",""住所"",""枝番号は半角"",""800"",""220"",""true"",""0.7""
""sname"",""施術所名,"""",""80"",""2700"",""true"",""0.7"""
51,"""hname"",""被保険者氏名"",""姓名の間は全角スペース"",""80"",""280"",""true"",""0.7""
""pname"",""受療者氏名"",""姓名の間は全角スペース"",""80"",""280"",""true"",""0.7""
""hzip"",""郵便番号（〒）"",""ハイフンなし"",""800"",""220"",""true"",""0.7""
""haddress"",""住所"",""枝番号は半角"",""800"",""220"",""true"",""0.7""
""sname"",""施術所名,"""",""80"",""2700"",""true"",""0.7"""
52,"""hname"",""被保険者氏名"",""姓名の間は全角スペース"",""80"",""280"",""true"",""0.7""
""pname"",""受療者氏名"",""姓名の間は全角スペース"",""80"",""280"",""true"",""0.7""
""hzip"",""郵便番号（〒）"",""ハイフンなし"",""800"",""220"",""true"",""0.7""
""haddress"",""住所"",""枝番号は半角"",""800"",""220"",""true"",""0.7""
""sname"",""施術所名,"""",""80"",""2700"",""true"",""0.7"""
53,"""hname"",""被保険者氏名"",""姓名の間は全角スペース"",""80"",""280"",""true"",""0.7""
""pname"",""受療者氏名"",""姓名の間は全角スペース"",""80"",""280"",""true"",""0.7""
""hzip"",""郵便番号（〒）"",""ハイフンなし"",""800"",""220"",""true"",""0.7""
""haddress"",""住所"",""枝番号は半角"",""800"",""220"",""true"",""0.7""
""sname"",""施術所名,"""",""80"",""2700"",""true"",""0.7"""
54,"""hname"",""被保険者氏名"",""姓名の間は全角スペース"",""80"",""280"",""true"",""0.7""
""pname"",""受療者氏名"",""姓名の間は全角スペース"",""80"",""280"",""true"",""0.7""
""hzip"",""郵便番号（〒）"",""ハイフンなし"",""800"",""220"",""true"",""0.7""
""haddress"",""住所"",""枝番号は半角"",""800"",""220"",""true"",""0.7""
""sname"",""施術所名,"""",""80"",""2700"",""true"",""0.7"""
55,"""hname"",""被保険者氏名"",""姓名の間は全角スペース"",""80"",""280"",""true"",""0.7""
""pname"",""受療者氏名"",""姓名の間は全角スペース"",""80"",""280"",""true"",""0.7""
""hzip"",""郵便番号（〒）"",""ハイフンなし"",""800"",""220"",""true"",""0.7""
""haddress"",""住所"",""枝番号は半角"",""800"",""220"",""true"",""0.7""
""sname"",""施術所名,"""",""80"",""2700"",""true"",""0.7"""
56,"""hname"",""被保険者氏名"",""姓名の間は全角スペース"",""80"",""280"",""true"",""0.7""
""pname"",""受療者氏名"",""姓名の間は全角スペース"",""80"",""280"",""true"",""0.7""
""hzip"",""郵便番号（〒）"",""ハイフンなし"",""800"",""220"",""true"",""0.7""
""haddress"",""住所"",""枝番号は半角"",""800"",""220"",""true"",""0.7""
""sname"",""施術所名,"""",""80"",""2700"",""true"",""0.7"""
57,"""hname"",""被保険者氏名"",""姓名の間は全角スペース"",""80"",""280"",""true"",""0.7""
""pname"",""受療者氏名"",""姓名の間は全角スペース"",""80"",""280"",""true"",""0.7""
""hzip"",""郵便番号（〒）"",""ハイフンなし"",""800"",""220"",""true"",""0.7""
""haddress"",""住所"",""枝番号は半角"",""800"",""220"",""true"",""0.7""
""sname"",""施術所名,"""",""80"",""2700"",""true"",""0.7"""
58,"""hname"",""被保険者氏名"",""姓名の間は全角スペース"",""80"",""280"",""true"",""0.7""
""pname"",""受療者氏名"",""姓名の間は全角スペース"",""80"",""280"",""true"",""0.7""
""hzip"",""郵便番号（〒）"",""ハイフンなし"",""800"",""220"",""true"",""0.7""
""haddress"",""住所"",""枝番号は半角"",""800"",""220"",""true"",""0.7""
""sname"",""施術所名,"""",""80"",""2700"",""true"",""0.7"""
59,"""hname"",""被保険者氏名"",""姓名の間は全角スペース"",""80"",""280"",""true"",""0.7""
""pname"",""受療者氏名"",""姓名の間は全角スペース"",""80"",""280"",""true"",""0.7""
""hzip"",""郵便番号（〒）"",""ハイフンなし"",""800"",""220"",""true"",""0.7""
""haddress"",""住所"",""枝番号は半角"",""800"",""220"",""true"",""0.7""
""sname"",""施術所名,"""",""80"",""2700"",""true"",""0.7"""
60,"""hname"",""被保険者氏名"",""姓名の間は全角スペース"",""80"",""280"",""true"",""0.7""
""pname"",""受療者氏名"",""姓名の間は全角スペース"",""80"",""280"",""true"",""0.7""
""hzip"",""郵便番号（〒）"",""ハイフンなし"",""800"",""220"",""true"",""0.7""
""haddress"",""住所"",""枝番号は半角"",""800"",""220"",""true"",""0.7""
""sname"",""施術所名,"""",""80"",""2700"",""true"",""0.7"""
61,"""hname"",""被保険者氏名"",""姓名の間は全角スペース"",""80"",""280"",""true"",""0.7""
""pname"",""受療者氏名"",""姓名の間は全角スペース"",""80"",""280"",""true"",""0.7""
""hzip"",""郵便番号（〒）"",""ハイフンなし"",""800"",""220"",""true"",""0.7""
""haddress"",""住所"",""枝番号は半角"",""800"",""220"",""true"",""0.7""
""sname"",""施術所名,"""",""80"",""2700"",""true"",""0.7"""
62,"""hname"",""被保険者氏名"",""姓名の間は全角スペース"",""80"",""280"",""true"",""0.7""
""pname"",""受療者氏名"",""姓名の間は全角スペース"",""80"",""280"",""true"",""0.7""
""hzip"",""郵便番号（〒）"",""ハイフンなし"",""800"",""220"",""true"",""0.7""
""haddress"",""住所"",""枝番号は半角"",""800"",""220"",""true"",""0.7""
""sname"",""施術所名,"""",""80"",""2700"",""true"",""0.7"""
63,"""hname"",""被保険者氏名"",""姓名の間は全角スペース"",""80"",""280"",""true"",""0.7""
""pname"",""受療者氏名"",""姓名の間は全角スペース"",""80"",""280"",""true"",""0.7""
""hzip"",""郵便番号（〒）"",""ハイフンなし"",""800"",""220"",""true"",""0.7""
""haddress"",""住所"",""枝番号は半角"",""800"",""220"",""true"",""0.7""
""sname"",""施術所名,"""",""80"",""2700"",""true"",""0.7"""
64,"""hname"",""被保険者氏名"",""姓名の間は全角スペース"",""80"",""280"",""true"",""0.7""
""pname"",""受療者氏名"",""姓名の間は全角スペース"",""80"",""280"",""true"",""0.7""
""hzip"",""郵便番号（〒）"",""ハイフンなし"",""800"",""220"",""true"",""0.7""
""haddress"",""住所"",""枝番号は半角"",""800"",""220"",""true"",""0.7""
""sname"",""施術所名,"""",""80"",""2700"",""true"",""0.7""
""fvisittimes"",""往療回数"","""",""425"",""1200""
""paymentcode"",""支払先コード"",""半角数字（5桁）"",""800"",""0""
""birthday"",""生年月日"","""",""80"",""220"",""false""
""hnum"",""記号番号"",""ハイフンがある場合は入力"",""800"",""0"",""false""
""mediym"",""診療年月"","""",""0"",""0"",""false""
""counteddays"",""実日数"","""",""300"",""800"",""false""
""total"",""合計"","""",""800"",""1500"",""false""
""charge"",""請求金額"","""",""800"",""1500"",""false""
""partial"",""一部負担"","""",""800"",""1500"",""false""
""drname"",""柔整師名"",""姓名の間は全角スペース"",""80"",""2300"",""false""
""dates"",""診療日"",""スペースまたはドット(.)区切りですべての診療日を入力"",""80"",""1100""
"
65,"""hname"",""被保険者氏名"",""姓名の間は全角スペース"",""80"",""280"",""true"",""0.7""
""pname"",""受療者氏名"",""姓名の間は全角スペース"",""80"",""280"",""true"",""0.7""
""hzip"",""郵便番号（〒）"",""ハイフンなし"",""800"",""220"",""true"",""0.7""
""haddress"",""住所"",""枝番号は半角"",""800"",""220"",""true"",""0.7""
""sname"",""施術所名,"""",""80"",""2700"",""true"",""0.7"""
66,"""hname"",""被保険者氏名"",""姓名の間は全角スペース"",""80"",""280"",""true"",""0.7""
""pname"",""受療者氏名"",""姓名の間は全角スペース"",""80"",""280"",""true"",""0.7""
""hzip"",""郵便番号（〒）"",""ハイフンなし"",""800"",""220"",""true"",""0.7""
""haddress"",""住所"",""枝番号は半角"",""800"",""220"",""true"",""0.7""
""sname"",""施術所名,"""",""80"",""2700"",""true"",""0.7"""
67,"""hname"",""被保険者氏名"",""姓名の間は全角スペース"",""80"",""280"",""false"",""0.7""
""pname"",""受療者氏名"",""姓名の間は全角スペース"",""80"",""280"",""false"",""0.7""
""hzip"",""郵便番号（〒）"",""ハイフンなし"",""800"",""220"",""true"",""0.7""
""haddress"",""住所"",""枝番号は半角"",""800"",""220"",""true"",""0.7""
""sname"",""施術所名,"""",""80"",""2700"",""false"",""0.7"",""false""
""counteddays"",""実日数"","""",""300"",""800"",""false"""
68,"""mediym"",""診療年月"","""",""0"",""0"",""false"",""0.7""
""hnum"",""記号番号"",""ハイフンがある場合は入力"",""800"",""0"",""false"",""0.7""
""hname"",""被保険者名"",""姓名の間は全角スペース"",""80"",""280"",""true"",""0.7""
""pname"",""受療者名"",""姓名の間は全角スペース"",""80"",""280"",""true"",""0.7""
""hzip"",""郵便番号（〒）"",""ハイフンなし"",""800"",""220"",""true"",""0.7""
""haddress"",""住所"",""枝番号は半角"",""800"",""220"",""true"",""0.7""
""counteddays"",""実日数"","""",""300"",""500"",""false"",""0.7""
""total"",""合計"","""",""800"",""1100"",""false"",""0.7""
""charge"",""請求"","""",""800"",""1100"",""false"",""0.7""
""sname"",""施術所名"","""",""80"",""2300"",""true"",""0.8""
""drname"",""柔整師名"",""姓名の間は全角スペース"",""80"",""2300"",""true"",""0.8"""
69,"""hname"",""被保険者氏名"",""姓名の間は全角スペース"",""80"",""280"",""true"",""0.7""
""pname"",""受療者氏名"",""姓名の間は全角スペース"",""80"",""280"",""true"",""0.7""
""hzip"",""郵便番号（〒）"",""ハイフンなし"",""800"",""220"",""true"",""0.7""
""haddress"",""住所"",""枝番号は半角"",""800"",""220"",""true"",""0.7""
""sname"",""施術所名,"""",""80"",""2700"",""true"",""0.7"""
70,"""mediym"",""診療年月"","""",""0"",""0"",""false""
""hnum"",""記号番号"",""ハイフンがある場合は入力"",""80"",""280"",""true"",""0.7""
""hname"",""被保険者氏名"",""姓名の間は全角スペース"",""80"",""280"",""true"",""0.7""
""pname"",""受療者氏名"",""姓名の間は全角スペース"",""80"",""280"",""true"",""0.7""
""birthday"",""生年月日"","""",""80"",""220"",""false""
""hzip"",""郵便番号（〒）"",""ハイフンなし"",""800"",""220"",""true"",""0.7""
""haddress"",""住所"",""枝番号は半角"",""800"",""220"",""true"",""0.7""
""counteddays"",""実日数"","""",""300"",""800"",""false""
""total"",""合計"","""",""800"",""1500"",""false""
""charge"",""請求金額"","""",""800"",""1500"",""false""
""sname"",""施術所名,"""",""80"",""2700"",""true"",""0.7""
""paymentcode"",""支払先コード"",""半角数字（5桁）"",""800"",""0"""
71,"""hname"",""被保険者氏名"",""姓名の間は全角スペース"",""80"",""280"",""true"",""0.7""
""pname"",""受療者氏名"",""姓名の間は全角スペース"",""80"",""280"",""true"",""0.7""
""hzip"",""郵便番号（〒）"",""ハイフンなし"",""800"",""220"",""true"",""0.7""
""haddress"",""住所"",""枝番号は半角"",""800"",""220"",""true"",""0.7""
""sname"",""施術所名,"""",""80"",""2700"",""true"",""0.7"""
72,"""hname"",""被保険者氏名"",""姓名の間は全角スペース"",""80"",""280"",""true"",""0.7""
""pname"",""受療者氏名"",""姓名の間は全角スペース"",""80"",""280"",""true"",""0.7""
""hzip"",""郵便番号（〒）"",""ハイフンなし"",""800"",""220"",""true"",""0.7""
""haddress"",""住所"",""枝番号は半角"",""800"",""220"",""true"",""0.7""
""sname"",""施術所名,"""",""80"",""2700"",""true"",""0.7"""
73,"""hname"",""被保険者氏名"",""姓名の間は全角スペース"",""80"",""280"",""true"",""0.7""
""pname"",""受療者氏名"",""姓名の間は全角スペース"",""80"",""280"",""true"",""0.7""
""hzip"",""郵便番号（〒）"",""ハイフンなし"",""800"",""220"",""true"",""0.7""
""haddress"",""住所"",""枝番号は半角"",""800"",""220"",""true"",""0.7""
""sname"",""施術所名"","""",""80"",""2700"",""true"",""0.7""
""counteddays"",""実日数"","""",""300"",""800"",""false"""
74,"""hzip"",""郵便番号（〒）"",""ハイフンなし"",""800"",""2100"",""true"",""0.7""
""haddress"",""住所"",""枝番号は半角"",""800"",""2100"",""true"",""0.7"""
76,"""hname"",""被保険者名"",""姓名の間は全角スペース"",""80"",""280"",""false"",""0.7""
""pname"",""受療者名"",""姓名の間は全角スペース"",""80"",""280"",""false"",""0.7""
""birthday"",""受療者生年月日"","""",""80"",""220"",""false""
""sname"",""施術所名"","""",""80"",""2300"",""false""
""drname"",""柔整師名"",""姓名の間は全角スペース"",""80"",""2300"",""false""
""counteddays"",""実日数"","""",""300"",""800"",""false""
""hzip"",""郵便番号（〒）"",""ハイフンなし"",""800"",""220"",""0.7""
""haddress"",""住所"",""枝番号は半角"",""800"",""220"",""0.7"""
77,"""hnum"",""記号番号"",""ハイフンがある場合は入力"",""800"",""0"",""false"",""0.7""
""hname"",""被保険者名"",""姓名の間は全角スペース"",""80"",""280"",""true""
""pname"",""受療者名"",""姓名の間は全角スペース"",""80"",""280"",""true"",""0.7""
""sname"",""施術所名"","""",""80"",""2300""
""hzip"",""郵便番号（〒）"",""ハイフンなし"",""800"",""220"",""true"",""0.7""
""haddress"",""住所"",""枝番号は半角"",""800"",""220"",""true"",""0.7"""
78,"""hname"",""被保険者名"",""姓名の間は全角スペース"",""80"",""200"",""true"",""0.7""
""pname"",""受療者名"",""姓名の間は全角スペース"",""80"",""200"",""true"",""0.7""
""sname"",""施術所名"","""",""80"",""2300""
""dates"",""診療日"",""スペースまたはドット(.)区切りですべての診療日を入力"",""80"",""1100""
""hzip"",""郵便番号（〒）"",""ハイフンなし"",""800"",""220"",""true"",""0.7""
""haddress"",""住所"",""枝番号は半角"",""800"",""220"",""true"",""0.7"""
79,"""hname"",""被保険者氏名"",""姓名の間は全角スペース"",""80"",""280"",""true"",""0.7""
""pname"",""受療者氏名"",""姓名の間は全角スペース"",""80"",""280"",""true"",""0.7""
""hzip"",""郵便番号（〒）"",""ハイフンなし"",""800"",""220"",""true"",""0.7""
""haddress"",""住所"",""枝番号は半角"",""800"",""220"",""true"",""0.7""
""sname"",""施術所名,"""",""80"",""2700"",""true"",""0.7"""
80,"""mediym"",""診療年月"","""",""0"",""0"",""false""
""hnum"",""記号番号"",""ハイフンがある場合は入力"",""800"",""0"",""false""
""hname"",""被保険者氏名"",""姓名の間は全角スペース"",""80"",""280"",""true"",""0.7""
""pname"",""受療者氏名"",""姓名の間は全角スペース"",""80"",""280"",""true"",""0.7""
""hzip"",""郵便番号（〒）"",""ハイフンなし"",""800"",""220"",""true"",""0.7""
""haddress"",""住所"",""枝番号は半角"",""800"",""220"",""true"",""0.7""
""counteddays"",""実日数"","""",""300"",""800"",""false""
""sname"",""施術所名,"""",""80"",""2700"",""true"",""0.7"""
81,"""hname"",""被保険者氏名"",""姓名の間は全角スペース"",""80"",""280"",""true"",""0.7""
""pname"",""受療者氏名"",""姓名の間は全角スペース"",""80"",""280"",""true"",""0.7""
""hzip"",""郵便番号（〒）"",""ハイフンなし"",""800"",""220"",""true"",""0.7""
""haddress"",""住所"",""枝番号は半角"",""800"",""220"",""true"",""0.7""
""sname"",""施術所名,"""",""80"",""2700"",""true"",""0.7"""
83,"""mediym"",""診療年月"","""",""0"",""0"",""false""
""hnum"",""記号番号"",""ハイフンがある場合は入力"",""800"",""0"",""false""
""hname"",""被保険者氏名"",""姓名の間は全角スペース"",""80"",""280"",""true"",""0.7""
""pname"",""受療者氏名"",""姓名の間は全角スペース"",""80"",""280"",""true"",""0.7""
""hzip"",""郵便番号（〒）"",""ハイフンなし"",""800"",""220"",""true"",""0.7""
""haddress"",""住所"",""枝番号は半角"",""800"",""220"",""true"",""0.7""
""counteddays"",""実日数"","""",""300"",""800"",""false""
""sname"",""施術所名,"""",""80"",""2700"",""true"",""0.7"""
86,"""sname"",""施術所名,"""",""80"",""2700"",""true"",""0.7"""
89,"""hzip"",""郵便番号（〒）"",""ハイフンなし"",""800"",""220"",""true"",""0.7""
""haddress"",""住所"",""枝番号は半角"",""800"",""220"",""true"",""0.7"""
92,"""hname"",""被保険者氏名"",""姓名の間は全角スペース"",""80"",""280"",""true"",""0.7""
""pname"",""受療者氏名"",""姓名の間は全角スペース"",""80"",""280"",""true"",""0.7""
""hzip"",""郵便番号（〒）"",""ハイフンなし"",""800"",""220"",""true"",""0.7""
""haddress"",""住所"",""枝番号は半角"",""800"",""220"",""true"",""0.7""
""sname"",""施術所名,"""",""80"",""2700"",""true"",""0.7""
""drname"",""施術師名,"""",""80"",""2700"",""true"",""0.7"""
94,"""hzip"",""郵便番号（〒）"",""ハイフンなし"",""300"",""1800"",""true"",""0.4""
""haddress"",""住所"",""枝番号は半角"",""300"",""1800"",""true"",""0.4""

"
99,"
""hzip"",""郵便番号（〒）"",""ハイフンなし"",""800"",""220"",""true"",""0.7""
""haddress"",""住所"",""枝番号は半角"",""800"",""220"",""true"",""0.7""
"
100,"""hname"",""被保険者氏名"",""姓名の間は全角スペース"",""80"",""280"",""true"",""0.7""
""hzip"",""郵便番号（〒）"",""ハイフンなし"",""800"",""220"",""true"",""0.7""
""haddress"",""住所"",""枝番号は半角"",""800"",""220"",""true"",""0.7""
"
101,"""hzip"",""郵便番号（〒）"",""ハイフンなし"",""800"",""220"",""true"",""0.7""
""haddress"",""住所"",""枝番号は半角"",""800"",""220"",""true"",""0.7""
""hnum"",""記号番号"",""ハイフンがある場合は入力"",""800"",""0"",""false""
"
