ZvgS¤ÊL[,fÃN,L,Ô,t,{Ææª,«Ê,¶Nú,óÃÒ¼
12345678901234567890,50112,ÝÎ123A,789456,07,2,1,3210728,¼c@¼A
12345678901234567891,50112,Ý1A,234567,07,2,2,3240531,óû@êt
12345678901234567892,50112,ÝCA,345678,08,2,1,3481023,Ec@M·
12345678901234567893,50112,Ý1234A,5678,7,6,1,3231129,c@Mº
12345678901234567894,50112,Ý¼A,789456,07,2,1,3230514,LE@Gg
12345678901234567895,50112,áÑ127-,2345,8,2,1,3220915,S{@Tq
