10,MN,00000158,43102,1,01,1,43103,929169220,01143103929169220,1,0414315,,手稲溪仁会病院,
20,SA,1,1,1,,,06271779,２０００,１０３５８６,,,,,,,,,,,,清野　雅樹,1,3380915,,27,,,,,北海道札幌市手稲区前田１条１２丁目１−４０,手稲溪仁会病院,011-681-8111,,16,,,,,,
30,SD,060040XX99X00X,1541009,,,0203,直腸癌術後再発,C20,,,,,,,4310121,4310216,2
40,GK,64398,,,,,,64398,,,,,,,93000,,,,,,,,,,,,45,,,,,,28800,,,,,,28800,,,,,,20700,,,,,,550980,8100,100194
50,RC,b2b04d821fa89c12998b826ba274bc
10,MN,00000391,43102,1,03,1,43103,929011110,03143103929011110,1,0114137,,盛岡赤十字病院,
20,SA,1,1,1,,,06271779,２０００,１１３３６５,,,,,,,,,,,,小山内　裕治,1,3470630,,,,,,,岩手県盛岡市三本柳６地割１番地１,盛岡赤十字病院,019-637-3111,,1,,,,,,
30,SD,060100XX01XX0X,2113008,,,1113,大腸ポリープ,K635,,,,,,,4310130,4310201,2
40,GK,2843,,,,,,2843,,,,,,,,,,,,,,,,,,,1,,,,,,690,,,,,,690,,,,,,460,,,,,,19901,230,
50,RC,47655d4ac082c6f638921359f0d19f
10,MN,00000550,43102,1,04,1,43103,929029280,04143103929029280,1,8010021,,独立行政法人国立病院機構仙台医療センター,
20,SA,1,1,1,,,06271779,２０００,８１０２５０,,,,,,,,,,,,河本　真理子,2,3540127,,29,,,,,宮城県仙台市宮城野区宮城野２−８−８,独立行政法人国立病院機構仙台医療センター,022-293-1111,,18,,,,,,
30,SD,010040X099000X,4319013,,,0905,脳幹部出血,I613,,,,,,,4310211,,
40,GK,104156,,,,,,104156,,,,,,,57600,,,,,,,,,,,,49,,,,,,29930,,,,,,29930,,,,,,22540,,,,,,983960,7390,254868
50,RC,a435c8340e9a751b6250b928db13f1
10,MN,00001325,43102,1,09,1,43103,929052770,09143103929052770,1,5210181,,学）国際医療福祉大学国際医療福祉大学病院,
20,SA,1,2,5,,,06271779,２０００,１２４１００,,54096011,1290451,,,,,,,,,ワタナベ　マユミ,2,3491110,,27,,,,,栃木県那須塩原市井口５３７−３,学）国際医療福祉大学国際医療福祉大学病院,0287-37-2221,,7,7,,,,,
30,SD,010080XX99X001,3239013,,,0606,脊髄炎,G049,7109008,,,1310,混合性結合組織病,M351,4310222,,
40,GK,33268,33268,,,,,33268,33268,,,,,,,0,,,,,,,,,,,19,0,,,,,12510,0,,,,,12510,0,,,,,4940,0,,,,,232876,7570,
50,RC,b6a74470e37a8469a887554b98cdf3
10,MN,00001326,43102,1,09,1,43103,929053930,09143103929053930,1,5210181,,学）国際医療福祉大学国際医療福祉大学病院,
20,SA,1,1,1,,,06271779,２０００,２３３３４,,,,,,,,,,,,アベ　アキオ,1,3350103,,,,,,,栃木県那須塩原市井口５３７−３,学）国際医療福祉大学国際医療福祉大学病院,0287-37-2221,,7,,,,,,
30,SD,060210XX99000X,8835320,,,1113,術後イレウス,K913,,,,,,,4310209,4310215,2
40,GK,29484,,,,,,29484,,,,,,,,,,,,,,,,,,,13,,,,,,8570,,,,,,8570,,,,,,5980,,,,,,206388,2590,
50,RC,c166412b5d9089983dcd1b664a058b
10,MN,00001768,43010,2,11,1,43103,030037324,11143103030037324,1,0801563,,獨協医科大学埼玉医療センター,1
20,SA,1,1,1,,,06271779,２０００,１０１５２３,,,,,,,,,,,,,1,3430205,,,,,,,,獨協医科大学埼玉医療センター,,,4,,,,,,
30,SD,070380XX01XXXX,7274044,,,1310,左膝関節内ガングリオン,M674,,,,,,,4301003,4301006,2
40,GK,25737,,,,,,25737,,,,,,,,,,,,,,,,,,,6,,,,,,3990,,,,,,3990,,,,,,2760,,,,,,180159,1230,
50,RC,733a09e88856cafb26f9aa5ac17760
10,MN,00002202,43102,1,11,1,43103,929061290,11143103929061290,1,6507982,,さいたま赤十字病院,
20,SA,1,1,1,,,06271779,２０００,５０４４２,,,,,,,,,,,,楠木　謙二,1,3340728,,28,,,,,埼玉県さいたま市中央区新都心１−５,さいたま赤十字病院,048-852-1111,,6,,,,,,
30,SD,050070XX01X0XX,8846694,,,0903,持続性心房細動,I481,,,,,,,4310211,4310216,2
40,GK,169743,,,,,,169708,,,,,,,94401,,,,,,,,,,,,12,,,,,,8892,,,,,,8892,,,,,,5520,,,,,,1602679,3372,414723
50,RC,c5182934b384dcd1b2a18bc966185c
10,MN,00002203,43102,1,11,1,43103,929085920,11143103929085920,1,0801563,,獨協医科大学埼玉医療センター,
20,SA,1,2,5,,,06271779,２０００,１２４１８５,,81110223,0730846,,,,,,,,,大坪　新,1,4190621,,,,,,,埼玉県越谷市南越谷２−１−５０,獨協医科大学埼玉医療センター,048(965)1111,,1,1,,,,,
30,SD,100250XX99100X,8842944,,8002,0404,成長ホルモン分泌不全性低身長症の疑い,E230,,,,,,,4310129,4310201,9
40,GK,5113,5113,,,,,5113,5113,,,,,,,0,,,,,,,,,,,1,0,,,,,690,0,,,,,690,0,,,,,460,0,,,,,35791,230,
50,RC,7c00ed2545c67fa689ab78953f14ed
10,MN,00002204,43102,1,11,1,43103,929108260,11143103929108260,1,0205229,,川口市立医療センター,
20,SA,1,1,1,,,06271779,２０００,８０９１７７,,,,,,,,,,,,新保　直子,2,3361110,,29,,,,,埼玉県川口市大字西新井宿１８０,川口市立医療センター,048-287-2525,,5,,,,,,
30,SD,12002XXX99X40X,1820005,,8048,0207,子宮内膜癌の術後,C541,,,,,,,4310218,4310222,2
40,GK,27647,,,,,,27647,,,,,,,57600,,,,,,,,,,,,12,,,,,,7930,,,,,,7930,,,,,,5520,,,,,,218870,2410,25341
50,RC,5ebf5a247c500479b49b913f13e893
10,MN,00002205,43102,1,11,1,43103,929131570,11143103929131570,1,1302991,,埼玉県立がんセンター,
20,SA,1,1,5,,,06271779,２０００,２８０１２,,,,,,,,,,,,出口　寛人,1,4090224,,27,,,,,埼玉県北足立郡伊奈町大字小室７８０,埼玉県立がんセンター,048-722-1111,,4,,,,,,
30,SD,03001XXX01000X,8836443,,,0210,舌縁癌,C021,,,,,,,4310225,,
40,GK,52809,,,,,,52809,,,,,,,,,,,,,,,,,,,2,,,,,,1330,,,,,,1330,,,,,,920,,,,,,369663,410,
50,RC,9207822d56428ca785b51117b9056c
10,MN,00002206,43102,1,11,1,43103,929148390,11143103929148390,1,1600394,,医）社団愛友会　上尾中央総合病院,
20,SA,1,1,1,,,06271779,２０００,２５７７４,,,,,,,,,,,,岸本　昭二,1,3310829,,,,,,,埼玉県上尾市柏座１−１０−１０,医）社団愛友会　上尾中央総合病院,048-773-1111,,3,,,,,,
30,SD,050050XX99100X,4139026,,,0902,不安定狭心症,I200,,,,,,,4310219,4310221,9
40,GK,19078,,,,,,19078,,,,,,,,,,,,,,,,,,,5,,,,,,3730,,,,,,3730,,,,,,2300,,,,,,133546,1430,
50,RC,e267b94a88a1cb521bc72e8cd967d1
10,MN,00002207,43102,1,11,1,43103,929154830,11143103929154830,1,6500128,,さいたま市立病院,
20,SA,1,1,1,,,06271779,２０００,４８５８３,,,,,,,,,,,,渡辺　栄一,1,3350306,,28,,,,,埼玉県さいたま市緑区大字三室２４６０,さいたま市立病院,048(873)4111,,11,,,,,,
30,SD,060150XX02XXXX,5400001,,,1113,急性穿孔性虫垂炎,K353,,,,,,,4310205,4310215,2
40,GK,87022,,,,,,87022,,,,,,,86132,,,,,,,,,,,,10,,,,,,6400,,,,,,6400,,,,,,4600,,,,,,784088,1800,174934
50,RC,a728a4007b2d5f08eebfa26a196896
10,MN,00003455,43102,1,12,1,43103,929017970,12143103929017970,1,2815397,,医療法人社団　紺整会　船橋整形外科病院,
20,SA,1,1,5,,,06271779,２０００,３３０２３,,,,,,,,,,,,岡本　佳大,1,4100913,,,,,,,千葉県船橋市飯山満町　１−８３３,医療法人社団　紺整会　船橋整形外科病院,047-425-5585,,3,,,,,,
30,SD,160835XX01XXXX,8839225,2056,,1901,右腓骨遠位端骨折,S8240,,,,,,,4310220,4310222,2
40,GK,36078,,,,,,36078,,,,,,,,,,,,,,,,,,,3,,,,,,2070,,,,,,2070,,,,,,1380,,,,,,252546,690,
50,RC,f1eab4065d817be945d23fef1a289a
10,MN,00003456,43102,1,12,1,43103,929025830,12143103929025830,1,0112524,,千葉市立海浜病院,
20,SA,1,2,5,,,06271779,２０００,１２６０２９,,83123018,2158558,,,,,,,,,山崎　翔太,1,4240209,,,,,,,千葉県千葉市美浜区磯辺　３−３１−１,千葉市立海浜病院,043(277)7711,,1,1,,,,,
30,SD,030230XXXXXXXX,8842456,,,1011,アデノイド肥大,J352,,,,,,,4310127,4310201,2
40,GK,5300,5300,,,,,5300,5300,,,,,,,300,,,,,,,,,,,1,1,,,,,690,690,,,,,690,690,,,,,460,460,,,,,37100,230,
50,RC,3a586c10c9aafc86d77209148429e4
10,MN,00003457,43102,1,12,1,43103,929063490,12143103929063490,1,0610147,,独法）労働者健康安全機構千葉労災病院,
20,SA,1,1,5,,,06271779,２０００,１０８７９２,,,,,,,,,,,,井原　龍之介,1,4080106,,,,,,,千葉県市原市辰巳台東　２−１６,独法）労働者健康安全機構千葉労災病院,0436-74-1111,,5,,,,,,
30,SD,030350XXXXXXXX,4739014,2049,,1007,左慢性副鼻腔炎,J329,,,,,,,4310130,4310205,2
40,GK,16675,,,,,,16675,,,,,,,,,,,,,,,,,,,13,,,,,,8570,,,,,,8570,,,,,,5980,,,,,,116725,2590,
50,RC,472a2aa993ea91fcbf55fd74f749ce
10,MN,00003458,43102,1,12,1,43103,929089350,12143103929089350,1,0411736,,東京女子医科大学附属八千代医療センター,
20,SA,1,2,3,,,06271779,２０００,１３３６８３,,83123042,1670306,,,,,,,,,岡根　葵,2,4261224,,,,,,,千葉県八千代市大和田新田　４７７−９６,東京女子医科大学附属八千代医療センター,047-450-6000,,2,2,,,,,
30,SD,160300XX99X00X,8847083,,8002,1905,気管内異物による窒息の疑い,T174,,,,,,,4310211,4310212,2
40,GK,16393,16393,,,,,16393,16393,,,,,,,600,,,,,,,,,,,3,3,,,,,2020,2020,,,,,2020,2020,,,,,1380,1380,,,,,131144,640,
50,RC,9235e397f4fc7e19002b96332f03fd
10,MN,00003459,43102,1,12,1,43103,929118960,12143103929118960,1,2811214,,船橋市立医療センター,
20,SA,1,1,5,,,06271779,２０００,１１４５３５,,,,,,,,,,,,庄司　幸恵,2,3530816,,27,,,,,千葉県船橋市金杉　１−２１−１,船橋市立医療センター,047-438-3321,,2,,,,,,
30,SD,090010XX02X0XX,8838465,2049,,0206,左乳房下内側部乳癌,C503,,,,,,,4310227,,
40,GK,54374,,,,,,54374,,,,,,,,,,,,,,,,,,,3,,,,,,1920,,,,,,1920,,,,,,1380,,,,,,380618,540,
50,RC,958a335ea8a330f53a668d0b199729
10,MN,00005433,43102,1,13,1,43103,929105500,13143103929105500,1,0415067,,慶應義塾大学病院,
20,SA,1,1,1,,,06271779,２０００,３５５５２,,,,,,,,,,,,山口　澄夫,1,3410413,,,,,,,東京都新宿区信濃町３５,慶應義塾大学病院,03-3353-1211,,6,,,,,,
30,SD,010130XX99X0XX,3580006,,,0606,重症筋無力症,G700,,,,,,,4310223,,
40,GK,26483,,,,,,26483,,,,,,,,,,,,,,,,,,,17,,,,,,10880,,,,,,10880,,,,,,7820,,,,,,185381,3060,
50,RC,dd17b3bccff9b9857181cf8ecbf3ce
10,MN,00005434,43102,1,13,1,43103,929210900,13143103929210900,1,0870923,,公益財団法人　がん研究会　有明病院,
20,SA,1,1,1,,,06271779,２０００,５２６８３,,,,,,,,,,,,安原　正典,1,3360806,,27,,,,,東京都江東区有明３−８−３１,公益財団法人　がん研究会　有明病院,03-3520-0111,,10,,,,,,
30,SD,060350XX99X00X,5770019,,,1112,急性膵炎,K859,,,,,,,4310204,4310213,2
40,GK,66991,,,,,,66991,,,,,,,93000,,,,,,,,,,,,12,,,,,,7980,,,,,,7980,,,,,,5520,,,,,,576910,2460,107973
50,RC,58e7c5dbb2b087729303b4778bbcfc
10,MN,00005435,43102,1,13,1,43103,929363420,13143103929363420,1,8615312,,国立研究開発法人国立成育医療研究センター,
20,SA,1,2,3,,,06271779,２０００,１３９８１６,,88132071,6469399,,,,,,,,,勝野　杏菜,2,4300816,,,,,,,東京都世田谷区大蔵２−１０−１,国立研究開発法人国立成育医療研究センター,03-3416-0181,,5,5,,,,,
30,SD,020220XX97XXX0,8848375,2056,,1702,右早発型発達緑内障,Q150,,,,,,,4310124,4310205,1
40,GK,25859,25859,,,,,25859,25859,,,,,,,,,,,,,,,,,,13,0,,,,,8570,0,,,,,8570,0,,,,,5980,0,,,,,206872,2590,
50,RC,7185bb8da860258a107add76c08de9
10,MN,00005436,43102,1,13,1,43103,929459490,13143103929459490,1,4070850,,医療法人　徳洲会　東京西徳洲会病院,
20,SA,1,1,5,,,06271779,２０００,９６０４０４,,,,,,,,,,,,ナカジマ　トモコ,2,3551216,,,,,,,東京都昭島市松原町３−１−１,医療法人　徳洲会　東京西徳洲会病院,042-500-4433,,6,,,,,,
30,SD,130090XX97X0XX,8834694,,,0301,小球性低色素性貧血,D508,,,,,,,4310206,4310211,2
40,GK,35760,,,,,,35760,,,,,,,,,,,,,,,,,,,12,,,,,,8842,,,,,,8842,,,,,,5520,,,,,,250320,3322,
50,RC,c412df79b00af6e1101b68b1e969af
10,MN,00005437,43102,1,13,1,43103,929468740,13143103929468740,1,0970095,,ＮＴＴ東日本関東病院,
20,SA,1,1,1,,,06271779,２０００,１３０５６９,,,,,,,,,,,,大西　迪啓,1,3610206,,,,,,,東京都品川区東五反田５−９−２２,ＮＴＴ東日本関東病院,03(3448)6311,,9,,,,,,
30,SD,070350XX97XXXX,7221010,,,1304,腰椎椎間板ヘルニア,M512,,,,,,,4310201,4310209,2
40,GK,71646,,,,,,71646,,,,,,,,,,,,,,,,,,,17,,,,,,11280,,,,,,11280,,,,,,7820,,,,,,501522,3460,
50,RC,3b7a71f3a7e05128777f7cdd3b8eef
10,MN,00006860,43102,1,14,1,43103,929201220,14143103929201220,1,2208536,,医）徳洲会湘南藤沢徳洲会病院,
20,SA,1,1,5,,,06271779,２０００,１０４８３２,,,,,,,,,,,,エンジョウジ　サユリ,2,3321012,,28,,,,,神奈川県藤沢市辻堂神台１−５−１,医）徳洲会湘南藤沢徳洲会病院,0466-35-1177,,16,,,,,,
30,SD,070343XX01X0XX,7240012,,,1303,腰部脊柱管狭窄症,M4806,,,,,,,4310207,4310222,2
40,GK,221477,,,,,,221239,,,,,,,99554,,,,,,,,,,,,40,,,,,,29390,,,,,,29390,,,,,,18400,,,,,,2112836,10990,564163
50,RC,52656876d793dcdd1088143da84b4f
10,MN,00006861,43102,1,14,1,43103,929251880,14143103929251880,1,5200100,,日本医科大学武蔵小杉病院,
20,SA,1,1,1,,,06271779,２０００,２７４８７,,,,,,,,,,,,坂内　伸一,1,3360305,,,,,,,神奈川県川崎市中原区小杉町１−３９６,日本医科大学武蔵小杉病院,044-733-5181,,2,,,,,,
30,SD,170020XXXXXX0X,3050004,,,0502,急性アルコール中毒,F100,,,,,,,4310225,4310226,2
40,GK,12676,,,,,,12676,,,,,,,,,,,,,,,,,,,1,,,,,,640,,,,,,640,,,,,,460,,,,,,88732,180,
50,RC,6ba0f8accc06cdc9b45be025f15af4
10,MN,00007628,43102,1,21,1,43103,929042690,21143103929042690,1,0107790,,岐阜市民病院,
20,SA,1,1,1,,,06271779,２０００,１３５５５８,,,,,,,,,,,,國江　美樹,2,3480911,,,,,,,岐阜県岐阜市鹿島町７−１,岐阜市民病院,058-251-1101,,6,,,,,,
30,SD,120070XX02XXXX,8849002,2049,,0211,左卵巣漿液性腺腫,D27,,,,,,,4310219,4310224,2
40,GK,62456,,,,,,62456,,,,,,,,,,,,,,,,,,,11,,,,,,7290,,,,,,7290,,,,,,5060,,,,,,437192,2230,
50,RC,b64fd85b45e3583fb99962687fff13
10,MN,00007758,43102,1,22,1,43103,929005860,22143103929005860,1,4110039,,ＪＡ静岡厚生連静岡厚生病院,
20,SA,1,1,1,,,06271779,２０００,３６３０７,,,,,,,,,,,,池沢　智史,1,3370510,,,,,,,静岡県静岡市葵区北番町２３,ＪＡ静岡厚生連静岡厚生病院,(054)271-7177,,13,,,,,,
30,SD,080010XXXX0XXX,8837922,2056,,1201,右手蜂巣炎,L031,,,,,,,4310207,4310219,2
40,GK,40728,,,,,,40728,,,,,,,,,,,,,,,,,,,34,,,,,,22360,,,,,,22360,,,,,,15640,,,,,,285096,6720,
50,RC,4c67434430c85d64e9bd3c1cf22618
10,MN,00007759,43102,1,22,1,43103,929068180,22143103929068180,1,7110861,,福）聖隷福祉事業団　聖隷浜松病院,
20,SA,1,1,1,,,06271779,２０００,９６０２７７,,,,,,,,,,,,伊藤　浩樹,1,3450214,,,,,,,静岡県浜松市中区住吉２−１２−１２,福）聖隷福祉事業団　聖隷浜松病院,053-474-2222,,9,,,,,,
30,SD,06007XXX97X00X,1570002,,,0210,膵頭部癌,C250,,,,,,,4310213,4310219,2
40,SD,06007XXX010X0X,1570002,,,0210,膵頭部癌,C250,,,,,,,4310227,,
50,GK,58725,,,,,,58725,,,,,,,,,,,,,,,,,,,7,,,,,,4580,,,,,,4580,,,,,,3220,,,,,,411075,1360,
60,RC,3a1a47fbcd67e27e4cc93b1f73455c
10,MN,00008202,43102,1,23,1,43103,929136820,23143103929136820,1,1000893,,藤田医科大学ばんたね病院,
20,SA,1,1,1,,,06271779,２０００,４８６１６,,,,,,,,,,,,コバヤシ　ノブヨシ,1,3341022,,28,,,,,愛知県名古屋市中川区尾頭橋３−６−１０,藤田医科大学ばんたね病院,052-321-8171,,2,,,,,,
30,SD,050050XX99100X,4139004,,,0902,異型狭心症,I201,,,,,,,4310205,4310206,9
40,GK,15824,,,,,,15824,,,,,,,,,,,,,,,,,,,3,,,,,,2020,,,,,,2020,,,,,,1380,,,,,,110768,640,
50,RC,24f98b8f97374366d64c55b8b67295
10,MN,00008203,43102,1,23,1,43103,929166390,23143103929166390,1,2500198,,春日井市民病院,
20,SA,1,2,5,,,06271779,２０００,５２６６７,,54236013,2415024,,,,,,,,,原　謙友,1,4071016,,27,,,,,愛知県春日井市鷹来町１−１−１,春日井市民病院,0568-57-0057,,5,5,,,,,
30,SD,060180XX0102XX,8831033,,,1113,回腸クローン病,K500,,,,,,,4310117,4310205,2
40,GK,23901,23901,,,,,23811,23811,,,,,,,30000,,,,,,,,,,,10,0,,,,,6600,0,,,,,6600,0,,,,,2600,0,,,,,166677,4000,
50,RC,7787f6bd40a2f613a9f9dfd859f35c
10,MN,00008204,43102,1,23,1,43103,929171090,23143103929171090,1,2700061,,津島市民病院,
20,SA,1,1,1,,,06271779,２０００,１２３６３５,,,,,,,,,,,,東方　孝時,1,3540612,,,,,,,愛知県津島市橘町３−７３,津島市民病院,0567-28-5151,,1,,,,,,
30,SD,060160X001XXXX,8836802,2049,,1113,左鼡径ヘルニア,K409,,,,,,,4310228,,
40,GK,3980,,,,,,3980,,,,,,,,,,,,,,,,,,,1,,,,,,690,,,,,,690,,,,,,460,,,,,,27860,230,
50,RC,e188779ce560b51a099fd2f37dd123
10,MN,00012071,43102,1,24,1,43103,929004110,24143103929004110,1,0805507,,伊勢赤十字病院,
20,SA,1,1,5,,,06271779,２０００,１２８３２９,,,,,,,,,,,,草薙　奈美,2,3530706,,25,,,,,三重県伊勢市船江一丁目４７１番２,伊勢赤十字病院,0596-28-2171,,7,,,,,,
30,SD,120180XX01XXXX,6522001,,,1504,骨盤位,O321,,,,,,,4310117,4310207,1
40,GK,33239,,,,,,33239,,,,,,,,,,,,,,,,,,,19,,,,,,12510,,,,,,12510,,,,,,8740,,,,,,232673,3770,
50,RC,cecc019d834e4eb0790b4ba96a8047
10,MN,00012072,43102,1,24,1,43103,929008060,24143103929008060,1,0705053,,福）恩賜財団　済生会松阪総合病院,
20,SA,1,1,1,,,06271779,２０００,１０５００５,,,,,,,,,,,,藤木　裕,1,3390417,,28,,,,,三重県松阪市朝日町１区１５−６,福）恩賜財団　済生会松阪総合病院,0598-51-2626,,5,,,,,,
30,SD,060020XX04X0XX,1514002,4036,,0201,早期胃体部癌,C162,,,,,,,4310218,4310222,2
40,GK,40030,,,,,,40030,,,,,,,81433,,,,,,,,,,,,6,,,,,,4446,,,,,,4446,,,,,,2760,,,,,,318867,1686,38657
50,RC,800e3b1d99fa472eb437dc41961a9f
10,MN,00012073,43102,1,24,1,43103,929008410,24143103929008410,1,0705053,,福）恩賜財団　済生会松阪総合病院,
20,SA,1,1,1,,,06271779,２０００,１２２０１１,,,,,,,,,,,,高橋　昭雄,1,3470726,,27,,,,,三重県松阪市朝日町１区１５−６,福）恩賜財団　済生会松阪総合病院,0598-51-2626,,5,,,,,,
30,SD,060335XX02010X,8837139,,,1111,胆石性胆のう炎,K801,,,,,,,4310224,,
40,GK,58765,,,,,,58765,,,,,,,167697,,,,,,,,,,,,10,,,,,,6600,,,,,,6600,,,,,,4600,,,,,,419953,2000,8598
50,RC,ad4efb5ed06d727926f3f9c554a5dd
10,MN,00012074,43102,1,24,1,43103,929008420,24143103929008420,1,0705053,,福）恩賜財団　済生会松阪総合病院,
20,SA,1,1,1,,,06271779,２０００,９８０１５０,,,,,,,,,,,,瀧川　壮一郎,1,3450619,,,,,,,三重県松阪市朝日町１区１５−６,福）恩賜財団　済生会松阪総合病院,0598-51-2626,,9,,,,,,
30,SD,060150XX02XXXX,8831056,,,1113,回盲部周囲膿瘍,K353,,,,,,,4310127,4310209,2
40,GK,66307,,,,,,66307,,,,,,,,,,,,,,,,,,,10,,,,,,6600,,,,,,6600,,,,,,4600,,,,,,464149,2000,
50,RC,f549999df99705c7b086e81efa13c3
10,MN,00012075,43102,1,24,1,43103,929011140,24143103929011140,1,4000022,,国立大学法人三重大学医学部附属病院,
20,SA,1,2,5,,,06271779,２０００,１２５１５２,,52248010,0121616,,,,,,,,,廣田　万葉,2,4160708,,28,,,,,三重県津市江戸橋２−１７４,国立大学法人三重大学医学部附属病院,059-232-1111,,2,2,,,,,
30,SD,010010XX99030X,8846661,2056,,0210,右小脳上衣腫,C716,,,,,,,4310201,4310202,9
40,GK,101773,101773,,,,,101773,101773,,,,,,87607,10000,,,,,,,,,,,3,3,,,,,1920,1920,,,,,1920,1920,,,,,780,780,,,,,930123,1140,217712
50,RC,9f55f1044fa17d1c9045c4de2012b2
10,MN,00012076,43102,1,24,1,43103,929011430,24143103929011430,1,4000022,,国立大学法人三重大学医学部附属病院,
20,SA,1,2,3,,,06271779,２０００,１２３５６１,,52248010,0660795,,,,,,,,,ミズサキ　ヒリュウ,1,4261109,,33,,,,,三重県津市江戸橋２−１７４,国立大学法人三重大学医学部附属病院,059-232-1111,,21,21,,,,,
30,SD,070560XX99X00X,8848380,,,1310,高安動脈炎,M314,,,,,,,4310226,,
40,SV,1,4414002,,,0912,腹部大動脈瘤,,4300621,1
50,SV,2,8835586,,,0901,腎血管性高血圧症,,4300621,1
60,SV,3,8835628,2056,,0909,右腎動脈狭窄症,,4300621,1
70,SV,4,2768003,,,0404,低カリウム血症,,4300710,1
80,SV,5,8833421,,,0901,高血圧症,,4300713,1
90,SV,6,3621009,2057,,0704,両高血圧性眼底,,4300717,1
100,SV,7,8838261,,,0912,動脈血栓症,,4300802,1
110,SV,8,6918002,2022,,1202,全身アトピー性皮膚炎,,4300806,1
120,SV,9,8840042,,,1113,便秘症,,4300807,1
130,SV,10,8835614,,,0901,腎性高血圧症,,4300813,1
140,SV,11,8848380,,,1310,高安動脈炎,,4300820,1
150,SV,12,3650005,2057,,0704,両高眼圧症,,4300904,1
160,SV,13,8830417,,,1105,胃炎,,4300905,1
170,SV,14,7834008,1005,,1800,下肢成長障害,,4300907,1
180,SV,15,2724007,,,0403,高脂血症,,4300920,1
190,SV,16,8838414,,8076,0109,ニューモシスチス肺炎の予防,,4301107,1
200,SV,17,2692004,,,0404,ビタミン欠乏症,,4301205,1
210,SV,18,2754009,,,0404,低カルシウム血症,,4301205,1
220,SV,19,4289005,,,0903,急性心不全,,4301205,1
230,SV,20,3000010,,,0505,不安神経症,,4301205,1
240,SV,21,8839792,,,0606,不眠症,,4301205,1
250,SV,22,8830528,,8002,0606,一過性脊髄虚血の疑い,,4301207,1
260,SV,23,3441015,,,0604,対麻痺,,4301210,1
270,SV,24,8840255,,,0606,末梢神経障害,,4301211,1
280,SV,25,5990006,,,1404,膿尿,,4301220,1
290,SV,26,4900009,,,1008,気管支炎,,4310212,1
300,SV,27,4871001,,,1011,インフルエンザ,,4310217,1
310,GK,90569,90569,,,,,88769,88769,,,,,,44400,10000,,,,,,,,,,,34,34,,,,,21760,21760,,,,,21760,21760,,,,,8840,8840,,,,,843290,12920,133138
320,RC,a31f9cec48bd97338383161c71af2b
10,MN,00012077,43012,1,24,1,43103,929015870,24143103929015870,1,4000022,,国立大学法人三重大学医学部附属病院,
20,SA,1,1,5,,,06271779,２０００,１０４６９３,,,,,,,,,,,,金弦　直美,2,4151114,,27,,,,,三重県津市江戸橋２−１７４,国立大学法人三重大学医学部附属病院,059-232-1111,,13,,,,,,
30,SD,120010XX99X40X,1830005,2049,,0210,左卵巣癌,C56,,,,,,,4301125,4301203,2
40,SD,120010XX99X40X,1830005,2049,,0210,左卵巣癌,C56,,,,,,,4301216,4301224,2
50,SD,120010XX99X40X,1830005,2049,,0210,左卵巣癌,C56,,,,,,,4301231,4301231,2
60,GK,51658,,,,,,51658,,,,,,,,,,,,,,,,,,,23,,,,,,14720,,,,,,14720,,,,,,10580,,,,,,361606,4140,
70,RC,c8d22cb5c4d71f810c742423d3e311
10,MN,00012078,43102,1,24,1,43103,929015880,24143103929015880,1,4000022,,国立大学法人三重大学医学部附属病院,
20,SA,1,1,5,,,06271779,２０００,１０４６９３,,,,,,,,,,,,金弦　直美,2,4151114,,,,,,,三重県津市江戸橋２−１７４,国立大学法人三重大学医学部附属病院,059-232-1111,,2,,,,,,
30,SD,120010XX99X40X,1830005,2049,,0210,左卵巣癌,C56,,,,,,,4310127,4310202,2
40,GK,6780,,,,,,6780,,,,,,,,,,,,,,,,,,,4,,,,,,2560,,,,,,2560,,,,,,1840,,,,,,47460,720,
50,RC,a9828b407915f4acee7226af672182
10,MN,00012079,43102,1,24,1,43103,929020860,24143103929020860,1,4000030,,国病機構　三重中央医療センター,
20,SA,1,1,3,,,06271779,２０００,１１３９８９,,,,,,,,,,,,吉島　雅樹,1,4310207,,,,,,,三重県津市久居明神町２１５８−５,国病機構　三重中央医療センター,059-259-1211,,11,,,,,,
30,SD,140010X199X00X,7634002,,,1602,帝切児症候群,P034,,,,,,,4310207,4310217,2
40,GK,73145,,,,,,73145,,,,,,,,,,,,,,,,,,,15,,,,,,9950,,,,,,9950,,,,,,6900,,,,,,585160,3050,
50,RC,67f3f28d5168241cd7812771156681
10,MN,00012080,43102,1,24,1,43103,929023410,24143103929023410,1,0705111,,松阪中央総合病院,
20,SA,1,1,3,,,06271779,２０００,１２５００１,,,,,,,,,,,,楠谷　奏羽,2,4301202,,,,,,,三重県松阪市川井町字小望１０２,松阪中央総合病院,0598-21-5252,,7,,,,,,
30,SD,030240XX99XXXX,8832342,,,1003,急性喉頭炎,J040,,,,,,,4310207,4310213,1
40,GK,32346,,,,,,32346,,,,,,,,,,,,,,,,,,,0,,,,,,0,,,,,,0,,,,,,0,,,,,,258768,,
50,RC,7e320ae8af9ceca6644b8483eb59ea
10,MN,00012081,43102,1,24,1,43103,929023420,24143103929023420,1,0705111,,松阪中央総合病院,
20,SA,1,1,3,,,06271779,２０００,１２１８８８,,,,,,,,,,,,中嶋　涼稀,1,4310105,,,,,,,三重県松阪市川井町字小望１０２,松阪中央総合病院,0598-21-5252,,4,,,,,,
30,SD,040070XXXXX0XX,8842080,,,1011,インフルエンザＡ型,J101,,,,,,,4310205,4310208,1
40,GK,20804,,,,,,20804,,,,,,,,,,,,,,,,,,,0,,,,,,0,,,,,,0,,,,,,0,,,,,,166432,,
50,RC,1cdf94b0e8160940711f7165293796
10,MN,00012082,43102,1,24,1,43103,929023880,24143103929023880,1,0705111,,松阪中央総合病院,
20,SA,1,1,5,,,06271779,２０００,１０８５０３,,,,,,,,,,,,森　由佳,2,3481002,,28,,,,,三重県松阪市川井町字小望１０２,松阪中央総合病院,0598-21-5252,,4,,,,,,
30,SD,090010XX02X0XX,8838475,2049,,0206,左乳房上外側部乳癌,C504,,,,,,,4310130,4310204,2
40,GK,14138,,,,,,14138,,,,,,,,,,,,,,,,,,,10,,,,,,6600,,,,,,6600,,,,,,4600,,,,,,98966,2000,
50,RC,54fbfaf3f27a359b63a80ba0564899
10,MN,00012083,43102,1,24,1,43103,929024900,24143103929024900,1,0705111,,松阪中央総合病院,
20,SA,1,1,1,,,06271779,２０００,１３９３４５,,,,,,,,,,,,石井　一樹,1,4051025,,,,,,,三重県松阪市川井町字小望１０２,松阪中央総合病院,0598-21-5252,,8,,,,,,
30,SD,110280XX991X0X,5829003,,,1401,慢性糸球体腎炎,N039,,,,,,,4310205,4310212,9
40,GK,32097,,,,,,32097,,,,,,,,,,,,,,,,,,,21,,,,,,13840,,,,,,13840,,,,,,9660,,,,,,224679,4180,
50,RC,e3b7d3ec8d5ecd3f174631f844b8ed
10,MN,00012084,43102,1,24,1,43103,929028990,24143103929028990,1,0305052,,鈴鹿中央総合病院,
20,SA,1,1,5,,,06271779,２０００,１２１３８８,,,,,,,,,,,,中西　來夢,1,4130416,,,,,,,三重県鈴鹿市安塚町山之花１２７５−５３,鈴鹿中央総合病院,059-382-1311,,4,,,,,,
30,SD,060150XX99XX0X,5409005,,,1113,急性虫垂炎,K358,,,,,,,4310219,4310222,2
40,GK,17607,,,,,,17607,,,,,,,,,,,,,,,,,,,3,,,,,,2020,,,,,,2020,,,,,,1380,,,,,,123249,640,
50,RC,14c69630440c0d89b3b1480f066018
10,MN,00012085,43102,1,24,1,43103,929033020,24143103929033020,1,0305177,,鈴鹿回生病院,
20,SA,1,1,5,,,06271779,２０００,１２２３１６,,,,,,,,,,,,コバヤシ　ナオ,2,4161113,,,,,,,三重県鈴鹿市国府町字保子里１１２−１,鈴鹿回生病院,059-375-1212,,6,,,,,,
30,SD,070085XX97XXXX,7270086,2056,,1310,右膝関節滑膜炎,M6596,,,,,,,4310207,4310212,2
40,GK,45872,,,,,,45872,,,,,,,,,,,,,,,,,,,13,,,,,,8570,,,,,,8570,,,,,,5980,,,,,,321104,2590,
50,RC,7c2516c92b2fbc4e540ed2c49258e1
10,MN,00012086,43102,1,24,1,43103,929033260,24143103929033260,1,0305177,,鈴鹿回生病院,
20,SA,1,1,1,,,06271779,２０００,１１６３７２,,,,,,,,,,,,ミズカミ　タクヤ,1,3490309,,28,,,,,三重県鈴鹿市国府町字保子里１１２−１,鈴鹿回生病院,059-375-1212,,17,,,,,,
30,SD,160690XX01XX0X,8844926,,,1901,腰椎椎体骨折,S3200,,,,,,,4310212,,
40,GK,193167,,,,,,191347,,,,,,,96565,,,,,,,,,,,,46,,,,,,30240,,,,,,30240,,,,,,21160,,,,,,1816905,9080,477476
50,RC,caf140a9cbed7708a7e03813ee6711
10,MN,00012087,43102,1,24,1,43103,929036280,24143103929036280,1,1205244,,伊賀市立上野総合市民病院,
20,SA,1,1,1,,,06271779,２０００,３４１５１,,,,,,,,,,,,大塚　健二,1,3400515,,,,,,,三重県伊賀市四十九町８３１,伊賀市立上野総合市民病院,0595-24-1111,,3,,,,,,
30,SD,060100XX01XX0X,2113008,,,1113,大腸ポリープ,K635,,,,,,,4310219,4310221,2
40,GK,26651,,,,,,26651,,,,,,,,,,,,,,,,,,,2,,,,,,1280,,,,,,1280,,,,,,920,,,,,,186557,360,
50,RC,7fea43acacf2037e2e257ca91f4b1d
10,MN,00012088,43102,1,24,1,43103,929039010,24143103929039010,1,0215632,,三重県立総合医療センター,
20,SA,1,1,3,,,06271779,２０００,１２６８４７,,,,,,,,,,,,春岡　心寧,2,4271223,,,,,,,三重県四日市市大字日永５４５０番地１３２,三重県立総合医療センター,059-345-2321,,5,,,,,,
30,SD,040070XXXXX0XX,8847904,,,1004,ヒトメタニューモウイルス肺炎,J123,,,,,,,4310207,4310211,2
40,GK,28101,,,,,,28101,,,,,,,,,,,,,,,,,,,10,,,,,,6400,,,,,,6400,,,,,,4600,,,,,,224808,1800,
50,RC,c882dd8314f652543b756727ee86e6
10,MN,00012089,43102,1,24,1,43103,929041570,24143103929041570,1,0505115,,医療法人永井病院,
20,SA,1,1,1,,,06271779,２０００,１２２１０４,,,,,,,,,,,,井上　雅之,1,3470215,,,,,,,三重県津市西丸之内２９−２９,医療法人永井病院,059-228-5181,,2,,,,,,
30,SD,030250XX991XXX,7805017,,,0606,睡眠時無呼吸症候群,G473,,,,,,,4310213,4310214,9
40,GK,9520,,,,,,9520,,,,,,,,,,,,,,,,,,,2,,,,,,1380,,,,,,1380,,,,,,920,,,,,,66640,460,
50,RC,f6bab84cae2516a55d12c67c20004d
10,MN,00015901,43102,1,26,1,43103,929026460,26143103929026460,1,9700012,,京都第二赤十字病院,
20,SA,1,1,5,,,06271779,２０００,１０９６４７,,,,,,,,,,,,高橋　陽斗,1,4230223,,,,,,,京都府京都市上京区釜座通丸太町上ル春帯町３５５−５,京都第二赤十字病院,075-231-5171,,2,,,,,,
30,SD,010230XX99X00X,8847543,,,0603,乳児重症ミオクロニーてんかん,G404,,,,,,,4310210,4310211,2
40,GK,15361,,,,,,15361,,,,,,,,,,,,,,,,,,,2,,,,,,1330,,,,,,1330,,,,,,920,,,,,,107527,410,
50,RC,95a56daca5a73a0e7bdddf35913f8f
10,MN,00015902,43102,1,26,1,43103,929054500,26143103929054500,1,9600154,,京都山城総合医療センター,
20,SA,1,1,5,,,06271779,２０００,１１０７６０,,,,,,,,,,,,林　百代,2,3450806,,28,,,,,京都府木津川市木津駅前１丁目２７番地,京都山城総合医療センター,0774-72-0235,,21,,,,,,
30,SD,010200XX99X00X,3314006,,,0606,水頭症,G919,,,,,,,4310125,4310221,2
40,GK,58852,,,,,,58852,,,,,,,83315,,,,,,,,,,,,60,,,,,,39400,,,,,,39400,,,,,,27600,,,,,,505205,11800,93241
50,RC,ccb04cbccb318414d1573575c711b4
10,MN,00015903,43102,1,26,1,43103,929055760,26143103929055760,1,9600154,,京都山城総合医療センター,
20,SA,1,1,5,,,06271779,２０００,１２３２６７,,,,,,,,,,,,平山　道子,2,3480204,,27,,,,,京都府木津川市木津駅前１丁目２７番地,京都山城総合医療センター,0774-72-0235,,1,,,,,,
30,SD,120060XX01XXXX,2189012,,,0211,子宮粘膜下筋腫,D250,,,,,,,4310228,,
40,GK,3874,,,,,,3874,,,,,,,,,,,,,,,,,,,2,,,,,,1330,,,,,,1330,,,,,,920,,,,,,27118,410,
50,RC,11d450314a3ed4c98d8388bd751ea4
10,MN,00015904,43102,1,26,1,43103,929055770,26143103929055770,1,9600154,,京都山城総合医療センター,
20,SA,1,1,5,,,06271779,１００,２８４０８,,,,,,,,,,,,稲田　智子,2,3330625,,,,,,,京都府木津川市木津駅前１丁目２７番地,京都山城総合医療センター,0774-72-0235,,2,,,,,,
30,SD,120120XX99XXXX,6269004,,,1800,性器出血,N836,,,,,,,4310226,4310227,2
40,GK,10557,,,,,,10557,,,,,,,,,,,,,,,,,,,1,,,,,,690,,,,,,690,,,,,,460,,,,,,73899,230,
50,RC,0317713252a125c97218949b90d88c
10,MN,00015905,43102,1,26,1,43103,929058130,26143103929058130,1,4101075,,医療法人社団洛和会　洛和会音羽病院,
20,SA,1,1,1,,,06271779,２０００,１１６００４,,,,,,,,,,,,近藤　隆広,1,3490227,,,,,,,京都府京都市山科区音羽珍事町２,医療法人社団洛和会　洛和会音羽病院,075-593-4111,,3,,,,,,
30,SD,070020XXXX0XXX,2159016,2022,,0211,全身神経線維腫,D361,,,,,,,4310225,4310227,2
40,GK,35475,,,,,,35475,,,,,,,,,,,,,,,,,,,3,,,,,,2070,,,,,,2070,,,,,,1380,,,,,,248325,690,
50,RC,d95bf2c558cdd34c7c9ecce7cc56ea
10,MN,00015906,43102,1,26,1,43103,929070760,26143103929070760,1,9600311,,京都市立病院,
20,SA,1,1,5,,,06271779,２０００,９６０１０７,,,,,,,,,,,,藤田　博子,2,3341106,,,,,,,京都府京都市中京区壬生東高田町１番地の２,京都市立病院,075-311-5311,,4,,,,,,
30,SD,060100XX01XX0X,8842657,,,0211,Ｓ状結腸腺腫,D125,,,,,,,4310220,4310223,1
40,GK,32979,,,,,,32976,,,,,,,,,,,,,,,,,,,4,,,,,,2710,,,,,,2710,,,,,,1840,,,,,,230832,870,
50,RC,6768fd6d766833be9e3bc95945922c
10,MN,00016496,43012,2,27,1,43103,050061248,27143103050061248,1,1700753,,日本赤十字社大阪赤十字病院,1
20,SA,1,1,1,,,06271779,２０００,２４３３５,,,,,,,,,,,,,1,3340126,,28,,,,,,日本赤十字社大阪赤十字病院,,,1,,,,,,
30,SD,130040XX99X5XX,2030003,,,0210,多発性骨髄腫,C900,,,,,,,4301120,4301201,2
40,GK,7628,,,,,,7628,,,,,,,,,,,,,,,,,,,1,,,,,,690,,,,,,690,,,,,,460,,,,,,53396,230,
50,RC,d2214c232945526f3d9321eb829a57
10,MN,00016497,43010,2,27,1,43103,050077632,27143103050077632,1,0502879,,地独）大阪府立病院機構大阪母子医療センタ,1
20,SA,1,1,1,,,06271779,２０００,１３８１９７,,,,,,,,,,,,,2,4100227,,29,,,,,,地独）大阪府立病院機構大阪母子医療センタ,,,6,,,,,,
30,SD,070570XX012XXX,8839216,,,1203,左上眼瞼肥厚性瘢痕,L910,,,,,,,4301004,4301009,2
40,GK,61434,,,,,,61434,,,,,,,57600,,,,,,,,,,,,13,,,,,,8620,,,,,,8620,,,,,,5980,,,,,,556740,2640,126702
50,RC,1988004444e129ded2b23100252a14
10,MN,00021603,43102,1,27,1,43103,929001300,27143103929001300,1,4902034,,医療法人宝生会　ＰＬ病院,
20,SA,1,1,1,,,06271779,２０００,１１０７８７,,,,,,,,,,,,スズキ　タカシ,1,3441010,,,,,,,大阪府富田林市大字新堂２２０４,医療法人宝生会　ＰＬ病院,0721-24-3100,,4,,,,,,
30,SD,0400801299X010,4829003,,,1004,細菌性肺炎,J159,8833935,,,1011,細菌性胸膜炎,J90,4310225,,
40,GK,21602,,,,,,19202,,,,,,,,,,,,,,,,,,,10,,,,,,6600,,,,,,6600,,,,,,4600,,,,,,134414,2000,
50,RC,cbd893ef2dffa659731e78616d5d63
10,MN,00021604,43102,1,27,1,43103,929005410,27143103929005410,1,0900503,,学）大阪医科薬科大学大阪医科大学附属病院,
20,SA,1,1,5,,,06271779,２０００,３３６２７,,,,,,,,,,,,正田　薫,2,3420904,,,,,,,大阪府高槻市大学町２−７,学）大阪医科薬科大学大阪医科大学附属病院,072-683-1221,,2,,,,,,
30,SD,060360XX99X0XX,8835705,,,1112,膵のう胞,K862,,,,,,,4310220,4310221,9
40,GK,15712,,,,,,15712,,,,,,,,,,,,,,,,,,,2,,,,,,1280,,,,,,1280,,,,,,920,,,,,,109984,360,
50,RC,b3eca3fa861e6b4fc4206b6a2c3e6a
10,MN,00021605,43012,1,27,1,43103,929017610,27143103929017610,1,5013377,,医療法人竹村医学研究会（財団）小阪産病院,
20,SA,1,2,3,,,06271779,２０００,１３０６３９,,86270287,4063236,,,,,,,,,関　櫻軒,1,4301230,,,,,,,大阪府東大阪市菱屋西３−６−８,医療法人竹村医学研究会（財団）小阪産病院,06-6722-4771,,2,2,,,,,
30,SD,140010X199X00X,7706001,,,1602,新生児一過性多呼吸,P221,,,,,,,4301230,,
40,GK,7027,7027,,,,,7027,7027,,,,,,,1000,,,,,,,,,,,5,5,,,,,3300,3300,,,,,3300,3300,,,,,2300,2300,,,,,56216,1000,
50,RC,affce2dd6900e0640abee304071764
10,MN,00021606,43101,1,27,1,43103,929017620,27143103929017620,1,5013377,,医療法人竹村医学研究会（財団）小阪産病院,
20,SA,1,2,3,,,06271779,２０００,１３０６３９,,86270287,4063236,,,,,,,,,関　櫻軒,1,4301230,,,,,,,大阪府東大阪市菱屋西３−６−８,医療法人竹村医学研究会（財団）小阪産病院,06-6722-4771,,1,1,,,,,
30,SD,140010X199X00X,7706001,,,1602,新生児一過性多呼吸,P221,,,,,,,4301230,4310101,9
40,GK,2990,2990,,,,,2990,2990,,,,,,,500,,,,,,,,,,,3,3,,,,,1970,1970,,,,,1970,1970,,,,,1380,1380,,,,,23920,590,
50,RC,2ec7e7b9c79848ae63d73f97855900
10,MN,00021607,43102,1,27,1,43103,929017980,27143103929017980,1,9900025,,独）国立病院機構大阪南医療センター,
20,SA,1,1,1,,,06271779,２０００,２８２８６,,,,,,,,,,,,北山　道裕,1,3340206,,,,,,,大阪府河内長野市木戸東町２−１,独）国立病院機構大阪南医療センター,0721-53-5761,,2,,,,,,
30,SD,060100XX01XX0X,8830143,,,1113,Ｓ状結腸ポリープ,K635,,,,,,,4310219,4310220,2
40,GK,15207,,,,,,14948,,,,,,,,,,,,,,,,,,,3,,,,,,2020,,,,,,2020,,,,,,1380,,,,,,104636,640,
50,RC,706611ca7a7ae1568a23aac1b05919
10,MN,00021608,43102,1,27,1,43103,929024920,27143103929024920,1,9900223,,国立研究開発法人国立循環器病研究センター,
20,SA,1,2,5,,,06271779,２０００,１３８４１８,,54276019,0709451,,,,,,,,,西本　玲子,2,3521103,,28,,,,,大阪府吹田市藤白台５−７−１,国立研究開発法人国立循環器病研究センター,06-6833-5012,,5,5,,,,,
30,SD,010070XX9912XX,4375003,,,0908,成人もやもや病,I675,,,,,,,4310212,4310216,9
40,GK,42171,42171,,,,,42171,42171,,,,,,81647,30000,,,,,,,,,,,11,0,,,,,7876,0,,,,,7876,0,,,,,2860,0,,,,,340063,5016,44866
50,RC,e824f489b7aec57541a9a4242936dc
10,MN,00021609,43102,1,27,1,43103,929029330,27143103929029330,1,9801686,,八尾市立病院,
20,SA,1,2,3,,,06271779,２０００,１２８０７５,,86270139,3047552,,,,,,,,,中川　由梨,2,4241010,,,,,,,大阪府八尾市龍華町１−３−１,八尾市立病院,072-922-0881,,5,5,,,,,
30,SD,080010XXXX0XXX,8844164,,,1201,頬部蜂巣炎,L032,,,,,,,4310205,4310209,1
40,GK,31181,31181,,,,,31181,31181,,,,,,,1000,,,,,,,,,,,11,0,,,,,7290,0,,,,,7290,0,,,,,5060,0,,,,,249448,2230,
50,RC,5c243ab513e9e166ff9555259bb70a
10,MN,00021610,43102,1,27,1,43103,929029780,27143103929029780,1,9801686,,八尾市立病院,
20,SA,1,1,1,,,06271779,２０００,１１３４６８,,,,,,,,,,,,櫻井　之一,1,3471229,,,,,,,大阪府八尾市龍華町１−３−１,八尾市立病院,072-922-0881,,6,,,,,,
30,SD,060335XX99X00X,8832408,,,1111,急性胆のう炎,K810,,,,,,,4310218,4310223,2
40,GK,24996,,,,,,24996,,,,,,,,,,,,,,,,,,,6,,,,,,3990,,,,,,3990,,,,,,2760,,,,,,174972,1230,
50,RC,61ec26360ae0888fe38b4fcf9a2fb1
10,MN,00021611,43102,1,27,1,43103,929031460,27143103929031460,1,9801686,,八尾市立病院,
20,SA,1,1,5,,,06271779,２０００,７４４２４,,,,,,,,,,,,白石　優太,1,4090724,,28,,,,,大阪府八尾市龍華町１−３−１,八尾市立病院,072-922-0881,,8,,,,,,
30,SD,030230XXXXXXXX,4740010,,,1011,慢性扁桃炎,J350,,,,,,,4310220,4310227,2
40,GK,38612,,,,,,38612,,,,,,,81291,,,,,,,,,,,,18,,,,,,11920,,,,,,11920,,,,,,8280,,,,,,304829,3640,34545
50,RC,7ee896235e3ebf417fe167872086db
10,MN,00021612,43102,1,27,1,43103,929044060,27143103929044060,1,4102734,,社会医療法人行岡医学研究会行岡病院,
20,SA,1,1,5,,,06271779,２０００,１０４５４６,,,,,,,,,,,,梶原　未帆,2,4091216,,,,,,,大阪府大阪市北区浮田２−２−３,社会医療法人行岡医学研究会行岡病院,06-6371-9921,,15,,,,,,
30,SD,160620XX01XXXX,8442010,20491042,,1905,左膝前十字靱帯損傷,S835,,,,,,,4310214,,
40,GK,116960,,,,,,116960,,,,,,,,,,,,,,,,,,,40,,,,,,25600,,,,,,25600,,,,,,18400,,,,,,818720,7200,
50,RC,997f3670575cb4bd9528823ad472b9
10,MN,00021613,43102,1,27,1,43103,929054730,27143103929054730,1,2406970,,学）関西医科大学関西医科大学附属病院,
20,SA,1,1,1,,,06271779,２０００,２６６２４,,,,,,,,,,,,中西　大平,1,3310803,,29,,,,,大阪府枚方市新町２−３−１,学）関西医科大学関西医科大学附属病院,072-804-0101,,7,,,,,,
30,SD,160100XX0111XX,8843288,,,1902,急性硬膜下血腫・頭蓋内開放創なし,S0650,,,,,,,4310222,,
40,GK,258993,,,,,,258993,,,,,,,57600,,,,,,,,,,,,8,,,,,,4600,,,,,,4600,,,,,,3680,,,,,,2532330,920,719379
50,RC,668ec6392e6a1a21df99acdc953a6c
10,MN,00021614,43102,1,27,1,43103,929067050,27143103929067050,1,2006622,,大阪急性期・総合医療センター,
20,SA,1,2,3,,,06271779,２０００,９８０３９９,,86274230,0475640,,,,,,,,,新出　剛大,1,4250220,,,,,,,大阪府大阪市住吉区万代東３−１−５６,大阪急性期・総合医療センター,06-6692-1201,,1,1,,,,,
30,SD,100393XX99XXXX,2762007,,8002,0404,代謝性アシドーシスの疑い,E872,,,,,,,4310130,4310201,2
40,GK,6701,6701,,,,,6701,6701,,,,,,,500,,,,,,,,,,,1,0,,,,,690,0,,,,,690,0,,,,,460,0,,,,,53608,230,
50,RC,f145737f304da2e7f9d74569bbe423
10,MN,00021615,43102,1,27,1,43103,929067760,27143103929067760,1,2006622,,大阪急性期・総合医療センター,
20,SA,1,2,5,,,06271779,２０００,３０９４７,,54277017,2524957,,,,,,,,,杉本　美可,2,3500128,,28,,,,,大阪府大阪市住吉区万代東３−１−５６,大阪急性期・総合医療センター,06-6692-1201,,1,1,,,,,
30,SD,060210XX97000X,5602004,,,1113,小腸軸捻転症,K562,,,,,,,4310228,,
40,GK,44335,44335,,,,,44335,44335,,,,,,81864,30000,,,,,,,,,,,0,0,,,,,0,0,,,,,0,0,,,,,0,0,,,,,361486,,51141
50,RC,4913ffbc53b83404a025ba0882c376
10,MN,00021616,43102,1,27,1,43103,929068670,27143103929068670,1,2006622,,大阪急性期・総合医療センター,
20,SA,1,2,1,,,06271779,２０００,８９５０２,,80274251,0012682,,,,,,,,,宮本　洋子,2,3310906,,,,,,,大阪府大阪市住吉区万代東３−１−５６,大阪急性期・総合医療センター,06-6692-1201,,8,8,,,,,
30,SD,110310XX01XX0X,5901002,2056,,1401,右急性腎盂腎炎,N10,,,,,,,4310213,4310220,2
40,GK,46645,46645,,,,,46645,46645,,,,,,,3000,,,,,,,,,,,20,20,,,,,14416,14416,,,,,14416,14416,,,,,9200,9200,,,,,384355,5216,57840
50,RC,a5d2b4b20db7690420a21253c7e8e9
10,MN,00021617,43102,1,27,1,43103,929077090,27143103929077090,1,9900249,,大）大阪大学大阪大学医学部附属病院,
20,SA,1,3,3,,,06271779,２０００,９８０４１９,,16276099,0180364,86270063,1392059,,,,,,,山田　航暉,1,4301211,,,,,,,大阪府吹田市山田丘２−１５,大）大阪大学大阪大学医学部附属病院,06-6879-5111,,4,4,4,,,,
30,SD,140430XX01X1XX,7511006,,,1702,小腸閉鎖,Q419b,,,,,,,4301211,4310204,2
40,GK,7350,7350,7350,,,,7350,7350,7350,,,,,,7350,1000,,,,,,,,,,0,0,0,,,,0,0,0,,,,0,0,0,,,,0,0,0,,,,58800,,
50,RC,ae660cd6f8acf5f27f840243d827c7
10,MN,00021618,43101,1,27,1,43103,929077100,27143103929077100,1,9900249,,大）大阪大学大阪大学医学部附属病院,
20,SA,1,3,3,,,06271779,２０００,９８０４１９,,16276099,0180364,86270063,1392059,,,,,,,山田　航暉,1,4301211,,,,,,,大阪府吹田市山田丘２−１５,大）大阪大学大阪大学医学部附属病院,06-6879-5111,,31,31,31,,,,
30,SD,140430XX01X1XX,7511006,,,1702,小腸閉鎖,Q419b,,,,,,,4301211,,
40,GK,243551,243551,243551,,,,243551,243551,243551,,,,,,10000,1000,,,,,,,,,,75,0,0,,,,49400,0,0,,,,49400,0,0,,,,34500,0,0,,,,2333725,14900,385317
50,RC,378abbe4ecd502d6ad13427968e25a
10,MN,00021619,43102,1,27,1,43103,929094610,27143103929094610,1,0502879,,地独）大阪府立病院機構大阪母子医療センタ,
20,SA,1,2,3,,,06271779,２０００,１２１８１２,,86275062,7444649,,,,,,,,,吉田　咲良,2,4281216,,,,,,,大阪府和泉市室堂町８４０,地独）大阪府立病院機構大阪母子医療センタ,0725-56-1220,,3,3,,,,,
30,SD,150070X0XX1XXX,4461004,,,1310,川崎病性冠動脈瘤,M303,,,,,,,4310131,4310203,9
40,GK,36111,36111,,,,,36111,36111,,,,,,,1000,,,,,,,,,,,6,6,,,,,3840,3840,,,,,3840,3840,,,,,2760,2760,,,,,288888,1080,
50,RC,a5339ea211112c2acf9f7f261408ad
10,MN,00021620,43102,1,27,1,43103,929096020,27143103929096020,1,0502879,,地独）大阪府立病院機構大阪母子医療センタ,
20,SA,1,2,3,,,06271779,２０００,１３８７８２,,86275054,7456353,,,,,,,,,水野　心葵,2,4310202,,,,,,,大阪府和泉市室堂町８４０,地独）大阪府立病院機構大阪母子医療センタ,0725-56-1220,,6,6,,,,,
30,SD,140010X199X00X,7661002,,,1601,胎児発育過度,P081,,,,,,,4310202,4310207,2
40,GK,23759,23759,,,,,23759,23759,,,,,,,1000,,,,,,,,,,,8,8,,,,,5120,5120,,,,,5120,5120,,,,,3680,3680,,,,,190072,1440,
50,RC,99ac321c79d9fa85daf5e88c9eb1f5
10,MN,00021621,43102,1,27,1,43103,929111820,27143103929111820,1,9600021,,地域医療機構大阪病院,
20,SA,1,2,3,,,06271779,２０００,１３１７８６,,86274032,0450569,,,,,,,,,篠田　康喜,1,4310213,,,,,,,大阪府大阪市福島区福島４−２−７８,地域医療機構大阪病院,06-6441-5451,,8,8,,,,,
30,SD,140010X199X00X,7661001,,,1601,巨大児,P081,,,,,,,4310213,4310220,2
40,GK,23594,23594,,,,,23594,23594,,,,,,,1000,,,,,,,,,,,0,0,,,,,0,0,,,,,0,0,,,,,0,0,,,,,188752,,
50,RC,5e3e8b5d911ede0747f2cc146d7eb4
10,MN,00021622,43102,1,27,1,43103,929118850,27143103929118850,1,1803201,,社会医療法人きつこう会多根総合病院,
20,SA,1,1,1,,,06271779,１００,２８４９７,,,,,,,,,,,,リュウジン　シゲオ,1,3340123,,28,,,,,大阪府大阪市西区九条南１−１２−２１,社会医療法人きつこう会多根総合病院,06-6581-1071,,2,,,,,,
30,SD,060330XX02XXXX,8837169,,,1111,胆のう結石症,K802,,,,,,,4310129,4310202,2
40,GK,5741,,,,,,5741,,,,,,,,,,,,,,,,,,,4,,,,,,2560,,,,,,2560,,,,,,1840,,,,,,40187,720,
50,RC,d701a7233ed53c62b92ca2d663abff
10,MN,00021623,43102,1,27,1,43103,929123220,27143103929123220,1,9600039,,地域医療機構星ヶ丘医療センター,
20,SA,1,2,5,,,06271779,２０００,２９６５４,,54276019,2495893,,,,,,,,,長尾　清美,2,3370526,,27,,,,,大阪府枚方市星丘４−８−１,地域医療機構星ヶ丘医療センター,072-840-2641,,28,28,,,,,
30,SD,060185XX99X1XX,8845766,,,1113,活動期潰瘍性大腸炎,K519,,,,,,,4310121,,
40,GK,89813,89813,,,,,89813,89813,,,,,,170801,20000,,,,,,,,,,,40,0,,,,,28124,0,,,,,28124,0,,,,,10400,0,,,,,727329,17724,98638
50,RC,8ef69c691154c9952998a44f3c4428
10,MN,00021624,43102,1,27,1,43103,929125770,27143103929125770,1,0201381,,関西電力病院,
20,SA,1,1,1,,,06271779,２０００,１０２１４０,,,,,,,,,,,,太田　俊正,1,3391208,,,,,,,大阪府大阪市福島区福島２−１−７,関西電力病院,06-6458-5821,,4,,,,,,
30,SD,100070XX99X010,8841691,,,0402,２型糖尿病・腎合併症あり,E112,8843992,,,0402,２型糖尿病性腎症第２期,N083,4310124,4310204,9
40,GK,12251,,,,,,12251,,,,,,,,,,,,,,,,,,,10,,,,,,7360,,,,,,7360,,,,,,4600,,,,,,85757,2760,
50,RC,ad39d580d8d73e3a06adcfb026ad9d
10,MN,00021625,43102,1,27,1,43103,929154730,27143103929154730,1,0118403,,医療法人いずみ会　阪堺病院,
20,SA,1,1,1,,,06271779,２０００,１１７８１１,,,,,,,,,,,,森本　一弘,1,3440317,,,,,,,大阪府堺市堺区大浜北町１−８−８,医療法人いずみ会　阪堺病院,072-233-6745,,6,,,,,,
30,SD,160850XX01XX0X,8842193,2056,,1901,右足関節外果骨折,S8260,,,,,,,4310207,4310212,2
40,GK,44093,,,,,,44093,,,,,,,,,,,,,,,,,,,13,,,,,,8320,,,,,,8320,,,,,,5980,,,,,,308651,2340,
50,RC,4aab1131757f76bbb03e93a83f54ac
10,MN,00021626,43102,1,27,1,43103,929162000,27143103929162000,1,4107774,,公益財団法人田附興風会医学研究所北野病院,
20,SA,1,2,3,,,06271779,２０００,１３７５９２,,86274057,0345496,,,,,,,,,高橋　咲良,2,4300423,,,,,,,大阪府大阪市北区扇町２−４−２０,公益財団法人田附興風会医学研究所北野病院,06-6312-1221,,7,7,,,,,
30,SD,040070XXXXX0XX,8830136,,,1004,ＲＳウイルス肺炎,J121,,,,,,,4310212,4310218,2
40,GK,45071,45071,,,,,45071,45071,,,,,,,1000,,,,,,,,,,,10,0,,,,,6650,0,,,,,6650,0,,,,,4600,0,,,,,368773,2050,8205
50,RC,afee0f4936a69e43078c4418915fe1
10,MN,00021627,43102,1,27,1,43103,929174840,27143103929174840,1,5506396,,医療法人徳洲会八尾徳洲会総合病院,
20,SA,1,1,5,,,06271779,２０００,３５０２７,,,,,,,,,,,,ハナタテ　ミユキ,2,3440823,,,,,,,大阪府八尾市若草町１−１７,医療法人徳洲会八尾徳洲会総合病院,072-993-8501,,2,,,,,,
30,SD,060210XX97000X,5602003,,,1113,絞扼性イレウス,K562,,,,,,,4310227,,
40,GK,69162,,,,,,68841,,,,,,,,,,,,,,,,,,,0,,,,,,0,,,,,,0,,,,,,0,,,,,,481887,,
50,RC,b2476c7f22c4ceb42adefae27beedd
10,MN,00021628,43102,1,27,1,43103,929175910,27143103929175910,1,5506396,,医療法人徳洲会八尾徳洲会総合病院,
20,SA,1,1,1,,,06271779,２０００,１１７４３１,,,,,,,,,,,,ヤマグチ　ヒトシ,1,3430622,,27,,,,,大阪府八尾市若草町１−１７,医療法人徳洲会八尾徳洲会総合病院,072-993-8501,,17,,,,,,
30,SD,010040X099000X,4319030,2049,,0905,左被殻出血,I610,,,,,,,4310212,,
40,GK,98721,,,,,,95121,,,,,,,171332,,,,,,,,,,,,42,,,,,,27858,,,,,,27858,,,,,,19320,,,,,,779878,8538,114031
50,RC,ddc0d8e2179c759b21583fc08e6767
10,MN,00021629,43102,1,27,1,43103,929179710,27143103929179710,1,1705000,,医療法人警和会大阪警察病院,
20,SA,1,1,1,,,06271779,２０００,３０９１８,,,,,,,,,,,,二井　靖,1,3400207,,28,,,,,大阪府大阪市天王寺区北山町１０−３１,医療法人警和会大阪警察病院,06-6771-6051,,6,,,,,,
30,SD,160610XX01XXXX,8831344,2056,,1905,右肩腱板断裂,S460,,,,,,,4310119,4310206,2
40,GK,15927,,,,,,15927,,,,,,,,,,,,,,,,,,,16,,,,,,10240,,,,,,10240,,,,,,7360,,,,,,111489,2880,
50,RC,4ba78f8931255cdebc99f6c2f13f88
10,MN,00021630,43102,1,27,1,43103,929181680,27143103929181680,1,1705000,,医療法人警和会大阪警察病院,
20,SA,1,1,5,,,06271779,２０００,１３４５７５,,,,,,,,,,,,山本　彩加,2,3610225,,25,,,,,大阪府大阪市天王寺区北山町１０−３１,医療法人警和会大阪警察病院,06-6771-6051,,1,,,,,,
30,SD,120260XX99XXXX,6612004,,,1504,微弱陣痛,O622,,,,,,,4310224,4310224,9
40,GK,4274,,,,,,4274,,,,,,,,,,,,,,,,,,,0,,,,,,0,,,,,,0,,,,,,0,,,,,,29918,,
50,RC,e902cfa9290e123f6766625136c368
10,MN,00021631,43102,1,27,1,43103,929184820,27143103929184820,1,1700753,,日本赤十字社大阪赤十字病院,
20,SA,1,1,1,,,06271779,１００,２３５２８,,,,,,,,,,,,前田　修一,1,3330107,,29,,,,,大阪府大阪市天王寺区筆ケ崎町５−３０,日本赤十字社大阪赤十字病院,(06)6774-5111,,8,,,,,,
30,SD,040110XXXXX0XX,5168009,,,1011,特発性間質性肺炎,J841,,,,,,,4301231,4310208,2
40,GK,29819,,,,,,29819,,,,,,,44400,,,,,,,,,,,,23,,,,,,15120,,,,,,15120,,,,,,10580,,,,,,253790,4540,45057
50,RC,d2607208e1741040959e63e0eeb3ed
10,MN,00021632,43102,1,27,1,43103,929191450,27143103929191450,1,1700753,,日本赤十字社大阪赤十字病院,
20,SA,1,1,5,,,06271779,２０００,２６９７７,,,,,,,,,,,,民長　幸子,2,3311210,,,,,,,大阪府大阪市天王寺区筆ケ崎町５−３０,日本赤十字社大阪赤十字病院,(06)6774-5111,,3,,,,,,
30,SD,020110XX97XXX0,8841287,2049,,0702,左皮質性加齢性白内障,H250,,,,,,,4310213,4310215,2
40,GK,21893,,,,,,21893,,,,,,,,,,,,,,,,,,,7,,,,,,4630,,,,,,4630,,,,,,3220,,,,,,153251,1410,
50,RC,fc1c1f267c973365b7a0042d3d1f09
10,MN,00021633,43102,1,27,1,43103,929198450,27143103929198450,1,4107485,,健康保険組合連合会　大阪中央病院,
20,SA,1,1,5,,,06271779,２０００,１２５１１１,,,,,,,,,,,,白市　章子,2,3530424,,28,,,,,大阪府大阪市北区梅田３−３−３０,健康保険組合連合会　大阪中央病院,06-4795-5505,,4,,,,,,
30,SD,060241XX97XXXX,8837431,,,1106,脱出性内痔核,K641,,,,,,,4310218,4310221,2
40,GK,17077,,,,,,17077,,,,,,,,,,,,,,,,,,,7,,,,,,4680,,,,,,4680,,,,,,3220,,,,,,119539,1460,
50,RC,4257380adee4f50a1201580d9e5282
10,MN,00021634,43102,1,27,1,43103,929222550,27143103929222550,1,3802094,,大阪はびきの医療センター,
20,SA,1,1,5,,,06271779,２０００,１０２５１９,,,,,,,,,,,,吉田　美保,2,3411230,,28,,,,,大阪府羽曳野市はびきの３−７−１,大阪はびきの医療センター,072-957-2121,,3,,,,,,
30,SD,060100XX01XX0X,2113008,,,1113,大腸ポリープ,K635,,,,,,,4310218,4310220,9
40,GK,16754,,,,,,16754,,,,,,,,,,,,,,,,,,,4,,,,,,2710,,,,,,2710,,,,,,1840,,,,,,117278,870,
50,RC,fc9136040730575e43bd5be23590e0
10,MN,00021635,43102,1,27,1,43103,929223050,27143103929223050,1,3802094,,大阪はびきの医療センター,
20,SA,1,1,5,,,06271779,２０００,１１１５４５,,,,,,,,,,,,大久保　優希,1,4190123,,,,,,,大阪府羽曳野市はびきの３−７−１,大阪はびきの医療センター,072-957-2121,,1,,,,,,
30,SD,080270XXXX0XXX,9953021,,,1905,食物アレルギー,T781,,,,,,,4310205,4310205,9
40,GK,8389,,,,,,8389,,,,,,,,,,,,,,,,,,,1,,,,,,690,,,,,,690,,,,,,460,,,,,,58723,230,
50,RC,a1492fa1aff55fd5cad49cfc3f051d
10,MN,00021636,43012,1,27,1,43103,929223680,27143103929223680,1,3802094,,大阪はびきの医療センター,
20,SA,1,2,3,,,06271779,２０００,１３２５２４,,86270238,3536026,,,,,,,,,森下　薫乃,2,4301206,,,,,,,大阪府羽曳野市はびきの３−７−１,大阪はびきの医療センター,072-957-2121,,6,6,,,,,
30,SD,140010X199X00X,7706001,,,1602,新生児一過性多呼吸,P221,,,,,,,4301206,4301211,2
40,GK,47967,47967,,,,,47967,47967,,,,,,,1000,,,,,,,,,,,13,13,,,,,8370,8370,,,,,8370,8370,,,,,5980,5980,,,,,397443,2390,13707
50,RC,d5f4a61c332f4908e3683cf51922b8
10,MN,00021637,43102,1,27,1,43103,929245830,27143103929245830,1,1607149,,社福）恩賜財団　大阪府済生会千里病院,
20,SA,1,1,1,,,06271779,２０００,１０４９１５,,,,,,,,,,,,上平　靖,1,3400408,,,,,,,大阪府吹田市津雲台１−１−６,社福）恩賜財団　大阪府済生会千里病院,06(6871)0121,,3,,,,,,
30,SD,030240XX99XXXX,4639021,,,1002,急性扁桃炎,J039,,,,,,,4310208,4310210,2
40,GK,13472,,,,,,13472,,,,,,,,,,,,,,,,,,,5,,,,,,3350,,,,,,3350,,,,,,2300,,,,,,94304,1050,
50,RC,6872b62b8b3ba727882bffef3ffa74
10,MN,00021638,43102,1,27,1,43103,929268620,27143103929268620,1,6000662,,社会医療法人清恵会清恵会病院,
20,SA,1,1,1,,,06271779,２０００,１２７８１８,,,,,,,,,,,,江角　真一,1,3510215,,,,,,,大阪府堺市堺区南安井町１−１−１,社会医療法人清恵会清恵会病院,072-223-8199,,6,,,,,,
30,SD,060130XX99000X,5781002,,,1113,下部消化管出血,K922,,,,,,,4310202,4310207,2
40,GK,23833,,,,,,23833,,,,,,,,,,,,,,,,,,,8,,,,,,5120,,,,,,5120,,,,,,3680,,,,,,166831,1440,
50,RC,7318cf22e0a9f2700619c7c7368c4d
10,MN,00021639,43102,1,27,1,43103,929268630,27143103929268630,1,6000662,,社会医療法人清恵会清恵会病院,
20,SA,1,1,1,,,06271779,２０００,１３２１９８,,,,,,,,,,,,主藤　敬之,1,3570324,,,,,,,大阪府堺市堺区南安井町１−１−１,社会医療法人清恵会清恵会病院,072-223-8199,,5,,,,,,
30,SD,060102XX99XXXX,8845814,,,1113,大腸憩室出血,K573,,,,,,,4310131,4310205,2
40,GK,18981,,,,,,18981,,,,,,,,,,,,,,,,,,,10,,,,,,6704,,,,,,6704,,,,,,4600,,,,,,132867,2104,
50,RC,d2f546d925b98d4708999e83f2c19a
10,MN,00021640,43102,1,27,1,43103,929269620,27143103929269620,1,6000662,,社会医療法人清恵会清恵会病院,
20,SA,1,2,3,,,06271779,２０００,１２６６７９,,86275062,7332612,,,,,,,,,南部　陽磨,1,4290802,,,,,,,大阪府堺市堺区南安井町１−１−１,社会医療法人清恵会清恵会病院,072-223-8199,,2,2,,,,,
30,SD,150070X1XX01XX,4461003,,,1310,川崎病,M303,,,,,,,4310125,4310202,2
40,GK,6159,6159,,,,,6159,6159,,,,,,,1000,,,,,,,,,,,4,4,,,,,2560,2560,,,,,2560,2560,,,,,1840,1840,,,,,49272,720,
50,RC,8edad70966c1495ce27ac155e6248c
10,MN,00021641,43102,1,27,1,43103,929270190,27143103929270190,1,6000662,,社会医療法人清恵会清恵会病院,
20,SA,1,1,1,,,06271779,２０００,１２０６０６,,,,,,,,,,,,松井　健二,1,3511221,,,,,,,大阪府堺市堺区南安井町１−１−１,社会医療法人清恵会清恵会病院,072-223-8199,,5,,,,,,
30,SD,160720XX01XXXX,8835505,2056,,1901,右上腕骨近位端骨折,S4220,,,,,,,4310211,4310215,2
40,GK,60554,,,,,,60554,,,,,,,,,,,,,,,,,,,9,,,,,,5760,,,,,,5760,,,,,,4140,,,,,,423878,1620,
50,RC,07a4c2eba2346d8f1787acec942232
10,MN,00021642,43102,1,27,1,43103,929286020,27143103929286020,1,1608444,,医療法人沖縄徳洲会吹田徳洲会病院,
20,SA,1,1,5,,,06271779,２０００,１１１９２８,,,,,,,,,,,,ノグチ　ケイコ,2,3431009,,,,,,,大阪府吹田市千里丘西２１−１,医療法人沖縄徳洲会吹田徳洲会病院,06-6878-1110,,2,,,,,,
30,SD,110420XX02XX0X,8844575,2049,,1401,左尿管狭窄を伴う水腎症,N131,,,,,,,4310215,4310216,2
40,GK,12396,,,,,,12396,,,,,,,,,,,,,,,,,,,2,,,,,,1380,,,,,,1380,,,,,,920,,,,,,86772,460,
50,RC,46c9ada49876f0760e7f99810c9a60
10,MN,00021643,43102,1,27,1,43103,929302760,27143103929302760,1,5204364,,大阪市立総合医療センター,
20,SA,1,1,5,,,06271779,２０００,１１６１７７,,,,,,,,,,,,岡　海斗,1,4151125,,27,,,,,大阪府大阪市都島区都島本通２−１３−２２,大阪市立総合医療センター,06(6929)1221,,18,,,,,,
30,SD,010070XX01X20X,8838298,2056,,0908,右内頚動脈狭窄症,I652,,,,,,,4310205,4310222,2
40,GK,247193,,,,,,247091,,,,,,,186529,,,,,,,,,,,,47,,,,,,30880,,,,,,30880,,,,,,21620,,,,,,2284381,9260,554744
50,RC,4e0931248fd773e93958370830c2db
10,MN,00021644,43102,1,27,1,43103,929311560,27143103929311560,1,2306360,,大阪市立大学医学部附属病院,
20,SA,1,1,1,,,06271779,２０００,１１９９４９,,,,,,,,,,,,近藤　孝,1,3450708,,27,,,,,大阪府大阪市阿倍野区旭町１−５−７,大阪市立大学医学部附属病院,TEL 6645-2862,,3,,,,,,
30,SD,050080XX99000X,8836699,,,0903,僧帽弁閉鎖不全症,I340,,,,,,,4310220,4310222,4
40,GK,13737,,,,,,13737,,,,,,,,,,,,,,,,,,,6,,,,,,4220,,,,,,4220,,,,,,2760,,,,,,96159,1460,
50,RC,d0447cbf2cff75591ca8f2dece030d
10,MN,00021645,43102,1,27,1,43103,929314540,27143103929314540,1,2306360,,大阪市立大学医学部附属病院,
20,SA,1,1,1,,,06271779,２０００,１０２５７８,,,,,,,,,,,,田中　一範,1,3400611,,,,,,,大阪府大阪市阿倍野区旭町１−５−７,大阪市立大学医学部附属病院,TEL 6645-2862,,4,,,,,,
30,SD,100180XX990X0X,2551005,,8002,0404,原発性アルドステロン症の疑い,E260,,,,,,,4310225,,
40,GK,21069,,,,,,21069,,,,,,,,,,,,,,,,,,,10,,,,,,7360,,,,,,7360,,,,,,4600,,,,,,147483,2760,
50,RC,e525f0a6e0c1d3872d76e5a3f60af6
10,MN,00021646,43102,1,27,1,43103,929319630,27143103929319630,1,6300583,,堺市立総合医療センター,
20,SA,1,1,1,,,06271779,２０００,９６８０５,,,,,,,,,,,,城田　啓子,2,3330926,,,,,,,大阪府堺市西区家原寺町１−１−１,堺市立総合医療センター,072-272-1199,,18,,,,,,
30,SD,060035XX99X1XX,1532002,,,0202,下行結腸癌,C186,,,,,,,4310107,4310218,2
40,GK,57126,,,,,,56909,,,,,,,,,,,,,,,,,,,52,,,,,,34180,,,,,,34180,,,,,,23920,,,,,,398363,10260,
50,RC,c1dbeb185ac7545ed5c94e58644145
10,MN,00021647,43102,1,27,1,43103,929323440,27143103929323440,1,0103462,,独法）労働者健康安全機構大阪労災病院,
20,SA,1,1,1,,,06271779,２０００,３６０７３,,,,,,,,,,,,平松　達敏,1,3361126,,,,,,,大阪府堺市北区長曾根町１１７９−３,独法）労働者健康安全機構大阪労災病院,072-252-3561,,3,,,,,,
30,SD,050050XX02000X,8841212,,,0902,労作性狭心症,I208,,,,,,,4310211,4310213,2
40,GK,80078,,,,,,80078,,,,,,,,,,,,,,,,,,,5,,,,,,3580,,,,,,3580,,,,,,2300,,,,,,560546,1280,
50,RC,f867693ddd6c2982f5550a05116928
10,MN,00021648,43102,1,27,1,43103,929324190,27143103929324190,1,0103462,,独法）労働者健康安全機構大阪労災病院,
20,SA,1,2,3,,,06271779,２０００,１２２４０３,,86275039,7170715,,,,,,,,,細川　珂琳,2,4271019,,,,,,,大阪府堺市北区長曾根町１１７９−３,独法）労働者健康安全機構大阪労災病院,072-252-3561,,5,5,,,,,
30,SD,080010XXXX0XXX,8844293,2056,,1201,右大腿部蜂巣炎,L031,,,,,,,4310224,,
40,GK,25948,25948,,,,,25948,25948,,,,,,,1000,,,,,,,,,,,13,13,,,,,8320,8320,,,,,8320,8320,,,,,5980,5980,,,,,207584,2340,
50,RC,c214417f3468c8ff11d1be52a678e2
10,MN,00021649,43102,1,27,1,43103,929324200,27143103929324200,1,0103462,,独法）労働者健康安全機構大阪労災病院,
20,SA,1,2,3,,,06271779,２０００,１３０９６３,,86275062,7323504,,,,,,,,,藤田　碧彩,2,4290627,,,,,,,大阪府堺市北区長曾根町１１７９−３,独法）労働者健康安全機構大阪労災病院,072-252-3561,,4,4,,,,,
30,SD,150040XXXXX0XX,7803016,,,1800,熱性痙攣,R560,,,,,,,4310206,4310209,2
40,GK,17414,17414,,,,,17414,17414,,,,,,,1000,,,,,,,,,,,7,7,,,,,4480,4480,,,,,4480,4480,,,,,3220,3220,,,,,139312,1260,
50,RC,a75a7e241ead82542200cafdae31dc
10,MN,00021650,43102,1,27,1,43103,929325710,27143103929325710,1,0103462,,独法）労働者健康安全機構大阪労災病院,
20,SA,1,1,1,,,06271779,２０００,１０３７３５,,,,,,,,,,,,中園　芳之,1,3361222,,28,,,,,大阪府堺市北区長曾根町１１７９−３,独法）労働者健康安全機構大阪労災病院,072-252-3561,,18,,,,,,
30,SD,050080XX01010X,8836699,,,0903,僧帽弁閉鎖不全症,I340,,,,,,,4310204,4310221,2
40,GK,529429,,,,,,504858,,,,,,,127916,,,,,,,,,,,,46,,,,,,33586,,,,,,33586,,,,,,21160,,,,,,4920664,12426,1386658
50,RC,3c6a41234ef9489c9a48abc632effc
10,MN,00026600,43102,1,28,1,43103,929059600,28143103929059600,1,9800026,,兵庫県立西宮病院,
20,SA,1,1,1,,,06271779,２０００,３２４３１,,,,,,,,,,,,齊藤　賢二,1,3390919,,27,,,,,兵庫県西宮市六湛寺町１３−９,兵庫県立西宮病院,0798-34-5151,,3,,,,,,
30,SD,110310XX99XX0X,5901002,,,1401,急性腎盂腎炎,N10,,,,,,,4310126,4310203,2
40,GK,9165,,,,,,9165,,,,,,,,,,,,,,,,,,,7,,,,,,5162,,,,,,5162,,,,,,3220,,,,,,64155,1942,
50,RC,5a4c904daeee4e416e5454acf0ea65
10,MN,00026601,43101,1,28,1,43103,929107220,28143103929107220,1,0103867,,一般財団法人甲南会六甲アイランド甲南病院,
20,SA,1,1,3,,,06271779,２０００,１３４３６２,,,,,,,,,,,,石田　隼士,1,4310128,,,,,,,兵庫県神戸市東灘区向洋町中２丁目１１番地,一般財団法人甲南会六甲アイランド甲南病院,078-858-1111,,4,,,,,,
30,SD,140010X199X00X,8844000,,,1602,Ｂ群溶連菌感染母体より出生した児,P002,,,,,,,4310128,,
40,GK,12773,,,,,,12773,,,,,,,,,,,,,,,,,,,4,,,,,,2560,,,,,,2560,,,,,,1840,,,,,,102184,720,
50,RC,5aadabe7ebc1a258db784b5031e913
10,MN,00026602,43102,1,28,1,43103,929107230,28143103929107230,1,0103867,,一般財団法人甲南会六甲アイランド甲南病院,
20,SA,1,1,3,,,06271779,２０００,１３４３６２,,,,,,,,,,,,石田　隼士,1,4310128,,,,,,,兵庫県神戸市東灘区向洋町中２丁目１１番地,一般財団法人甲南会六甲アイランド甲南病院,078-858-1111,,2,,,,,,
30,SD,140010X199X00X,8844000,,,1602,Ｂ群溶連菌感染母体より出生した児,P002,,,,,,,4310128,4310202,2
40,GK,5021,,,,,,5021,,,,,,,,,,,,,,,,,,,0,,,,,,0,,,,,,0,,,,,,0,,,,,,40168,,
50,RC,98520fda5576ade6cfd41b60539d74
10,MN,00026603,43102,1,28,1,43103,929107240,28143103929107240,1,0103867,,一般財団法人甲南会六甲アイランド甲南病院,
20,SA,1,1,3,,,06271779,２０００,３３６３８,,,,,,,,,,,,福田　智之,1,4291127,,,,,,,兵庫県神戸市東灘区向洋町中２丁目１１番地,一般財団法人甲南会六甲アイランド甲南病院,078-858-1111,,2,,,,,,
30,SD,040090XXXXXX0X,4660009,,,1005,急性気管支炎,J209,,,,,,,4310129,4310202,2
40,GK,9051,,,,,,9051,,,,,,,,,,,,,,,,,,,5,,,,,,3200,,,,,,3200,,,,,,2300,,,,,,72408,900,
50,RC,a0f95789c00b919c8b86bd72ae30c7
10,MN,00026604,43102,1,28,1,43103,929116970,28143103929116970,1,9900099,,神戸大学医学部附属病院,
20,SA,1,1,5,,,06271779,２０００,１３１５３３,,,,,,,,,,,,今西　優人,1,4091119,,,,,,,兵庫県神戸市中央区楠町７ー５ー２,神戸大学医学部附属病院,078-382-5111,,3,,,,,,
30,SD,070590XX97X0XX,2280017,18211845,,0211,口唇舌海綿状血管腫,D180,,,,,,,4310226,,
40,GK,36404,,,,,,36404,,,,,,,,,,,,,,,,,,,6,,,,,,3940,,,,,,3940,,,,,,2760,,,,,,254828,1180,
50,RC,1abc45bc2c73b8157c9ec16a8c78f1
10,MN,00026605,43102,1,28,1,43103,929117150,28143103929117150,1,9900099,,神戸大学医学部附属病院,
20,SA,1,1,1,,,06271779,２０００,１１３１４２,,,,,,,,,,,,前田　隆宏,1,3440216,,27,,,,,兵庫県神戸市中央区楠町７ー５ー２,神戸大学医学部附属病院,078-382-5111,,6,,,,,,
30,SD,030390XX970XXX,8832082,2049,,0606,左顔面痙攣,G513,,,,,,,4310128,4310206,2
40,GK,20762,,,,,,20762,,,,,,,,,,,,,,,,,,,2,,,,,,1330,,,,,,1330,,,,,,920,,,,,,145334,410,
50,RC,4ca5afb04db9be81a095f3e7a9a499
10,MN,00026606,43102,1,28,1,43103,929125040,28143103929125040,1,3000193,,独法）労働者健康安全機構関西労災病院,
20,SA,1,1,1,,,06271779,２０００,１０６２２７,,,,,,,,,,,,野村　忠夫,1,3451214,,28,,,,,兵庫県尼崎市稲葉荘３−１−６９,独法）労働者健康安全機構関西労災病院,(06)6416-1221,,13,,,,,,
30,SD,010030XX01X00X,4373003,,,0908,前交通動脈瘤,I671,,,,,,,4310206,4310218,2
40,GK,198752,,,,,,197965,,,,,,,97227,,,,,,,,,,,,33,,,,,,21720,,,,,,21720,,,,,,15180,,,,,,1882423,6540,496668
50,RC,6bcae5aee31d6cd74c55ccd3bf86a5
10,MN,00026607,43102,1,28,1,43103,929137540,28143103929137540,1,4009037,,姫路赤十字病院,
20,SA,1,1,5,,,06271779,２０００,１３０１５３,,,,,,,,,,,,郷田　江梨子,2,3580608,,,,,,,兵庫県姫路市下手野１丁目１２−１,姫路赤十字病院,(079)294-2251,,11,,,,,,
30,SD,010310XX99X0XX,8847240,,,0606,脳脊髄液漏出症,G968,,,,,,,4310206,4310216,9
40,GK,42420,,,,,,42420,,,,,,,,,,,,,,,,,,,28,,,,,,18470,,,,,,18470,,,,,,12880,,,,,,296940,5590,
50,RC,b0839af6c419543f3c136276598fe2
10,MN,00027219,43101,2,29,1,43103,010051940,29143103010051940,1,0501374,,奈良県西和医療センター,1
20,SA,1,1,5,,,06271779,２０００,１０４５５１,,,,,,,,,,,,,2,3410610,,,,,,,,奈良県西和医療センター,,,5,,,,,,
30,SD,060340XX03X00X,8844279,,,1111,総胆管結石性胆管炎,K803,,,,,,,4310120,4310124,2
40,GK,54003,,,,,,54003,,,,,,,,,,,,,,,,,,,8,,,,,,5272,,,,,,5272,,,,,,3680,,,,,,378021,1592,
50,RC,a9bffc054e20495d357e36067737d8
10,MN,00027239,43011,2,29,1,43103,010072670,29143103010072670,1,9801833,,公立大学法人奈良県立医科大学附属病院,1
20,SA,1,1,5,,,06271779,２０００,１１１００７,,,,,,,,,,,,,2,3441011,,27,,,,,,公立大学法人奈良県立医科大学附属病院,,,8,,,,,,
30,SD,120100XX01XX0X,8837795,,,1408,チョコレートのう胞,N801,,,,,,,4301112,4301119,2
40,GK,107102,,,,,,107102,,,,,,,172530,,,,,,,,,,,,17,,,,,,11280,,,,,,11280,,,,,,7820,,,,,,898490,3460,148776
50,RC,b66baf1bcdf880cf41e3ced85905fb
10,MN,00032239,43102,1,29,1,43103,929002190,29143103929002190,1,0102017,,社会福祉法人恩賜財団済生会奈良病院,
20,SA,1,1,1,,,06271779,２０００,１０７６３７,,,,,,,,,,,,瀬村　卓也,1,3420419,,,,,,,奈良県奈良市八条４丁目６４３番地,社会福祉法人恩賜財団済生会奈良病院,0742-36-1881,,14,,,,,,
30,SD,060150XX01XXXX,8849039,,,1113,虫垂炎性汎発性腹膜炎,K352,8835320,,,1113,術後イレウス,K913,4310207,4310220,2
40,GK,90161,,,,,,90161,,,,,,,,,,,,,,,,,,,16,,,,,,10590,,,,,,10590,,,,,,7360,,,,,,631127,3230,
50,RC,4ed7f6113db2b160c335ca899b8b18
10,MN,00032240,43102,1,29,1,43103,929002810,29143103929002810,1,0701057,,国保中央病院,
20,SA,1,1,1,,,06271779,２０００,３３９８６,,,,,,,,,,,,大瀬良　勝也,1,3410312,,,,,,,奈良県磯城郡田原本町大字宮古４０４−１,国保中央病院,0744-32-8800,,2,,,,,,
30,SD,060100XX01XX0X,2113008,,,1113,大腸ポリープ,K635,,,,,,,4310215,4310216,2
40,GK,13379,,,,,,13379,,,,,,,,,,,,,,,,,,,2,,,,,,1380,,,,,,1380,,,,,,920,,,,,,93653,460,
50,RC,a5ffd32e2870ddc4631fcbbe822a53
10,MN,00032241,43102,1,29,1,43103,929004700,29143103929004700,1,0901087,,公益財団法人天理よろづ相談所病院,
20,SA,1,1,1,,,06271779,２０００,１１３８０６,,,,,,,,,,,,田仲　秀長,1,3320417,,29,,,,,奈良県天理市三島町２００,公益財団法人天理よろづ相談所病院,0743-63-5611,,4,,,,,,
30,SD,010120XX99XXXX,8842877,,,0606,両側性反回神経麻痺,G522,,,,,,,4310225,,
40,GK,14067,,,,,,14067,,,,,,,,,,,,,,,,,,,11,,,,,,7040,,,,,,7040,,,,,,5060,,,,,,98469,1980,
50,RC,a24fad876e2e42857616467bdd0100
10,MN,00032242,43102,1,29,1,43103,929004800,29143103929004800,1,0901087,,公益財団法人天理よろづ相談所病院,
20,SA,1,1,5,,,06271779,２０００,１１７７２１,,,,,,,,,,,,宮本　珠江,2,3441205,,,,,,,奈良県天理市三島町２００,公益財団法人天理よろづ相談所病院,0743-63-5611,,11,,,,,,
30,SD,010160XX99X00X,3320002,,,0601,パーキンソン病,G20,,,,,,,4310218,,
40,GK,31122,,,,,,31122,,,,,,,,,,,,,,,,,,,27,,,,,,17280,,,,,,17280,,,,,,12420,,,,,,217854,4860,
50,RC,a63373f2f38280ea08e853e9da40d3
10,MN,00032243,43102,1,29,1,43103,929006180,29143103929006180,1,0901087,,公益財団法人天理よろづ相談所病院,
20,SA,1,2,3,,,06271779,２０００,１３９２１５,,52298023,0408666,,,,,,,,,山田　康誠,1,4261113,,28,,,,,奈良県天理市三島町２００,公益財団法人天理よろづ相談所病院,0743-63-5611,,4,4,,,,,
30,SD,040070XXXXX0XX,8830136,,,1004,ＲＳウイルス肺炎,J121,,,,,,,4310225,,
40,GK,22023,22023,,,,,22023,22023,,,,,,,1098,,,,,,,,,,,10,10,,,,,6400,6400,,,,,6400,6400,,,,,2600,2600,,,,,176184,3800,
50,RC,e19a6875f3d91ef8858c06083240e0
10,MN,00032244,43102,1,29,1,43103,929007050,29143103929007050,1,0901087,,公益財団法人天理よろづ相談所病院,
20,SA,1,1,1,,,06271779,２０００,１０２６０７,,,,,,,,,,,,佐藤　雅幸,1,3360525,,,,,,,奈良県天理市三島町２００,公益財団法人天理よろづ相談所病院,0743-63-5611,,1,,,,,,
30,SD,070341XX020XXX,7211012,,,1303,頚椎症性脊髄症,M4712,,,,,,,4310228,,
40,GK,3072,,,,,,3072,,,,,,,,,,,,,,,,,,,1,,,,,,640,,,,,,640,,,,,,460,,,,,,21504,180,
50,RC,0961a38ff9def19e1a98055a92c9c1
10,MN,00032245,43102,1,29,1,43103,929007430,29143103929007430,1,0901087,,公益財団法人天理よろづ相談所病院,
20,SA,1,1,5,,,06271779,２０００,１１２０８２,,,,,,,,,,,,三輪　航平,1,4100104,,,,,,,奈良県天理市三島町２００,公益財団法人天理よろづ相談所病院,0743-63-5611,,5,,,,,,
30,SD,040200XX01X00X,5129005,2049,,1011,左自然気胸,J931,,,,,,,4310207,4310211,2
40,GK,83980,,,,,,83980,,,,,,,,,,,,,,,,,,,9,,,,,,5760,,,,,,5760,,,,,,4140,,,,,,587860,1620,
50,RC,0b15ea43e134b2840a7043fbc2b6da
10,MN,00032246,43012,1,29,1,43103,929007550,29143103929007550,1,0901087,,公益財団法人天理よろづ相談所病院,
20,SA,1,1,5,,,06271779,２０００,２４７４５,,,,,,,,,,,,片岡　晃治,1,3340212,,28,,,,,奈良県天理市三島町２００,公益財団法人天理よろづ相談所病院,0743-63-5611,,31,,,,,,
30,SD,180010X0XXX2XX,8830124,,,0109,ＭＲＳＡ敗血症,A410,,,,,,,4300927,4301225,9
40,SV,1,8835341,,,0912,大動脈弁輪拡張症（ベントール手術後）,01,3600213,1
50,SV,2,3459001,,,0603,てんかん,,3600213,1
60,SV,3,7598010,,,1702,マルファン症候群,,3600213,1
70,SV,4,7906015,,,0404,高尿酸血症,,3611015,1
80,SV,5,2749004,,,1301,痛風,,4030415,1
90,SV,6,8833421,,,0901,高血圧症,,4090714,1
100,SV,7,4470003,20491076,,0912,左大腿動静脈瘻,,4140909,1
110,SV,8,8835407,,,0912,上行胸部大動脈瘤,01,4200924,1
120,SV,9,8837403,,8048,0903,大動脈弁輪拡張症の術後,01,4200924,1
130,SV,10,8838910,,,1310,廃用症候群,,4200929,1
140,SV,11,8833419,,,1800,高血糖症,,4201001,1
150,SV,12,4273006,,,0903,心房細動,,4201007,1
160,SV,13,8843825,,,1113,維持療法の必要な難治性逆流性食道炎,,4201128,1
170,SV,14,4414002,,,0912,腹部大動脈瘤,01,4211007,1
180,SV,15,4139007,,,0902,狭心症,,4211007,1
190,SV,16,5532004,,,1113,腹壁瘢痕ヘルニア,,4211105,1
200,SV,17,2724007,,,0403,高脂血症,,4220101,1
210,SV,18,4289015,,,0903,心不全,,4220205,1
220,SV,19,8840829,,,1306,腰痛症,,4220808,1
230,SV,20,8845363,,,0912,総腸骨動脈瘤,,4240606,1
240,SV,21,8846513,,,0404,カルニチン欠乏症,,4250906,1
250,SV,22,2809009,,,0301,鉄欠乏性貧血,,4260912,1
260,SV,23,4240019,,,0903,僧帽弁逆流症,,4261114,1
270,SV,24,2738008,,,0404,低アルブミン血症,,4261118,1
280,SV,25,8840042,,,1113,便秘症,,4261224,1
290,SV,26,4900009,,,1008,気管支炎,,4280610,1
300,SV,27,8845681,,,1905,術後創部感染,,4290802,1
310,SV,28,8836665,,,1905,創傷感染症,,4300927,1
320,SV,29,8830124,,,0109,ＭＲＳＡ敗血症,,4300928,1
330,SV,30,8839792,,,0606,不眠症,,4300928,1
340,SV,31,4412001,,,0912,胸部大動脈瘤,,4301112,1
350,SV,32,8844477,,,1905,術後出血性ショック,,4301123,1
360,SV,33,8836770,,,0107,足白癬,,4301201,1
370,SV,34,8834917,,,0107,真菌血症,,4301203,1
380,SV,35,5319011,,8002,1104,急性出血性胃潰瘍の疑い,,4301212,1
390,SV,36,2768003,,,0404,低カリウム血症,,4301215,1
400,SV,37,8833267,,,0101,下痢症,,4301218,1
410,SV,38,5119004,,,1011,胸水貯留,,4301227,1
420,SV,39,6059004,,,1406,真性包茎,,4301228,1
430,SV,40,6071007,,,1406,亀頭包皮炎,,4301228,1
440,SV,41,6165006,,,1408,外陰部びらん,,4301228,1
450,GK,244300,,,,,,243800,,,,,,,44400,,,,,,,,,,,,69,,,,,,39675,,,,,,39675,,,,,,31740,,,,,,2393600,7935,687000
460,RC,3063775d46cd42fbce48a4f05cf97a
10,MN,00032247,43102,1,29,1,43103,929008800,29143103929008800,1,0901087,,公益財団法人天理よろづ相談所病院,
20,SA,1,1,5,,,06271779,２０００,１０４１１４,,,,,,,,,,,,山口　治子,2,3410502,,28,,,,,奈良県天理市三島町２００,公益財団法人天理よろづ相談所病院,0743-63-5611,,3,,,,,,
30,SD,020220XX97XXX0,8831041,2057,,0704,両開放隅角緑内障,H401,,,,,,,4310226,,
40,GK,32615,,,,,,32615,,,,,,,80692,,,,,,,,,,,,8,,,,,,5120,,,,,,5120,,,,,,3680,,,,,,245458,1440,17153
50,RC,46eb57b80ab69abd5fb7cbac795dc0
10,MN,00032248,43102,1,29,1,43103,929013150,29143103929013150,1,0101829,,医療法人社団新生会総合病院高の原中央病院,
20,SA,1,1,5,,,06271779,２０００,１１５３１２,,,,,,,,,,,,ヤマモト　ヒロミ,2,3420324,,,,,,,奈良県奈良市右京１丁目３番地の３,医療法人社団新生会総合病院高の原中央病院,0742-71-1030,,2,,,,,,
30,SD,060100XX01XX0X,2113005,,,1113,結腸ポリープ,K635,,,,,,,4310205,4310206,2
40,GK,14501,,,,,,14501,,,,,,,,,,,,,,,,,,,2,,,,,,1432,,,,,,1432,,,,,,920,,,,,,101507,512,
50,RC,c695ed73366fff88ca5985849f692d
10,MN,00032249,43102,1,29,1,43103,929014880,29143103929014880,1,0801121,,大和高田市立病院,
20,SA,1,1,1,,,06271779,２０００,１２１４３８,,,,,,,,,,,,北村　正和,1,3520725,,,,,,,奈良県大和高田市礒野北町１番１号,大和高田市立病院,0745-53-2901,,2,,,,,,
30,SD,060100XX01XX0X,8830143,,,1113,Ｓ状結腸ポリープ,K635,,,,,,,4310218,4310219,1
40,GK,13921,,,,,,13921,,,,,,,,,,,,,,,,,,,2,,,,,,1380,,,,,,1380,,,,,,920,,,,,,97447,460,
50,RC,b1c10a7f96e7f87127047d9a2cc8ef
10,MN,00032250,43102,1,29,1,43103,929016610,29143103929016610,1,0801121,,大和高田市立病院,
20,SA,1,1,5,,,06271779,２０００,２７１１４,,,,,,,,,,,,鈴木　美里,2,3590912,,,,,,,奈良県大和高田市礒野北町１番１号,大和高田市立病院,0745-53-2901,,7,,,,,,
30,SD,120070XX02XXXX,2395048,,,0211,卵巣腫瘍,D391,,,,,,,4310207,4310213,2
40,GK,67153,,,,,,67153,,,,,,,,,,,,,,,,,,,14,,,,,,9260,,,,,,9260,,,,,,6440,,,,,,470071,2820,
50,RC,31f2e229e5e8bbbfe1e5e0faff61b3
10,MN,00032251,43102,1,29,1,43103,929016920,29143103929016920,1,0501374,,奈良県西和医療センター,
20,SA,1,1,5,,,06271779,２０００,１１７５３５,,,,,,,,,,,,藤田　諭実香,2,3460205,,,,,,,奈良県生駒郡三郷町三室１丁目１４−１６,奈良県西和医療センター,0745-32-0505,,7,,,,,,
30,SD,110290XX99X00X,5849005,,,1402,急性腎性腎不全,N170,,,,,,,4310219,4310225,9
40,GK,26967,,,,,,26967,,,,,,,,,,,,,,,,,,,17,,,,,,12172,,,,,,12172,,,,,,7820,,,,,,188769,4352,
50,RC,4964712a62198b3038b40901a78758
10,MN,00032252,43102,1,29,1,43103,929018050,29143103929018050,1,0501374,,奈良県西和医療センター,
20,SA,1,1,5,,,06271779,２０００,１０４５５１,,,,,,,,,,,,舩江　陽子,2,3410610,,,,,,,奈良県生駒郡三郷町三室１丁目１４−１６,奈良県西和医療センター,0745-32-0505,,5,,,,,,
30,SD,060335XX02000X,8837139,,,1111,胆石性胆のう炎,K801,,,,,,,4310217,4310221,2
40,GK,55859,,,,,,55859,,,,,,,,,,,,,,,,,,,8,,,,,,5120,,,,,,5120,,,,,,3680,,,,,,391013,1440,
50,RC,de4b5ee59a616ffe55d697fa0594ea
10,MN,00032253,43102,1,29,1,43103,929020130,29143103929020130,1,0301296,,近畿大学医学部奈良病院,
20,SA,1,1,5,,,06271779,２０００,３３６７９,,,,,,,,,,,,水嶋　琢磨,1,4110123,,,,,,,奈良県生駒市乙田町１２４８番−１,近畿大学医学部奈良病院,0743-77-0880,,17,,,,,,
30,SD,110280XX99000X,5831001,,,1401,ＩｇＡ腎症,N028,,,,,,,4310212,,
40,GK,50548,,,,,,50548,,,,,,,,,,,,,,,,,,,50,,,,,,36574,,,,,,36574,,,,,,23000,,,,,,353836,13574,
50,RC,715985089061a25a165e5cd2f2b385
10,MN,00032254,43102,1,29,1,43103,929023150,29143103929023150,1,0301296,,近畿大学医学部奈良病院,
20,SA,1,1,1,,,06271779,２０００,１０７０６８,,,,,,,,,,,,吉田　和雄,1,3360727,,,,,,,奈良県生駒市乙田町１２４８番−１,近畿大学医学部奈良病院,0743-77-0880,,2,,,,,,
30,SD,020110XX97XXX0,3669006,2058,,0702,両側核性白内障,H251,,,,,,,4310206,4310207,2
40,GK,19310,,,,,,19310,,,,,,,,,,,,,,,,,,,3,,,,,,2248,,,,,,2248,,,,,,1380,,,,,,135170,868,
50,RC,20762e6db8d8391c74f9ed58ed7bcb
10,MN,00032255,43102,1,29,1,43103,929024950,29143103929024950,1,0901145,,社会医療法人高清会高井病院,
20,SA,1,1,1,,,06271779,２０００,１０７１５７,,,,,,,,,,,,カタオカ　マナブ,1,3411015,,,,,,,奈良県天理市蔵之庄町４７０番地８,社会医療法人高清会高井病院,0743-65-0372,,3,,,,,,
30,SD,060335XX02000X,8840372,,,1111,胆石性慢性胆のう炎,K801,,,,,,,4310226,,
40,GK,53254,,,,,,53254,,,,,,,,,,,,,,,,,,,3,,,,,,2020,,,,,,2020,,,,,,1380,,,,,,372778,640,
50,RC,5fc1a77cec1db632c7469a50218fba
10,MN,00032256,43102,1,29,1,43103,929025210,29143103929025210,1,0901145,,社会医療法人高清会高井病院,
20,SA,1,1,1,,,06271779,２０００,２５６６４,,,,,,,,,,,,モリ　マサミ,1,3360112,,,,,,,奈良県天理市蔵之庄町４７０番地８,社会医療法人高清会高井病院,0743-65-0372,,5,,,,,,
30,SD,160760XX97XXXX,8838017,2056,,1901,右橈骨遠位端骨折,S5250,,,,,,,4310131,4310205,2
40,GK,14525,,,,,,14525,,,,,,,,,,,,,,,,,,,13,,,,,,8570,,,,,,8570,,,,,,5980,,,,,,101675,2590,
50,RC,601cc7472dc0cbe99a6530e302ec65
10,MN,00032257,43102,1,29,1,43103,929026290,29143103929026290,1,0111539,,奈良県総合医療センター,
20,SA,1,1,1,,,06271779,２０００,１２３１７６,,,,,,,,,,,,水本　淳也,1,3480520,,28,,,,,奈良県奈良市七条西町２丁目８９７番５,奈良県総合医療センター,0742-46-6001,,8,,,,,,
30,SD,060100XX01XX0X,8843014,,,1113,盲腸ポリープ,K635,,,,,,,4310203,4310210,2
40,GK,35354,,,,,,35354,,,,,,,80965,,,,,,,,,,,,4,,,,,,2660,,,,,,2660,,,,,,1840,,,,,,272575,820,25097
50,RC,122f27484387e86166a920e2bf94db
10,MN,00032258,43102,1,29,1,43103,929026820,29143103929026820,1,0111539,,奈良県総合医療センター,
20,SA,1,1,5,,,06271779,２０００,１２２９４８,,,,,,,,,,,,小西　隼誠,1,4160201,,,,,,,奈良県奈良市七条西町２丁目８９７番５,奈良県総合医療センター,0742-46-6001,,5,,,,,,
30,SD,030245XXXXXXXX,8847914,,,0106,ＥＢウイルス伝染性単核症,B270,,,,,,,4310129,4310205,2
40,GK,27332,,,,,,27332,,,,,,,,,,,,,,,,,,,13,,,,,,8570,,,,,,8570,,,,,,5980,,,,,,191324,2590,
50,RC,022f59f45c421a4211e106bb505936
10,MN,00032259,43102,1,29,1,43103,929032660,29143103929032660,1,0110309,,市立奈良病院,
20,SA,1,1,5,,,06271779,２０００,１１５７９２,,,,,,,,,,,,福元　皓貴,1,4201224,,,,,,,奈良県奈良市東紀寺町一丁目５０番１号,市立奈良病院,0742-24-1251,,5,,,,,,
30,SD,0400801199X00X,8842169,,,1004,マイコプラズマ肺炎,J157,,,,,,,4310215,4310219,1
40,GK,24266,,,,,,24196,,,,,,,,,,,,,,,,,,,12,,,,,,7930,,,,,,7930,,,,,,5520,,,,,,169372,2410,
50,RC,1ff099a52c6075cfe75197e61263bc
10,MN,00032260,43102,1,29,1,43103,929033010,29143103929033010,1,0110309,,市立奈良病院,
20,SA,1,1,3,,,06271779,２０００,１１５３３４,,,,,,,,,,,,岡田　峻輔,1,4251216,,,,,,,奈良県奈良市東紀寺町一丁目５０番１号,市立奈良病院,0742-24-1251,,2,,,,,,
30,SD,100180XX990X0X,8848098,,8002,0210,副腎神経芽腫の疑い,C749,,,,,,,4310219,4310220,4
40,GK,14699,,,,,,14699,,,,,,,,,,,,,,,,,,,0,,,,,,0,,,,,,0,,,,,,0,,,,,,117592,,
50,RC,1d4de537d7f14a331af119e8a76d9b
10,MN,00032261,43102,1,29,1,43103,929033020,29143103929033020,1,0110309,,市立奈良病院,
20,SA,1,1,3,,,06271779,２０００,１００２１８,,,,,,,,,,,,池田　亮晴,1,4300121,,,,,,,奈良県奈良市東紀寺町一丁目５０番１号,市立奈良病院,0742-24-1251,,2,,,,,,
30,SD,080270XXXX1XXX,9953021,,,1905,食物アレルギー,T781,,,,,,,4310214,4310221,9
40,GK,10502,,,,,,10502,,,,,,,,,,,,,,,,,,,2,,,,,,1380,,,,,,1380,,,,,,920,,,,,,84016,460,
50,RC,edf930322dc4caec90bb1d2758bdde
10,MN,00032262,43102,1,29,1,43103,929035820,29143103929035820,1,9801833,,公立大学法人奈良県立医科大学附属病院,
20,SA,1,1,1,,,06271779,２０００,２５６４０,,,,,,,,,,,,阪本　勉,1,3360109,,,,,,,奈良県橿原市四条町８４０番地,公立大学法人奈良県立医科大学附属病院,(0744)22-3051,,2,,,,,,
30,SD,040040XX9910XX,8831458,,8002,0205,下葉肺癌の疑い,C343,,,,,,,4310201,4310202,9
40,GK,17138,,,,,,17138,,,,,,,,,,,,,,,,,,,2,,,,,,1380,,,,,,1380,,,,,,920,,,,,,119966,460,
50,RC,83987d97d7c05b742849e094e192f1
10,MN,00032263,43102,1,29,1,43103,929036910,29143103929036910,1,9801833,,公立大学法人奈良県立医科大学附属病院,
20,SA,1,2,5,,,06271779,２０００,１１１１１９,,51297018,9901505,,,,,,,,,江口　諒,1,4101027,,02,,,,,奈良県橿原市四条町８４０番地,公立大学法人奈良県立医科大学附属病院,(0744)22-3051,,3,3,,,,,
30,SD,130170XXXXXXXX,2860002,,,0302,血友病Ａ,D66,,,,,,,4310206,4310208,2
40,GK,178970,178970,,,,,178970,178970,,,,,,,,,,,,,,,,,,5,5,,,,,3300,3300,,,,,3300,3300,,,,,2300,2300,,,,,1779700,1000,526910
50,RC,bcabb48997272d5de08ebb41bcd2d6
10,MN,00032264,43102,1,29,1,43103,929038990,29143103929038990,1,9801833,,公立大学法人奈良県立医科大学附属病院,
20,SA,1,1,5,,,06271779,２０００,１２１０１６,,,,,,,,,,,,森下　美年子,2,3501026,,,,,,,奈良県橿原市四条町８４０番地,公立大学法人奈良県立医科大学附属病院,(0744)22-3051,,8,,,,,,
30,SD,090010XX01X0XX,8838475,,,0206,乳房上外側部乳癌,C504,,,,,,,4310207,4310214,2
40,GK,71457,,,,,,71457,,,,,,,,,,,,,,,,,,,19,,,,,,12560,,,,,,12560,,,,,,8740,,,,,,500199,3820,
50,RC,e69fd817c9be41cec6e79ac81d77bc
10,MN,00032265,43102,1,29,1,43103,929039530,29143103929039530,1,9801833,,公立大学法人奈良県立医科大学附属病院,
20,SA,1,2,5,,,06271779,２０００,１１７９３７,,52298015,1100320,,,,,,,,,佐々野　翼沙,2,4170823,,28,,,,,奈良県橿原市四条町８４０番地,公立大学法人奈良県立医科大学附属病院,(0744)22-3051,,2,1,,,,,
30,SD,070180XX99XX0X,7373006,,,1307,脊柱側弯症,M4199,,,,,,,4310226,4310227,4
40,GK,18919,3302,,,,,18919,3302,,,,,,,0,,,,,,,,,,,2,0,,,,,1380,0,,,,,1380,0,,,,,920,0,,,,,132433,460,
50,RC,95578b1d4d4abaf4e5111722a22089
10,MN,00032266,43102,1,29,1,43103,929040140,29143103929040140,1,9801833,,公立大学法人奈良県立医科大学附属病院,
20,SA,1,1,5,,,06271779,２０００,３５８９７,,,,,,,,,,,,小西　清美,2,3380624,,27,,,,,奈良県橿原市四条町８４０番地,公立大学法人奈良県立医科大学附属病院,(0744)22-3051,,8,,,,,,
30,SD,010020X101X1XX,8847527,,,0904,中大脳動脈瘤破裂によるくも膜下出血,I601,,,,,,,4301222,4310208,2
40,GK,23774,,,,,,23774,,,,,,,,,,,,,,,,,,,19,,,,,,12560,,,,,,12560,,,,,,8740,,,,,,166418,3820,
50,RC,f7fccbeac4325400a724c802344680
10,MN,00032267,43102,1,29,1,43103,929043990,29143103929043990,1,0201066,,地域医療機構大和郡山病院,
20,SA,1,1,5,,,06271779,２０００,３４０７７,,,,,,,,,,,,大西　真希,2,3450812,,,,,,,奈良県大和郡山市朝日町１番６２号,地域医療機構大和郡山病院,0743-53-1111,,5,,,,,,
30,SD,12002XXX02X0XX,6221003,,,1408,子宮頚部異形成,N879,,,,,,,4310211,4310215,2
40,GK,18495,,,,,,18495,,,,,,,,,,,,,,,,,,,8,,,,,,5320,,,,,,5320,,,,,,3680,,,,,,129465,1640,
50,RC,1fc37e76f095216205d4b953f05023
10,MN,00036248,43101,1,31,1,43103,929006200,31143103929006200,1,8010028,,鳥取大学医学部附属病院,
20,SA,1,1,1,,,06271779,２０００,９８０１５５,,,,,,,,,,,,松田　純一,1,3430808,,28,,,,,鳥取県米子市西町３６−１,鳥取大学医学部附属病院,0859-38-7145,,6,,,,,,
30,SD,050070XX01X0XX,8847814,,,0903,非弁膜症性発作性心房細動,I480,,,,,,,4310118,4310123,2
40,GK,271710,,,,,,271710,,,,,,,104601,,,,,,,,,,,,15,,,,,,10736,,,,,,9900,,,,,,6900,,,,,,2612499,3000,710529
50,RC,86d02636399837edd52b457f0aad66
10,MN,00036249,43102,1,31,1,43103,929011200,31143103929011200,1,8010028,,鳥取大学医学部附属病院,
20,SA,1,1,1,,,06271779,２０００,１２８７６０,,,,,,,,,,,,谷口　洋二,1,3431213,,27,,,,,鳥取県米子市西町３６−１,鳥取大学医学部附属病院,0859-38-7145,,4,,,,,,
30,SD,030350XXXXXXXX,4739014,,,1007,慢性副鼻腔炎,J329,,,,,,,4310130,4310204,2
40,GK,73928,,,,,,73928,,,,,,,169213,,,,,,,,,,,,8,,,,,,5320,,,,,,5320,,,,,,3680,,,,,,570067,1640,52571
50,RC,51a3055ff2c560424693820d7289bb
10,MN,00036250,43102,1,31,1,43103,929016030,31143103929016030,1,0211079,,医療法人同愛会博愛病院,
20,SA,1,2,5,,,06271779,２０００,９８０３９２,,85310027,0603662,,,,,,,,,安岡　瞭,1,4160124,,,,,,,鳥取県米子市両三柳１８８０,医療法人同愛会博愛病院,0859-29-1100,,8,8,,,,,
30,SD,050100XX99XXXX,4229001,,,0903,ウイルス性心筋炎,I400,,,,,,,4310212,4310219,2
40,GK,30173,30173,,,,,30173,30173,,,,,,,9600,,,,,,,,,,,20,0,,,,,13200,0,,,,,13200,0,,,,,9200,0,,,,,221283,4000,10072
50,RC,b410ae793800c633d645f0ae293180
10,MN,00036471,43102,1,32,1,43103,929011930,32143103929011930,1,0111773,,総合病院　松江生協病院,
20,SA,1,1,5,,,06271779,２０００,１０１０５３,,,,,,,,,,,,平井　由美,2,3380525,,27,,,,,島根県松江市西津田８−８−８,総合病院　松江生協病院,0852-23-1111,,2,,,,,,
30,SD,050130XX99020X,8830796,,,0903,うっ血性心不全,I500,,,,,,,4310111,4310202,2
40,GK,7778,,,,,,7778,,,,,,,,,,,,,,,,,,,4,,,,,,2964,,,,,,2964,,,,,,1840,,,,,,54446,1124,
50,RC,e12f95bbea32ca854414ebfcafe8d4
10,MN,00037063,43012,2,34,1,43103,010003687,34143103010003687,1,1512829,,脳神経センター大田記念病院,1
20,SA,1,1,1,,,06271779,２０００,２５４４８,,,,,,,,,,,,,1,3350313,,28,,,,,,脳神経センター大田記念病院,,,1,,,,,,
30,SD,010020X099X00X,4309001,,,0904,くも膜下出血,I609,,,,,,,4301221,4301221,4
40,SD,010020X099X1XX,4309001,,,0904,くも膜下出血,I609,,,,,,,4301221,4301221,4
50,GK,11628,,,,,,11628,,,,,,,,,,,,,,,,,,,0,,,,,,0,,,,,,0,,,,,,0,,,,,,81396,0,
60,RC,d67d18641de01d296d6df94c540c69
10,MN,00037075,43005,2,34,1,43103,020002859,34143103020002859,1,8010066,,独立行政法人国立病院機構東広島医療センタ,1
20,SA,1,2,3,,,06271779,２０００,１２５６６２,,90340589,8555773,,,,,,,,,,2,4300515,,,,,,,,独立行政法人国立病院機構東広島医療センタ,,,6,6,,,,,
30,SD,140010X199X00X,7793003,,,1602,新生児嘔吐,P920,,,,,,,4300516,4300521,1
40,GK,18281,18281,,,,,18281,18281,,,,,,,3000,,,,,,1,,,,,11,0,,,,,7290,0,,,,,7290,0,,,,,5060,0,,,,,146248,2230,
50,RC,11890cb2dc9e6462a37bbd37aab14d
10,MN,00037076,43005,2,34,1,43103,020002867,34143103020002867,1,8010066,,独立行政法人国立病院機構東広島医療センタ,1
20,SA,1,2,3,,,06271779,２０００,１２６８０２,,90340589,8555336,,,,,,,,,,1,4300522,,,,,,,,独立行政法人国立病院機構東広島医療センタ,,,3,3,,,,,
30,SD,140010X199X00X,7706001,,,1602,新生児一過性多呼吸,P221,,,,,,,4300522,4300524,1
40,GK,17462,17462,,,,,17462,17462,,,,,,,1500,,,,,,1,,,,,7,0,,,,,4630,0,,,,,4630,0,,,,,3220,0,,,,,139696,1410,
50,RC,248dde11fc404026f755894e338e9d
10,MN,00039561,43101,1,34,1,43103,929009770,34143103929009770,1,0124378,,広島市立広島市民病院,
20,SA,1,2,3,,,06271779,２０００,１２７１９０,,90340589,8567083,,,,,,,,,田嶋　樹,1,4310122,,,,,,,広島県広島市中区基町７−３３,広島市立広島市民病院,082-221-2291,,1,1,,,,,
30,SD,140010X299X0XX,7650004,,,1601,低出生体重児,P071b,,,,,,,4310122,4310122,4
40,GK,7600,7600,,,,,7600,7600,,,,,,,500,,,,,,,,,,,0,0,,,,,0,0,,,,,0,0,,,,,0,0,,,,,60800,,
50,RC,bb9343b46b05e2dabf9c2721099ac6
10,MN,00039562,43102,1,34,1,43103,929012590,34143103929012590,1,0124378,,広島市立広島市民病院,
20,SA,1,1,1,,,06271779,２０００,１１５６８３,,,,,,,,,,,,五藤　直樹,1,3480526,,28,,,,,広島県広島市中区基町７−３３,広島市立広島市民病院,082-221-2291,,14,,,,,,
30,SD,050163XX01X10X,8832570,5020,,0912,解離性胸腹部大動脈瘤,I716,,,,,,,4310104,4310214,2
40,GK,47046,,,,,,47046,,,,,,,44400,,,,,,,,,,,,40,,,,,,27820,,,,,,27820,,,,,,18400,,,,,,426060,9420,96738
50,RC,89b8e3c1817f19ef782411334dcd57
10,MN,00039563,43102,1,34,1,43103,929017740,34143103929017740,1,0223683,,広島医療生活協同組合　広島共立病院,
20,SA,1,1,1,,,06271779,２０００,１０２３６９,,,,,,,,,,,,高下　聡司,1,3390730,,28,,,,,広島県広島市安佐南区中須２−２０−２０,広島医療生活協同組合　広島共立病院,082-879-1111,,2,,,,,,
30,SD,160610XX97XXXX,8450003,2049,,1905,左アキレス腱断裂,S860,,,,,,,4310227,,
40,GK,17033,,,,,,17033,,,,,,,,,,,,,,,,,,,4,,,,,,2660,,,,,,2660,,,,,,1840,,,,,,119231,820,
50,RC,62c6159198dfb5f0a22bc00067389b
10,MN,00039564,43102,1,34,1,43103,929025160,34143103929025160,1,1512258,,日本鋼管福山病院,
20,SA,1,2,3,,,06271779,２０００,１１９３５６,,90340084,4525283,,,,,,,,,長瀬　拓真,1,4290919,,,,,,,広島県福山市大門町津之下１８４４,日本鋼管福山病院,084-945-3106,,1,1,,,,,
30,SD,080270XXXX1XXX,9953021,,,1905,食物アレルギー,T781,,,,,,,4310212,4310212,9
40,GK,4815,4815,,,,,4815,4815,,,,,,,500,,,,,,,,,,,1,0,,,,,690,0,,,,,690,0,,,,,460,0,,,,,38520,230,
50,RC,c18998f17698df0b5967bac09d98ab
10,MN,00039565,43102,1,34,1,43103,929040860,34143103929040860,1,1511219,,公立学校共済組合中国中央病院,
20,SA,1,1,1,,,06271779,１００,２３５６６,,,,,,,,,,,,スヤマ　テツロウ,1,3330318,,28,,,,,広島県福山市御幸町大字上岩成１４８−１３,公立学校共済組合中国中央病院,084-970-2121,,23,,,,,,
30,SD,130030XX99X40X,8847422,,,0208,びまん性大細胞型Ｂ細胞性リンパ腫,C833,,,,,,,4310129,4310213,2
40,SD,130030XX99X40X,8847422,,,0208,びまん性大細胞型Ｂ細胞性リンパ腫,C833,,,,,,,4310219,,
50,GK,146380,,,,,,146380,,,,,,,44400,,,,,,,,,,,,67,,,,,,44030,,,,,,44030,,,,,,30820,,,,,,1419400,13210,394740
60,RC,eb6ead723681632522981c1b372bed
10,MN,00039566,43102,1,34,1,43103,929050070,34143103929050070,1,8010066,,独立行政法人国立病院機構東広島医療センタ,
20,SA,1,1,1,,,06271779,２０００,３３７２１,,,,,,,,,,,,松尾　洋,1,3410226,,,,,,,広島県東広島市西条町寺家５１３,独立行政法人国立病院機構東広島医療センタ,082-423-2176,,3,,,,,,
30,SD,050050XX02000X,8841212,,,0902,労作性狭心症,I208,,,,,,,4310225,4310227,2
40,GK,88959,,,,,,88959,,,,,,,,,,,,,,,,,,,4,,,,,,2964,,,,,,2964,,,,,,1840,,,,,,622713,1124,
50,RC,443f4feeae44eba78b04f6732d7095
10,MN,00039567,43102,1,34,1,43103,929051360,34143103929051360,1,8010066,,独立行政法人国立病院機構東広島医療センタ,
20,SA,1,1,5,,,06271779,２０００,１２３１３３,,,,,,,,,,,,小林　彩乃,2,4131207,,,,,,,広島県東広島市西条町寺家５１３,独立行政法人国立病院機構東広島医療センタ,082-423-2176,,3,,,,,,
30,SD,080020XXXXXXXX,8840831,,,0104,腰殿部帯状疱疹,B029,,,,,,,4310226,4310228,2
40,GK,12495,,,,,,12495,,,,,,,,,,,,,,,,,,,4,,,,,,2660,,,,,,2660,,,,,,1840,,,,,,87465,820,
50,RC,7aba35f003c7983ef6b20a10b0ce24
10,MN,00039568,43102,1,34,1,43103,929052070,34143103929052070,1,8010066,,独立行政法人国立病院機構東広島医療センタ,
20,SA,1,1,5,,,06271779,２０００,１１１５３１,,,,,,,,,,,,明井　智佐衣,2,3531228,,25,,,,,広島県東広島市西条町寺家５１３,独立行政法人国立病院機構東広島医療センタ,082-423-2176,,2,,,,,,
30,SD,120180XX99XXXX,8844761,,,1504,前期破水・分娩開始が破水後２４時間以降,O421,,,,,,,4310215,4310216,9
40,GK,7790,,,,,,7790,,,,,,,,,,,,,,,,,,,4,,,,,,2660,,,,,,2660,,,,,,1840,,,,,,54530,820,
50,RC,633aeecfbf02774229fa4988de189c
10,MN,00039569,43102,1,34,1,43103,929052300,34143103929052300,1,8010066,,独立行政法人国立病院機構東広島医療センタ,
20,SA,1,1,1,,,06271779,２０００,１０７９５８,,,,,,,,,,,,和泉　健司,1,3450311,,28,,,,,広島県東広島市西条町寺家５１３,独立行政法人国立病院機構東広島医療センタ,082-423-2176,,8,,,,,,
30,SD,030350XXXXXXXX,4739014,,,1007,両慢性副鼻腔炎（前頭洞、上顎洞、篩骨洞）,J328,,,,,,,4310211,4310218,2
40,GK,111425,,,,,,111425,,,,,,,88573,,,,,,,,,,,,19,,,,,,12560,,,,,,12560,,,,,,8740,,,,,,1025677,3820,245702
50,RC,64b86c87b0ed3f72a19475df6cf9a4
10,MN,00039570,43102,1,34,1,43103,929052310,34143103929052310,1,8010066,,独立行政法人国立病院機構東広島医療センタ,
20,SA,1,1,1,,,06271779,２０００,１２９０９４,,,,,,,,,,,,河内　郁弥,1,3600621,,,,,,,広島県東広島市西条町寺家５１３,独立行政法人国立病院機構東広島医療センタ,082-423-2176,,2,,,,,,
30,SD,140210XX01XXXX,7444008,2049,,1702,左先天性耳瘻孔,Q181,,,,,,,4310225,4310226,2
40,GK,10871,,,,,,10871,,,,,,,,,,,,,,,,,,,1,,,,,,690,,,,,,690,,,,,,460,,,,,,76097,230,
50,RC,5f128834cef61da96db4cd597b9f38
10,MN,00039571,43102,1,34,1,43103,929052880,34143103929052880,1,1512829,,脳神経センター大田記念病院,
20,SA,1,1,1,,,06271779,２０００,１０２８８０,,,,,,,,,,,,ヤマダ　ユウジ,1,3400306,,28,,,,,広島県福山市沖野上町３−６−２８,脳神経センター大田記念病院,084-931-8650,,12,,,,,,
30,SD,010030XX9900XX,8842856,2056,,0912,右未破裂椎骨動脈解離,I726,,,,,,,4310202,4310213,2
40,GK,41578,,,,,,41578,,,,,,,81588,,,,,,,,,,,,33,,,,,,23324,,,,,,23324,,,,,,15180,,,,,,334192,8144,43146
50,RC,675db79d304454d0aadb2b0ceca67b
10,MN,00039572,43102,1,34,1,43103,929065110,34143103929065110,1,8010017,,広島大学病院,
20,SA,1,1,1,,,06271779,２０００,１２２７２８,,,,,,,,,,,,大湊　吉行,1,3450819,,27,,,,,広島県広島市南区霞１−２−３,広島大学病院,(082)257-5555,,8,,,,,,
30,SD,020160XX97XXX0,8841160,2049,,0704,左裂孔原性網膜剥離,H330,,,,,,,4310208,4310215,2
40,GK,67986,,,,,,67976,,,,,,,168618,,,,,,,,,,,,20,,,,,,13200,,,,,,13200,,,,,,9200,,,,,,511142,4000,35310
50,RC,3b97c49a0eae8554446f17c9d5a16f
10,MN,00039573,43102,1,34,1,43103,929067590,34143103929067590,1,1511276,,福山市民病院,
20,SA,1,1,1,,,06271779,２０００,１０９２３６,,,,,,,,,,,,岩根　知彦,1,3470118,,,,,,,広島県福山市蔵王町５−２３−１,福山市民病院,084-941-5151,,6,,,,,,
30,SD,080040XXXXXXXX,0559004,,,0104,麻疹,B059,,,,,,,4310217,4310222,2
40,GK,25414,,,,,,25414,,,,,,,,,,,,,,,,,,,13,,,,,,8570,,,,,,8570,,,,,,5980,,,,,,177898,2590,
50,RC,7f2e50126f1ed31ba574bb41a01866
10,MN,00039574,43102,1,34,1,43103,929071060,34143103929071060,1,1511276,,福山市民病院,
20,SA,1,1,1,,,06271779,２０００,１２１６０３,,,,,,,,,,,,弓手　康次,1,3460224,,,,,,,広島県福山市蔵王町５−２３−１,福山市民病院,084-941-5151,,2,,,,,,
30,SD,030380XXXXXXXX,8839467,2056,,1800,右鼻出血症,R040,,,,,,,4310131,4310202,2
40,GK,8611,,,,,,8611,,,,,,,,,,,,,,,,,,,4,,,,,,2660,,,,,,2660,,,,,,1840,,,,,,60277,820,
50,RC,c1c70d4aa6a7b7f3d3c112639a6d97
10,MN,00041752,43101,2,35,1,43103,010081866,35143103010081866,1,0310398,,綜合病院山口赤十字病院,1
20,SA,1,1,5,,,06271779,２０００,１２６６４０,,,,,,,,,,,,,2,3581015,,,,,,,,綜合病院山口赤十字病院,,,10,,,,,,
30,SD,120165XX99XXXX,6431002,,,1504,重症妊娠悪阻,O211,,,,,,,4310108,4310117,2
40,GK,44059,,,,,,44059,,,,,,,,,,,,,,,,,,,27,,,,,,17780,,,,,,17780,,,,,,12420,,,,,,308413,5360,
50,RC,a71e43372aba0b227fc92fc4900f63
10,MN,00042009,43102,1,38,1,43103,929021380,38143103929021380,1,0118111,,松山赤十字病院,
20,SA,1,1,1,,,06271779,２０００,１２９８９２,,,,,,,,,,,,田中　莉那,2,3591010,,28,,,,,愛媛県松山市文京町１番地,松山赤十字病院,089-924-1111,,5,,,,,,
30,SD,120180XX01XXXX,8832140,7034,,1504,妊娠３７週既往子宮術後妊娠,O342,,,,,,,4310222,,
40,GK,18884,,,,,,18884,,,,,,,,,,,,,,,,,,,9,,,,,,5760,,,,,,5760,,,,,,4140,,,,,,132188,1620,
50,RC,05b028ce2c1ebbc13af4857f6b6c65
10,MN,00042357,43102,1,40,1,43103,929020160,40143103929020160,1,1119775,,福岡逓信病院,
20,SA,1,2,3,,,06271779,２０００,１２８０７８,,81405052,1090463,,,,,,,,,岩本　依展,1,4270515,,,,,,,福岡県福岡市中央区薬院２−６−１１,福岡逓信病院,092-741-8452,,4,4,,,,,
30,SD,040090XXXXXX0X,8830134,,,1005,ＲＳウイルス気管支炎,J205,,,,,,,4310131,4310204,2
40,GK,13662,13662,,,,,13662,13662,,,,,,,0,,,,,,,,,,,10,0,,,,,6400,0,,,,,6400,0,,,,,4600,0,,,,,109296,1800,
50,RC,7d32f1b29b8034c4c9aecc0f6e3df3
10,MN,00042358,43102,1,40,1,43103,929032970,40143103929032970,1,9919911,,独立行政法人国立病院機構九州がんセンター,
20,SA,1,1,1,,,06271779,２０００,１１９５３５,,,,,,,,,,,,ゴトウ　カズナリ,1,3500529,,28,,,,,福岡県福岡市南区野多目３−１−１,独立行政法人国立病院機構九州がんセンター,092-541-3231,,16,,,,,,
30,SD,060040XX99X2XX,1541005,,,0203,直腸癌,C20,,,,,,,4310213,,
40,GK,62649,,,,,,62649,,,,,,,83695,,,,,,,,,,,,42,,,,,,28364,,,,,,28364,,,,,,19320,,,,,,542795,9044,104252
50,RC,29b489f46e5d4185d054e7c4353cff
10,MN,00042359,43102,1,40,1,43103,929057610,40143103929057610,1,1719129,,福岡大学筑紫病院,
20,SA,1,1,1,,,06271779,２０００,４７６０８,,,,,,,,,,,,松原　鐵也,1,3310116,,29,,,,,福岡県筑紫野市俗明院１ー１ー１,福岡大学筑紫病院,092-921-1011,,9,,,,,,
30,SD,100180XX02XXXX,2550001,,,0404,クッシング症候群,E249,,,,,,,4310122,4310209,4
40,GK,22340,,,,,,22340,,,,,,,57600,,,,,,,,,,,,25,,,,,,17900,,,,,,17900,,,,,,11500,,,,,,165800,6400,9420
50,RC,c76718437e074c7930b78c0996a5b7
10,MN,00042360,43102,1,40,1,43103,929083400,40143103929083400,1,1119189,,福岡県済生会福岡総合病院,
20,SA,1,1,5,,,06271779,２０００,１０９９４７,,,,,,,,,,,,播磨　光,1,4120313,,,,,,,福岡県福岡市中央区天神１−３−４６,福岡県済生会福岡総合病院,092-771-8151,,3,,,,,,
30,SD,040200XX99X00X,5129005,,,1011,自然気胸,J931,,,,,,,4310208,4310210,2
40,GK,14352,,,,,,14352,,,,,,,,,,,,,,,,,,,5,,,,,,3200,,,,,,3200,,,,,,2300,,,,,,100464,900,
50,RC,3494a444e4a417b610d3c829f9f730
10,MN,00042648,43102,1,41,1,43103,929020010,41143103929020010,1,9811356,,唐津赤十字病院,
20,SA,1,1,1,,,06271779,２０００,５０３２６,,,,,,,,,,,,濱田　司,1,3330913,,,,,,,佐賀県唐津市和多田２４３０,唐津赤十字病院,0955-72-5111,,5,,,,,,
30,SD,060100XX01XX0X,8842657,,,0211,Ｓ状結腸腺腫,D125,,,,,,,4310218,4310222,2
40,GK,33960,,,,,,33960,,,,,,,,,,,,,,,,,,,7,,,,,,4556,,,,,,4556,,,,,,3220,,,,,,237720,1336,
50,RC,79e9999fed4b371f7fbff0fd54e533
10,MN,00043056,43102,1,47,1,43103,929050760,47143103929050760,1,2210287,,社会医療法人かりゆし会ハートライフ病院,
20,SA,1,1,1,,,06271779,２０００,３２２６８,,,,,,,,,,,,ミナミ　タツミ,1,3391222,,,,,,,沖縄県中頭郡中城村伊集２０８番地,社会医療法人かりゆし会ハートライフ病院,098-895-3255,,2,,,,,,
30,SD,060100XX01XX0X,5690001,,,1113,直腸ポリープ,K621,,,,,,,4310208,4310209,2
40,GK,16711,,,,,,16711,,,,,,,,,,,,,,,,,,,2,,,,,,1380,,,,,,1380,,,,,,920,,,,,,116977,460,
50,RC,176edb0f124d19f55405c0dd4af8da
