﻿00000001,ニイムラ　ハナエ                                                                  ,3080201,2,,4190201,4256878,39120001,11,41902,32,42414
00000002,ヤマムロ　マユコ                                                                  ,3181217,2,0000000000044487,4301217,4305930,39120002,11,,32,43052
00000003,ヨシダ　シンゴ                                                                    ,3081009,1,0000000000019972,4201009,4252022,39120003,11,42010,32,42137
00000004,タケウチ　リョウジ                                                                ,3100708,1,0000000000034764,,4227079,39120004,11,42207,32,42246
00000005,ツカモト　ケンジ                                                                  ,3210104,1,0000000000030388,5020104,5025269,39120005,11,50201,32,50227
00000006,オオニシ　タカヒロ                                                                ,3191108,1,0000000000035386,5011108,5023751,39120006,11,50111,32,50149
,スエナガ　タカシ                                                                  ,3180116,1,0000000000019739,4290116,4293512,39120007,11,42901,32,42932
00000008,マツモト　ユキ                                                                    ,3161203,1,0000000000026679,4281203,4309501,39120008,11,42812,32,42837
00000009,アサト　カズヒコ                                                                  ,3170701,1,0000000000027106,4290701,4296607,39120009,11,42907,32,42912
00000010,キンジョウ　ヨシオ                                                                ,3090820,1,0000000000025824,4210820,4241300,39120010,11,42108,32,42129
00000011,ナリトミ　コウヘイ                                                                ,3140905,1,0000000000029670,4260905,4288226,39120011,11,42609,32,42654
00000012,セコ　トモコ                                                                      ,3130823,2,0000000000018134,4250823,4299382,39120012,11,42508,32,42933
00000013,ムラタ　カヨコ                                                                    ,3180718,2,0000000000012741,4300718,4303547,39120013,11,43007,32,43028
00000014,ホシノ　ユウタ                                                                    ,3150526,1,0000000000018295,4270526,4304900,39120014,11,42705,32,43007
00000015,                                                                    ,3161007,2,0000000000041633,4281007,4289596,39120015,11,42810,32,42849
00000016,ドバシ　ヨシミ                                                                    ,3090415,2,0000000000011621,4210415,4212093,39120016,11,42104,32,42116
00000017,クリタ　カオル                                                                    ,3150426,1,0000000000011032,4270426,4285360,39120017,11,42704,32,42808
00000018,イシカワ　レイナ                                                                  ,3100506,2,0000000000023423,4220506,,39120018,11,42205,32,42205
00000019,アラタ　ケンゴ                                                                    ,3071109,1,0000000000026252,4191109,4228005,39120019,11,41911,32,41940
00000020,イハ　コウヘイ                                                                    ,3130618,1,0000000000028388,4250618,4264399,39120020,11,42506,32,42524
